\relax 
\providecommand\hyper@newdestlabel[2]{}
\@writefile{toc}{\contentsline {chapter}{\numberline {37}ANSI and IBM Tape Labels}{335}{chapter.37}}
\@writefile{lof}{\addvspace {10\p@ }}
\@writefile{lot}{\addvspace {10\p@ }}
\newlabel{AnsiLabelsChapter}{{37}{335}{ANSI and IBM Tape Labels}{chapter.37}{}}
\@writefile{general}{\indexentry{ANSI and IBM Tape Labels}{335}}
\@writefile{general}{\indexentry{Labels!Tape}{335}}
\@writefile{toc}{\contentsline {section}{\numberline {37.1}Director Pool Directive}{335}{section.37.1}}
\@writefile{toc}{\contentsline {section}{\numberline {37.2}Storage Daemon Device Directives}{335}{section.37.2}}
\@setckpt{ansi-labels}{
\setcounter{page}{336}
\setcounter{equation}{0}
\setcounter{enumi}{3}
\setcounter{enumii}{0}
\setcounter{enumiii}{0}
\setcounter{enumiv}{0}
\setcounter{footnote}{0}
\setcounter{mpfootnote}{0}
\setcounter{part}{0}
\setcounter{chapter}{37}
\setcounter{section}{2}
\setcounter{subsection}{0}
\setcounter{subsubsection}{0}
\setcounter{paragraph}{0}
\setcounter{subparagraph}{0}
\setcounter{figure}{0}
\setcounter{table}{0}
\setcounter{Item}{102}
\setcounter{Hfootnote}{2}
\setcounter{bookmark@seq@number}{413}
\setcounter{lpart}{0}
\setcounter{lchapter}{1}
\setcounter{lsection}{0}
\setcounter{lsubsection}{0}
\setcounter{lsubsubsection}{0}
\setcounter{lparagraph}{0}
\setcounter{lsubparagraph}{0}
\setcounter{lsubsubparagraph}{0}
\setcounter{float@type}{4}
\setcounter{LT@tables}{8}
\setcounter{LT@chunks}{6}
\setcounter{vrcnt}{66}
\setcounter{AM@survey}{0}
\setcounter{section@level}{1}
}
