\relax 
\providecommand\hyper@newdestlabel[2]{}
\@writefile{toc}{\contentsline {chapter}{\numberline {18}Customizing the Configuration Files}{159}{chapter.18}}
\@writefile{lof}{\addvspace {10\p@ }}
\@writefile{lot}{\addvspace {10\p@ }}
\newlabel{ConfigureChapter}{{18}{159}{Customizing the Configuration Files}{chapter.18}{}}
\@writefile{general}{\indexentry{Files!Customizing the Configuration }{159}}
\@writefile{general}{\indexentry{Customizing the Configuration Files }{159}}
\@writefile{lof}{\contentsline {figure}{Bacula Objects}{159}{chapter.18}}
\newlabel{ResFormat}{{18}{159}{Customizing the Configuration Files}{chapter.18}{}}
\@writefile{toc}{\contentsline {section}{\numberline {18.1}Character Sets}{160}{section.18.1}}
\@writefile{general}{\indexentry{Character Sets}{160}}
\@writefile{toc}{\contentsline {section}{\numberline {18.2}Resource Directive Format}{160}{section.18.2}}
\@writefile{general}{\indexentry{Resource Directive Format }{160}}
\@writefile{general}{\indexentry{Format!Resource Directive }{160}}
\newlabel{Comments}{{18.2}{160}{Resource Directive Format}{section.18.2}{}}
\@writefile{toc}{\contentsline {subsection}{\numberline {18.2.1}Comments}{160}{subsection.18.2.1}}
\@writefile{general}{\indexentry{Comments}{160}}
\newlabel{Case1}{{18.2.1}{160}{Comments}{subsection.18.2.1}{}}
\@writefile{toc}{\contentsline {subsection}{\numberline {18.2.2}Upper and Lower Case and Spaces}{160}{subsection.18.2.2}}
\@writefile{general}{\indexentry{Spaces!Upper/Lower Case}{160}}
\@writefile{general}{\indexentry{Upper and Lower Case and Spaces}{160}}
\newlabel{Includes}{{18.2.2}{160}{Upper and Lower Case and Spaces}{subsection.18.2.2}{}}
\@writefile{toc}{\contentsline {subsection}{\numberline {18.2.3}Including other Configuration Files}{161}{subsection.18.2.3}}
\@writefile{general}{\indexentry{Including other Configuration Files }{161}}
\@writefile{general}{\indexentry{Files!Including other Configuration }{161}}
\@writefile{general}{\indexentry{Using @ to include other files}{161}}
\@writefile{general}{\indexentry{@{\bf filename}}{161}}
\newlabel{DataTypes}{{18.2.3}{161}{Including other Configuration Files}{subsection.18.2.3}{}}
\@writefile{toc}{\contentsline {subsection}{\numberline {18.2.4}Recognized Primitive Data Types}{161}{subsection.18.2.4}}
\@writefile{general}{\indexentry{Types!Recognized Primitive Data }{161}}
\@writefile{general}{\indexentry{Recognized Primitive Data Types }{161}}
\@writefile{fd}{\indexentry{name}{161}}
\@writefile{fd}{\indexentry{name-string}{161}}
\@writefile{fd}{\indexentry{string}{161}}
\@writefile{dir}{\indexentry{directory}{161}}
\@writefile{dir}{\indexentry{password}{161}}
\@writefile{dir}{\indexentry{integer}{161}}
\@writefile{dir}{\indexentry{positive integer }{161}}
\@writefile{dir}{\indexentry{long integer}{161}}
\@writefile{dir}{\indexentry{yes or no }{161}}
\newlabel{Size1}{{18.2.4}{161}{Recognized Primitive Data Types}{subsection.18.2.4}{}}
\@writefile{dir}{\indexentry{size}{161}}
\newlabel{Time}{{18.2.4}{161}{Recognized Primitive Data Types}{subsection.18.2.4}{}}
\@writefile{dir}{\indexentry{time}{161}}
\gdef \LT@iv {\LT@entry 
    {1}{71.99455pt}\LT@entry 
    {1}{54.49008pt}\LT@entry 
    {1}{42.90678pt}\LT@entry 
    {1}{50.35812pt}\LT@entry 
    {1}{51.59561pt}}
\@writefile{dir}{\indexentry{seconds}{162}}
\@writefile{dir}{\indexentry{minutes}{162}}
\@writefile{dir}{\indexentry{hours }{162}}
\@writefile{dir}{\indexentry{days}{162}}
\@writefile{dir}{\indexentry{weeks}{162}}
\@writefile{dir}{\indexentry{months }{162}}
\@writefile{dir}{\indexentry{quarters }{162}}
\@writefile{dir}{\indexentry{years }{162}}
\newlabel{ResTypes}{{18.2.4}{162}{Recognized Primitive Data Types}{subsection.18.2.4}{}}
\@writefile{toc}{\contentsline {section}{\numberline {18.3}Resource Types}{162}{section.18.3}}
\@writefile{general}{\indexentry{Types!Resource }{162}}
\@writefile{general}{\indexentry{Resource Types }{162}}
\@writefile{lot}{\contentsline {table}{Resource Types}{162}{section.18.3}}
\@writefile{toc}{\contentsline {section}{\numberline {18.4}Names, Passwords and Authorization}{162}{section.18.4}}
\newlabel{Names}{{18.4}{162}{Names, Passwords and Authorization}{section.18.4}{}}
\@writefile{general}{\indexentry{Authorization!Names Passwords and }{162}}
\@writefile{general}{\indexentry{Names, Passwords and Authorization }{162}}
\@writefile{general}{\indexentry{Passwords}{162}}
\@writefile{toc}{\contentsline {section}{\numberline {18.5}Detailed Information for each Daemon}{163}{section.18.5}}
\@writefile{general}{\indexentry{Detailed Information for each Daemon }{163}}
\@writefile{general}{\indexentry{Daemon!Detailed Information for each }{163}}
\@setckpt{configure}{
\setcounter{page}{164}
\setcounter{equation}{0}
\setcounter{enumi}{2}
\setcounter{enumii}{0}
\setcounter{enumiii}{0}
\setcounter{enumiv}{0}
\setcounter{footnote}{0}
\setcounter{mpfootnote}{0}
\setcounter{part}{0}
\setcounter{chapter}{18}
\setcounter{section}{5}
\setcounter{subsection}{0}
\setcounter{subsubsection}{0}
\setcounter{paragraph}{0}
\setcounter{subparagraph}{0}
\setcounter{figure}{0}
\setcounter{table}{1}
\setcounter{Item}{53}
\setcounter{Hfootnote}{1}
\setcounter{bookmark@seq@number}{265}
\setcounter{lpart}{0}
\setcounter{lchapter}{1}
\setcounter{lsection}{0}
\setcounter{lsubsection}{0}
\setcounter{lsubsubsection}{0}
\setcounter{lparagraph}{0}
\setcounter{lsubparagraph}{0}
\setcounter{lsubsubparagraph}{0}
\setcounter{float@type}{4}
\setcounter{LT@tables}{4}
\setcounter{LT@chunks}{1}
\setcounter{vrcnt}{28}
\setcounter{AM@survey}{0}
\setcounter{section@level}{1}
}
