\relax 
\providecommand\hyper@newdestlabel[2]{}
\@writefile{toc}{\contentsline {chapter}{\numberline {23}Console Configuration}{247}{chapter.23}}
\@writefile{lof}{\addvspace {10\p@ }}
\@writefile{lot}{\addvspace {10\p@ }}
\newlabel{ConsoleConfChapter}{{23}{247}{Console Configuration}{chapter.23}{}}
\@writefile{general}{\indexentry{Configuration!Console}{247}}
\@writefile{general}{\indexentry{Console Configuration}{247}}
\@writefile{toc}{\contentsline {section}{\numberline {23.1}General}{247}{section.23.1}}
\@writefile{general}{\indexentry{General}{247}}
\@writefile{toc}{\contentsline {section}{\numberline {23.2}The Director Resource}{247}{section.23.2}}
\newlabel{DirectorResource3}{{23.2}{247}{The Director Resource}{section.23.2}{}}
\@writefile{general}{\indexentry{Director Resource}{247}}
\@writefile{general}{\indexentry{Resource!Director}{247}}
\@writefile{console}{\indexentry{Director}{247}}
\@writefile{console}{\indexentry{Name}{247}}
\@writefile{dir}{\indexentry{DIRPort}{247}}
\@writefile{dir}{\indexentry{Address}{247}}
\@writefile{dir}{\indexentry{Password}{247}}
\@writefile{toc}{\contentsline {section}{\numberline {23.3}The ConsoleFont Resource}{247}{section.23.3}}
\@writefile{general}{\indexentry{Resource!ConsoleFont}{247}}
\@writefile{general}{\indexentry{ConsoleFont Resource}{247}}
\@writefile{console}{\indexentry{ConsoleFont}{247}}
\@writefile{console}{\indexentry{Name}{247}}
\@writefile{console}{\indexentry{Font}{248}}
\@writefile{toc}{\contentsline {section}{\numberline {23.4}The Console Resource}{248}{section.23.4}}
\newlabel{ConsoleResource}{{23.4}{248}{The Console Resource}{section.23.4}{}}
\@writefile{general}{\indexentry{Console Resource}{248}}
\@writefile{general}{\indexentry{Resource!Console}{248}}
\@writefile{console}{\indexentry{Console}{248}}
\@writefile{console}{\indexentry{Name}{248}}
\@writefile{console}{\indexentry{Password}{248}}
\@writefile{console}{\indexentry{Heartbeat Interval}{249}}
\@writefile{console}{\indexentry{Directive!Heartbeat}{249}}
\@writefile{toc}{\contentsline {section}{\numberline {23.5}Console Commands}{250}{section.23.5}}
\@writefile{general}{\indexentry{Console Commands}{250}}
\@writefile{general}{\indexentry{Commands!Console}{250}}
\newlabel{55@xvr}{{}{250}{Console Commands}{section.23.5}{}}
\newlabel{55@vr}{{}{250}{Console Commands}{section.23.5}{}}
\@writefile{toc}{\contentsline {section}{\numberline {23.6}Sample Console Configuration File}{250}{section.23.6}}
\newlabel{SampleConfiguration2}{{23.6}{250}{Sample Console Configuration File}{section.23.6}{}}
\@writefile{general}{\indexentry{File!Sample Console Configuration}{250}}
\@writefile{general}{\indexentry{Sample Console Configuration File}{250}}
\@setckpt{consoleconf}{
\setcounter{page}{251}
\setcounter{equation}{0}
\setcounter{enumi}{8}
\setcounter{enumii}{0}
\setcounter{enumiii}{0}
\setcounter{enumiv}{0}
\setcounter{footnote}{0}
\setcounter{mpfootnote}{0}
\setcounter{part}{0}
\setcounter{chapter}{23}
\setcounter{section}{6}
\setcounter{subsection}{0}
\setcounter{subsubsection}{0}
\setcounter{paragraph}{0}
\setcounter{subparagraph}{0}
\setcounter{figure}{0}
\setcounter{table}{0}
\setcounter{Item}{79}
\setcounter{Hfootnote}{1}
\setcounter{bookmark@seq@number}{310}
\setcounter{lpart}{0}
\setcounter{lchapter}{1}
\setcounter{lsection}{0}
\setcounter{lsubsection}{0}
\setcounter{lsubsubsection}{0}
\setcounter{lparagraph}{0}
\setcounter{lsubparagraph}{0}
\setcounter{lsubsubparagraph}{0}
\setcounter{float@type}{4}
\setcounter{LT@tables}{6}
\setcounter{LT@chunks}{5}
\setcounter{vrcnt}{55}
\setcounter{AM@survey}{0}
\setcounter{section@level}{1}
}
