\relax 
\providecommand\hyper@newdestlabel[2]{}
\@writefile{toc}{\contentsline {chapter}{\numberline {20}Client/File daemon Configuration}{225}{chapter.20}}
\@writefile{lof}{\addvspace {10\p@ }}
\@writefile{lot}{\addvspace {10\p@ }}
\newlabel{FiledConfChapter}{{20}{225}{Client/File daemon Configuration}{chapter.20}{}}
\@writefile{general}{\indexentry{Configuration!Client/File daemon }{225}}
\@writefile{general}{\indexentry{Client/File daemon Configuration }{225}}
\@writefile{toc}{\contentsline {section}{\numberline {20.1}The Client Resource}{225}{section.20.1}}
\newlabel{ClientResource}{{20.1}{225}{The Client Resource}{section.20.1}{}}
\@writefile{general}{\indexentry{Resource!Client }{225}}
\@writefile{general}{\indexentry{Client Resource }{225}}
\@writefile{fd}{\indexentry{Client (or FileDaemon)}{225}}
\@writefile{fd}{\indexentry{Directive!Client (or FileDaemon)}{225}}
\@writefile{fd}{\indexentry{Name}{225}}
\@writefile{fd}{\indexentry{Directive!Name}{225}}
\@writefile{fd}{\indexentry{Working Directory}{225}}
\@writefile{fd}{\indexentry{Directive!Working Directory}{225}}
\@writefile{fd}{\indexentry{Pid Directory}{225}}
\@writefile{fd}{\indexentry{Directive!Pid Directory}{225}}
\@writefile{fd}{\indexentry{Heartbeat Interval}{225}}
\@writefile{fd}{\indexentry{Directive!Heartbeat Interval}{225}}
\@writefile{general}{\indexentry{Heartbeat Interval}{225}}
\@writefile{general}{\indexentry{Broken pipe}{225}}
\@writefile{general}{\indexentry{slow}{225}}
\@writefile{general}{\indexentry{Backups!slow}{225}}
\@writefile{fd}{\indexentry{Maximum Concurrent Jobs}{226}}
\@writefile{fd}{\indexentry{Directive!Maximum Concurrent Jobs}{226}}
\@writefile{fd}{\indexentry{FDAddresses}{226}}
\@writefile{fd}{\indexentry{Directive!FDAddresses}{226}}
\@writefile{fd}{\indexentry{FDPort}{226}}
\@writefile{fd}{\indexentry{Directive!FDPort}{226}}
\@writefile{fd}{\indexentry{FDAddress}{226}}
\@writefile{fd}{\indexentry{Directive!FDAddress}{226}}
\@writefile{fd}{\indexentry{FDSourceAddress}{226}}
\@writefile{fd}{\indexentry{Directive!FDSourceAddress}{226}}
\@writefile{fd}{\indexentry{SDConnectTimeout}{227}}
\@writefile{fd}{\indexentry{Directive!SDConnectTimeout}{227}}
\@writefile{fd}{\indexentry{Maximum Network Buffer Size}{227}}
\@writefile{fd}{\indexentry{Directive!Maximum Network Buffer Size}{227}}
\@writefile{fd}{\indexentry{Maximum Bandwidth Per Job}{227}}
\@writefile{fd}{\indexentry{Directive!Maximum Bandwidth Per Job}{227}}
\@writefile{console}{\indexentry{Heartbeat Interval}{227}}
\@writefile{console}{\indexentry{Directive!Heartbeat}{227}}
\@writefile{toc}{\contentsline {section}{\numberline {20.2}The Director Resource}{227}{section.20.2}}
\newlabel{DirectorResource}{{20.2}{227}{The Director Resource}{section.20.2}{}}
\@writefile{general}{\indexentry{Director Resource }{227}}
\@writefile{general}{\indexentry{Resource!Director }{227}}
\@writefile{fd}{\indexentry{Director}{227}}
\@writefile{fd}{\indexentry{Directive!Director}{227}}
\@writefile{fd}{\indexentry{Name}{227}}
\@writefile{fd}{\indexentry{Directive!Name}{227}}
\@writefile{fd}{\indexentry{Password}{227}}
\@writefile{fd}{\indexentry{Directive!Password}{227}}
\@writefile{fd}{\indexentry{Maximum Bandwidth Per Job}{227}}
\@writefile{fd}{\indexentry{Directive!Maximum Bandwidth Per Job}{227}}
\@writefile{fd}{\indexentry{Monitor}{227}}
\@writefile{fd}{\indexentry{Directive!Monitor}{227}}
\@writefile{toc}{\contentsline {section}{\numberline {20.3}The Message Resource}{228}{section.20.3}}
\newlabel{MessagesResource3}{{20.3}{228}{The Message Resource}{section.20.3}{}}
\@writefile{general}{\indexentry{Message Resource}{228}}
\@writefile{general}{\indexentry{Resource!Message }{228}}
\@writefile{toc}{\contentsline {section}{\numberline {20.4}Example Client Configuration File}{228}{section.20.4}}
\newlabel{SampleClientConfiguration}{{20.4}{228}{Example Client Configuration File}{section.20.4}{}}
\@writefile{general}{\indexentry{Example Client Configuration File }{228}}
\@writefile{general}{\indexentry{File!Example Client Configuration }{228}}
\@setckpt{filedconf}{
\setcounter{page}{229}
\setcounter{equation}{0}
\setcounter{enumi}{8}
\setcounter{enumii}{0}
\setcounter{enumiii}{0}
\setcounter{enumiv}{0}
\setcounter{footnote}{0}
\setcounter{mpfootnote}{0}
\setcounter{part}{0}
\setcounter{chapter}{20}
\setcounter{section}{4}
\setcounter{subsection}{0}
\setcounter{subsubsection}{0}
\setcounter{paragraph}{0}
\setcounter{subparagraph}{0}
\setcounter{figure}{0}
\setcounter{table}{0}
\setcounter{Item}{79}
\setcounter{Hfootnote}{1}
\setcounter{bookmark@seq@number}{293}
\setcounter{lpart}{0}
\setcounter{lchapter}{1}
\setcounter{lsection}{0}
\setcounter{lsubsection}{0}
\setcounter{lsubsubsection}{0}
\setcounter{lparagraph}{0}
\setcounter{lsubparagraph}{0}
\setcounter{lsubsubparagraph}{0}
\setcounter{float@type}{4}
\setcounter{LT@tables}{6}
\setcounter{LT@chunks}{5}
\setcounter{vrcnt}{49}
\setcounter{AM@survey}{0}
\setcounter{section@level}{1}
}
