\relax 
\providecommand\hyper@newdestlabel[2]{}
\@writefile{toc}{\contentsline {chapter}{\numberline {15}Installing Bacula}{125}{chapter.15}}
\@writefile{lof}{\addvspace {10\p@ }}
\@writefile{lot}{\addvspace {10\p@ }}
\newlabel{InstallChapter}{{15}{125}{Installing Bacula}{chapter.15}{}}
\@writefile{general}{\indexentry{Bacula!Installing}{125}}
\@writefile{general}{\indexentry{Installing Bacula}{125}}
\@writefile{toc}{\contentsline {section}{\numberline {15.1}Binary Release Packages}{125}{section.15.1}}
\@writefile{toc}{\contentsline {section}{\numberline {15.2}Building Bacula from Source}{125}{section.15.2}}
\@writefile{toc}{\contentsline {section}{\numberline {15.3}Source Release Files}{125}{section.15.3}}
\@writefile{general}{\indexentry{Source Files}{125}}
\@writefile{general}{\indexentry{Release Files}{125}}
\newlabel{upgrading1}{{15.3}{126}{Source Release Files}{section.15.3}{}}
\@writefile{toc}{\contentsline {section}{\numberline {15.4}Upgrading Bacula}{126}{section.15.4}}
\@writefile{general}{\indexentry{Bacula!Upgrading}{126}}
\@writefile{general}{\indexentry{Upgrading Bacula}{126}}
\@writefile{general}{\indexentry{Upgrading}{126}}
\newlabel{19@xvr}{{}{127}{Upgrading Bacula}{section.15.4}{}}
\newlabel{19@vr}{{}{127}{Upgrading Bacula}{section.15.4}{}}
\@writefile{toc}{\contentsline {section}{\numberline {15.5}Releases Numbering}{127}{section.15.5}}
\@writefile{general}{\indexentry{Release Numbering}{127}}
\@writefile{general}{\indexentry{Version Numbering}{127}}
\newlabel{BetaReleases}{{15.5}{127}{Releases Numbering}{section.15.5}{}}
\gdef \LT@iii {\LT@entry 
    {1}{105.39668pt}\LT@entry 
    {1}{46.80397pt}\LT@entry 
    {1}{61.1789pt}}
\@writefile{general}{\indexentry{Beta Releases}{128}}
\newlabel{Dependency}{{15.5}{128}{Beta Releases}{section*.116}{}}
\@writefile{toc}{\contentsline {section}{\numberline {15.6}Dependency Packages}{128}{section.15.6}}
\@writefile{general}{\indexentry{Dependency Packages}{128}}
\@writefile{general}{\indexentry{Packages!Dependency}{128}}
\@writefile{lot}{\contentsline {table}{Dependency Packages}{128}{Item.27}}
\@writefile{toc}{\contentsline {section}{\numberline {15.7}Supported Operating Systems}{129}{section.15.7}}
\newlabel{Systems}{{15.7}{129}{Supported Operating Systems}{section.15.7}{}}
\@writefile{general}{\indexentry{Systems!Supported Operating}{129}}
\@writefile{general}{\indexentry{Supported Operating Systems}{129}}
\@writefile{toc}{\contentsline {section}{\numberline {15.8}Building Bacula from Source}{129}{section.15.8}}
\newlabel{Building}{{15.8}{129}{Building Bacula from Source}{section.15.8}{}}
\@writefile{general}{\indexentry{Source!Building Bacula from}{129}}
\@writefile{general}{\indexentry{Building Bacula from Source}{129}}
\newlabel{CreateDatabase}{{11}{130}{Building Bacula from Source}{Item.38}{}}
\@writefile{toc}{\contentsline {section}{\numberline {15.9}What Database to Use?}{132}{section.15.9}}
\newlabel{DB}{{15.9}{132}{What Database to Use?}{section.15.9}{}}
\@writefile{general}{\indexentry{What Database to Use?}{132}}
\@writefile{general}{\indexentry{Use!What Database to}{132}}
\@writefile{toc}{\contentsline {section}{\numberline {15.10}Quick Start}{132}{section.15.10}}
\@writefile{general}{\indexentry{Quick Start}{132}}
\@writefile{general}{\indexentry{Start!Quick}{132}}
\@writefile{toc}{\contentsline {section}{\numberline {15.11}Configure Options}{132}{section.15.11}}
\newlabel{Options}{{15.11}{132}{Configure Options}{section.15.11}{}}
\@writefile{general}{\indexentry{Options!Configure}{132}}
\@writefile{general}{\indexentry{Configure Options}{132}}
\@writefile{general}{\indexentry{{-}prefix}{132}}
\@writefile{general}{\indexentry{{-}{\-}sbindir}{132}}
\@writefile{general}{\indexentry{{-}{\-}sysconfdir}{132}}
\@writefile{general}{\indexentry{{-}{\-}mandir}{132}}
\@writefile{general}{\indexentry{{-}{\-}datadir}{133}}
\@writefile{general}{\indexentry{{-}{\-}disable-ipv6}{133}}
\@writefile{general}{\indexentry{{-}{\-}enable-smartalloc}{133}}
\newlabel{enablebat}{{15.11}{133}{Configure Options}{section.15.11}{}}
\@writefile{general}{\indexentry{{-}{\-}enable-bat}{133}}
\@writefile{general}{\indexentry{{-}{\-}enable-batch-insert}{133}}
\@writefile{general}{\indexentry{{-}{\-}enable-bwx-console}{133}}
\@writefile{general}{\indexentry{{-}{\-}enable-static-tools}{134}}
\@writefile{general}{\indexentry{{-}{\-}enable-static-fd}{134}}
\@writefile{general}{\indexentry{{-}{\-}enable-static-sd}{134}}
\@writefile{general}{\indexentry{{-}{\-}enable-static-dir}{134}}
\@writefile{general}{\indexentry{{-}{\-}enable-static-cons}{134}}
\@writefile{general}{\indexentry{{-}{\-}enable-client-only}{134}}
\@writefile{general}{\indexentry{{-}{\-}enable-build-dird}{134}}
\@writefile{general}{\indexentry{{-}{\-}enable-build-stored}{135}}
\@writefile{general}{\indexentry{{-}{\-}enable-largefile}{135}}
\@writefile{general}{\indexentry{{-}{\-}disable-nls}{135}}
\@writefile{general}{\indexentry{{-}{\-}disable-ipv6}{135}}
\@writefile{general}{\indexentry{{-}{\-}with-mysql}{135}}
\@writefile{general}{\indexentry{{-}{\-}with-postgresql}{135}}
\@writefile{general}{\indexentry{{-}{\-}with-libintl-prefix}{135}}
\@writefile{general}{\indexentry{{-}{\-}enable-conio}{135}}
\@writefile{general}{\indexentry{{-}{\-}with-readline}{135}}
\@writefile{general}{\indexentry{{-}{\-}enable-readline}{135}}
\@writefile{general}{\indexentry{{-}{\-}with-tcp-wrappers}{135}}
\@writefile{general}{\indexentry{TCP Wrappers}{135}}
\@writefile{general}{\indexentry{Wrappers!TCP}{135}}
\@writefile{general}{\indexentry{libwrappers}{135}}
\@writefile{general}{\indexentry{{-}{\-}with-archivedir}{136}}
\@writefile{general}{\indexentry{{-}{\-}with-working-dir}{136}}
\@writefile{general}{\indexentry{{-}{\-}with-baseport}{136}}
\@writefile{general}{\indexentry{{-}{\-}with-dump-email}{136}}
\@writefile{general}{\indexentry{{-}{\-}with-pid-dir}{136}}
\@writefile{general}{\indexentry{{-}{\-}with-subsys-dir}{136}}
\@writefile{general}{\indexentry{{-}{\-}with-dir-password}{136}}
\@writefile{general}{\indexentry{{-}{\-}with-fd-password}{136}}
\@writefile{general}{\indexentry{{-}{\-}with-sd-password}{136}}
\@writefile{general}{\indexentry{{-}{\-}with-dir-user}{136}}
\@writefile{general}{\indexentry{{-}{\-}with-dir-group}{137}}
\@writefile{general}{\indexentry{{-}{\-}with-sd-user}{137}}
\@writefile{general}{\indexentry{{-}{\-}with-sd-group}{137}}
\@writefile{general}{\indexentry{{-}{\-}with-fd-user}{137}}
\@writefile{general}{\indexentry{{-}{\-}with-fd-group}{137}}
\@writefile{general}{\indexentry{{-}{\-}with-mon-dir-password}{137}}
\@writefile{general}{\indexentry{{-}{\-}with-mon-fd-password}{137}}
\@writefile{general}{\indexentry{{-}{\-}with-mon-sd-password}{137}}
\@writefile{general}{\indexentry{{-}{\-}with-db-name}{137}}
\@writefile{general}{\indexentry{{-}{\-}with-db-user}{137}}
\@writefile{toc}{\contentsline {section}{\numberline {15.12}Recommended Options for Most Systems}{137}{section.15.12}}
\@writefile{general}{\indexentry{Systems!Recommended Options for Most}{137}}
\@writefile{general}{\indexentry{Recommended Options for Most Systems}{137}}
\@writefile{toc}{\contentsline {section}{\numberline {15.13}Red Hat}{138}{section.15.13}}
\@writefile{general}{\indexentry{Red Hat}{138}}
\@writefile{toc}{\contentsline {section}{\numberline {15.14}Solaris}{138}{section.15.14}}
\@writefile{general}{\indexentry{Solaris}{138}}
\@writefile{toc}{\contentsline {section}{\numberline {15.15}FreeBSD}{139}{section.15.15}}
\@writefile{general}{\indexentry{FreeBSD}{139}}
\newlabel{20@xvr}{{}{139}{FreeBSD}{section.15.15}{}}
\newlabel{20@vr}{{}{139}{FreeBSD}{section.15.15}{}}
\@writefile{toc}{\contentsline {section}{\numberline {15.16}Win32}{139}{section.15.16}}
\@writefile{general}{\indexentry{Win32}{139}}
\@writefile{toc}{\contentsline {section}{\numberline {15.17}One File Configure Script}{139}{section.15.17}}
\@writefile{general}{\indexentry{Script!One File Configure}{139}}
\@writefile{general}{\indexentry{One Files Configure Script}{139}}
\@writefile{toc}{\contentsline {section}{\numberline {15.18}Installing Bacula}{139}{section.15.18}}
\@writefile{general}{\indexentry{Bacula!Installing}{139}}
\@writefile{general}{\indexentry{Installing Bacula}{139}}
\@writefile{toc}{\contentsline {section}{\numberline {15.19}Building a File Daemon or Client}{140}{section.15.19}}
\@writefile{general}{\indexentry{Client!Building a File Daemon or}{140}}
\@writefile{general}{\indexentry{Building a File Daemon or Client}{140}}
\newlabel{autostart}{{15.19}{140}{Building a File Daemon or Client}{section.15.19}{}}
\@writefile{toc}{\contentsline {section}{\numberline {15.20}Auto Starting the Daemons}{140}{section.15.20}}
\@writefile{general}{\indexentry{Daemons!Auto Starting the}{140}}
\@writefile{general}{\indexentry{Auto Starting the Daemons}{140}}
\@writefile{toc}{\contentsline {section}{\numberline {15.21}Other Make Notes}{140}{section.15.21}}
\@writefile{general}{\indexentry{Notes!Other Make}{140}}
\@writefile{general}{\indexentry{Other Make Notes}{140}}
\newlabel{monitor}{{15.21}{141}{Other Make Notes}{section.15.21}{}}
\@writefile{toc}{\contentsline {section}{\numberline {15.22}Modifying the Bacula Configuration Files}{141}{section.15.22}}
\@writefile{general}{\indexentry{Modifying the Bacula Configuration Files}{141}}
\@writefile{general}{\indexentry{Files!Modifying the Bacula Configuration}{141}}
\@setckpt{install}{
\setcounter{page}{142}
\setcounter{equation}{0}
\setcounter{enumi}{16}
\setcounter{enumii}{0}
\setcounter{enumiii}{0}
\setcounter{enumiv}{0}
\setcounter{footnote}{0}
\setcounter{mpfootnote}{0}
\setcounter{part}{0}
\setcounter{chapter}{15}
\setcounter{section}{22}
\setcounter{subsection}{0}
\setcounter{subsubsection}{0}
\setcounter{paragraph}{0}
\setcounter{subparagraph}{0}
\setcounter{figure}{0}
\setcounter{table}{1}
\setcounter{Item}{43}
\setcounter{Hfootnote}{1}
\setcounter{bookmark@seq@number}{234}
\setcounter{lpart}{0}
\setcounter{lchapter}{1}
\setcounter{lsection}{1}
\setcounter{lsubsection}{0}
\setcounter{lsubsubsection}{0}
\setcounter{lparagraph}{0}
\setcounter{lsubparagraph}{0}
\setcounter{lsubsubparagraph}{0}
\setcounter{float@type}{4}
\setcounter{LT@tables}{3}
\setcounter{LT@chunks}{1}
\setcounter{vrcnt}{20}
\setcounter{AM@survey}{0}
\setcounter{section@level}{1}
}
