\relax 
\providecommand\hyper@newdestlabel[2]{}
\newlabel{LesserChapter}{{48.8}{416}{GNU Lesser General Public License}{section*.133}{}}
\@writefile{general}{\indexentry{GNU Lesser General Public License }{416}}
\@writefile{general}{\indexentry{License!GNU Lesser General Public }{416}}
\@writefile{toc}{\contentsline {section}{\numberline {48.9}Table of Contents}{416}{section.48.9}}
\@writefile{general}{\indexentry{Table of Contents }{416}}
\@writefile{general}{\indexentry{Contents!Table of }{416}}
\newlabel{TOC12}{{48.9}{416}{Table of Contents}{section.48.9}{}}
\newlabel{TOC23}{{48.9}{416}{Table of Contents}{section.48.9}{}}
\newlabel{TOC34}{{48.9}{416}{Table of Contents}{section.48.9}{}}
\newlabel{TOC45}{{48.9}{416}{Table of Contents}{section.48.9}{}}
\@writefile{toc}{\contentsline {section}{\numberline {48.10}GNU LESSER GENERAL PUBLIC LICENSE}{416}{section.48.10}}
\newlabel{SEC12}{{48.10}{416}{GNU LESSER GENERAL PUBLIC LICENSE}{section.48.10}{}}
\@writefile{general}{\indexentry{LICENSE!GNU LESSER GENERAL PUBLIC }{416}}
\@writefile{general}{\indexentry{GNU LESSER GENERAL PUBLIC LICENSE }{416}}
\@writefile{toc}{\contentsline {section}{\numberline {48.11}Preamble}{416}{section.48.11}}
\newlabel{SEC23}{{48.11}{416}{Preamble}{section.48.11}{}}
\@writefile{general}{\indexentry{Preamble }{416}}
\@writefile{toc}{\contentsline {section}{\numberline {48.12}TERMS AND CONDITIONS}{417}{section.48.12}}
\newlabel{SEC34}{{48.12}{417}{TERMS AND CONDITIONS}{section.48.12}{}}
\@writefile{general}{\indexentry{CONDITIONS!TERMS AND }{417}}
\@writefile{general}{\indexentry{TERMS AND CONDITIONS }{417}}
\@writefile{toc}{\contentsline {section}{\numberline {48.13}How to Apply These Terms to Your New Libraries}{421}{section.48.13}}
\newlabel{SEC45}{{48.13}{421}{How to Apply These Terms to Your New Libraries}{section.48.13}{}}
\@writefile{general}{\indexentry{Libraries!How to Apply These Terms to Your New }{421}}
\@writefile{general}{\indexentry{How to Apply These Terms to Your New Libraries }{421}}
\@setckpt{lesser}{
\setcounter{page}{422}
\setcounter{equation}{0}
\setcounter{enumi}{17}
\setcounter{enumii}{6}
\setcounter{enumiii}{0}
\setcounter{enumiv}{0}
\setcounter{footnote}{0}
\setcounter{mpfootnote}{0}
\setcounter{part}{0}
\setcounter{chapter}{48}
\setcounter{section}{13}
\setcounter{subsection}{0}
\setcounter{subsubsection}{0}
\setcounter{paragraph}{0}
\setcounter{subparagraph}{0}
\setcounter{figure}{0}
\setcounter{table}{0}
\setcounter{Item}{213}
\setcounter{Hfootnote}{2}
\setcounter{bookmark@seq@number}{526}
\setcounter{lpart}{0}
\setcounter{lchapter}{1}
\setcounter{lsection}{3}
\setcounter{lsubsection}{0}
\setcounter{lsubsubsection}{0}
\setcounter{lparagraph}{0}
\setcounter{lsubparagraph}{0}
\setcounter{lsubsubparagraph}{0}
\setcounter{float@type}{4}
\setcounter{LT@tables}{9}
\setcounter{LT@chunks}{6}
\setcounter{vrcnt}{67}
\setcounter{AM@survey}{0}
\setcounter{section@level}{1}
}
