\relax 
\providecommand\hyper@newdestlabel[2]{}
\providecommand\HyperFirstAtBeginDocument{\AtBeginDocument}
\HyperFirstAtBeginDocument{\ifx\hyper@anchor\@undefined
\global\let\oldcontentsline\contentsline
\gdef\contentsline#1#2#3#4{\oldcontentsline{#1}{#2}{#3}}
\global\let\oldnewlabel\newlabel
\gdef\newlabel#1#2{\newlabelxx{#1}#2}
\gdef\newlabelxx#1#2#3#4#5#6{\oldnewlabel{#1}{{#2}{#3}}}
\AtEndDocument{\ifx\hyper@anchor\@undefined
\let\contentsline\oldcontentsline
\let\newlabel\oldnewlabel
\fi}
\fi}
\global\let\hyper@last\relax 
\gdef\HyperFirstAtBeginDocument#1{#1}
\providecommand\HyField@AuxAddToFields[1]{}
\providecommand\HyField@AuxAddToCoFields[2]{}
\@input{coverpage.aux}
\babel@aux{english}{}
\@input{general.aux}
\@input{newfeatures.aux}
\@input{state.aux}
\@input{requirements.aux}
\@input{supportedoses.aux}
\@input{supporteddrives.aux}
\@input{quickstart.aux}
\@input{install.aux}
\@input{critical.aux}
\@input{tutorial.aux}
\@input{configure.aux}
\@input{dirdconf.aux}
\@input{filedconf.aux}
\@input{storedconf.aux}
\@input{messagesres.aux}
\@input{consoleconf.aux}
\@input{monitorconf.aux}
\@input{restore.aux}
\@input{recycling.aux}
\@input{disk.aux}
\@input{pools.aux}
\@input{migration.aux}
\@input{basejob.aux}
\@input{strategies.aux}
\@input{autochangers.aux}
\@input{supportedchangers.aux}
\@input{spooling.aux}
\@input{statistics.aux}
\@input{ansi-labels.aux}
\@input{win32.aux}
\@input{rescue.aux}
\@input{tls.aux}
\@input{dataencryption.aux}
\@input{verify.aux}
\@input{mysql.aux}
\@input{postgresql.aux}
\@input{catmaintenance.aux}
\@input{tapetesting.aux}
\@input{security.aux}
\@input{bootstrap.aux}
\@input{license.aux}
\@input{cc-by-sa.aux}
\@input{gpl.aux}
\@input{lesser.aux}
\@input{projects.aux}
\@input{thanks.aux}
\@input{bugs.aux}
\newlabel{LastPage}{{}{425}{}{page.425}{}}
\xdef\lastpage@lastpage{425}
\xdef\lastpage@lastpageHy{425}
