\relax 
\providecommand\hyper@newdestlabel[2]{}
\@writefile{toc}{\contentsline {chapter}{\numberline {43}Installing and Configuring MySQL}{375}{chapter.43}}
\@writefile{lof}{\addvspace {10\p@ }}
\@writefile{lot}{\addvspace {10\p@ }}
\newlabel{MySqlChapter}{{43}{375}{Installing and Configuring MySQL}{chapter.43}{}}
\@writefile{general}{\indexentry{MySQL!Installing and Configuring }{375}}
\@writefile{general}{\indexentry{Installing and Configuring MySQL }{375}}
\@writefile{toc}{\contentsline {section}{\numberline {43.1}Installing and Configuring MySQL -- Phase I}{375}{section.43.1}}
\@writefile{general}{\indexentry{Installing and Configuring MySQL -- Phase I }{375}}
\@writefile{general}{\indexentry{Phase I!Installing and Configuring MySQL -- }{375}}
\newlabel{mysql_phase2}{{43.1}{376}{Installing and Configuring MySQL -- Phase I}{Item.170}{}}
\@writefile{toc}{\contentsline {section}{\numberline {43.2}Installing and Configuring MySQL -- Phase II}{376}{section.43.2}}
\@writefile{general}{\indexentry{Installing and Configuring MySQL -- Phase II }{376}}
\@writefile{general}{\indexentry{Phase II!Installing and Configuring MySQL -- }{376}}
\@writefile{toc}{\contentsline {section}{\numberline {43.3}Re-initializing the Catalog Database}{377}{section.43.3}}
\@writefile{general}{\indexentry{Database!Re-initializing the Catalog }{377}}
\@writefile{general}{\indexentry{Re-initializing the Catalog Database }{377}}
\@writefile{toc}{\contentsline {section}{\numberline {43.4}Linking Bacula with MySQL}{377}{section.43.4}}
\@writefile{general}{\indexentry{Linking Bacula with MySQL }{377}}
\@writefile{general}{\indexentry{MySQL!Linking Bacula with }{377}}
\@writefile{general}{\indexentry{Upgrading}{377}}
\@writefile{toc}{\contentsline {section}{\numberline {43.5}Installing MySQL from RPMs}{378}{section.43.5}}
\@writefile{general}{\indexentry{MySQL!Installing from RPMs}{378}}
\@writefile{general}{\indexentry{Installing MySQL from RPMs}{378}}
\@writefile{toc}{\contentsline {section}{\numberline {43.6}Upgrading MySQL}{378}{section.43.6}}
\@writefile{general}{\indexentry{Upgrading MySQL }{378}}
\@writefile{general}{\indexentry{Upgrading!MySQL }{378}}
\@writefile{general}{\indexentry{Upgrading}{378}}
\@writefile{toc}{\contentsline {section}{\numberline {43.7}MySQL Configuration Caution}{378}{section.43.7}}
\@writefile{general}{\indexentry{MySQL Caution}{378}}
\@setckpt{mysql}{
\setcounter{page}{379}
\setcounter{equation}{0}
\setcounter{enumi}{5}
\setcounter{enumii}{0}
\setcounter{enumiii}{0}
\setcounter{enumiv}{0}
\setcounter{footnote}{0}
\setcounter{mpfootnote}{0}
\setcounter{part}{0}
\setcounter{chapter}{43}
\setcounter{section}{7}
\setcounter{subsection}{0}
\setcounter{subsubsection}{0}
\setcounter{paragraph}{0}
\setcounter{subparagraph}{0}
\setcounter{figure}{0}
\setcounter{table}{0}
\setcounter{Item}{175}
\setcounter{Hfootnote}{2}
\setcounter{bookmark@seq@number}{476}
\setcounter{lpart}{0}
\setcounter{lchapter}{1}
\setcounter{lsection}{0}
\setcounter{lsubsection}{0}
\setcounter{lsubsubsection}{0}
\setcounter{lparagraph}{0}
\setcounter{lsubparagraph}{0}
\setcounter{lsubsubparagraph}{0}
\setcounter{float@type}{4}
\setcounter{LT@tables}{9}
\setcounter{LT@chunks}{6}
\setcounter{vrcnt}{66}
\setcounter{AM@survey}{0}
\setcounter{section@level}{1}
}
