\relax 
\providecommand\hyper@newdestlabel[2]{}
\@writefile{toc}{\contentsline {chapter}{\numberline {2}New Features in 9.4.0}{9}{chapter.2}}
\@writefile{lof}{\addvspace {10\p@ }}
\@writefile{lot}{\addvspace {10\p@ }}
\@writefile{toc}{\contentsline {subsubsection}{Cloud Backup}{9}{section*.8}}
\@writefile{toc}{\contentsline {subsubsection}{Cloud Volume Architecture}{9}{section*.9}}
\@writefile{lof}{\contentsline {figure}{\numberline {2.1}{\ignorespaces Bacula Cloud Architecture}}{9}{figure.2.1}}
\newlabel{fig:cloud0}{{2.1}{9}{Bacula Cloud Architecture}{figure.2.1}{}}
\@writefile{toc}{\contentsline {subsubsection}{Cloud Restore}{10}{section*.10}}
\@writefile{toc}{\contentsline {subsubsection}{Compatibility}{10}{section*.11}}
\@writefile{toc}{\contentsline {subsubsection}{Deduplication and the Cloud}{10}{section*.12}}
\@writefile{toc}{\contentsline {subsubsection}{Virtual Autochangers and Disk Autochangers}{10}{section*.13}}
\@writefile{toc}{\contentsline {subsubsection}{Security}{10}{section*.14}}
\@writefile{toc}{\contentsline {subsubsection}{Cache and Pruning}{10}{section*.15}}
\@writefile{toc}{\contentsline {subsection}{\numberline {2.0.1}New Commands, Resource, and Directives for Cloud}{10}{subsection.2.0.1}}
\@writefile{toc}{\contentsline {subsubsection}{New Cloud Bconsole Commands}{11}{section*.16}}
\@writefile{toc}{\contentsline {subsubsection}{Cloud Additions to the DIR Pool Resource}{12}{section*.17}}
\@writefile{toc}{\contentsline {subsubsection}{Cloud Additions to the SD Device Resource}{12}{section*.18}}
\@writefile{toc}{\contentsline {subsubsection}{New Cloud SD Device Directives}{12}{section*.19}}
\@writefile{toc}{\contentsline {subsubsection}{Example Cloud Device Specification}{12}{section*.20}}
\newlabel{3@xvr}{{}{12}{Example Cloud Device Specification}{section*.20}{}}
\newlabel{3@vr}{{}{12}{Example Cloud Device Specification}{section*.20}{}}
\@writefile{toc}{\contentsline {subsubsection}{The Cloud Resource}{13}{section*.21}}
\newlabel{Storage:Cloud:Name}{{2.0.1}{13}{The Cloud Resource}{section*.21}{}}
\@writefile{sd}{\indexentry{Name}{13}}
\@writefile{sd}{\indexentry{Directive!Name}{13}}
\newlabel{Storage:Cloud:Description}{{2.0.1}{13}{The Cloud Resource}{section*.21}{}}
\newlabel{Storage:Cloud:Driver}{{2.0.1}{13}{The Cloud Resource}{section*.21}{}}
\@writefile{sd}{\indexentry{Driver}{13}}
\newlabel{Storage:Cloud:HostName}{{2.0.1}{13}{The Cloud Resource}{section*.21}{}}
\@writefile{sd}{\indexentry{HostName}{14}}
\newlabel{Storage:Cloud:BucketName}{{2.0.1}{14}{The Cloud Resource}{section*.21}{}}
\@writefile{sd}{\indexentry{BucketName}{14}}
\newlabel{Storage:Cloud:AccessKey}{{2.0.1}{14}{The Cloud Resource}{section*.21}{}}
\@writefile{sd}{\indexentry{AccessKey}{14}}
\newlabel{Storage:Cloud:SecretKey}{{2.0.1}{14}{The Cloud Resource}{section*.21}{}}
\@writefile{sd}{\indexentry{SecretKey}{14}}
\newlabel{Storage:Cloud:Protocol}{{2.0.1}{14}{The Cloud Resource}{section*.21}{}}
\@writefile{sd}{\indexentry{Protocol}{14}}
\newlabel{Storage:Cloud:UriStyle}{{2.0.1}{14}{The Cloud Resource}{section*.21}{}}
\@writefile{sd}{\indexentry{UriStyle}{14}}
\newlabel{Storage:Cloud:TruncateCache}{{2.0.1}{14}{The Cloud Resource}{section*.21}{}}
\@writefile{sd}{\indexentry{TruncateCache}{14}}
\newlabel{Storage:Cloud:Upload}{{2.0.1}{14}{The Cloud Resource}{section*.21}{}}
\newlabel{Storage:Cloud:MaximumUploadBandwidth}{{2.0.1}{14}{The Cloud Resource}{section*.21}{}}
\newlabel{Storage:Cloud:MaximumDownloadBandwidth}{{2.0.1}{14}{The Cloud Resource}{section*.21}{}}
\newlabel{Storage:Cloud:Region}{{2.0.1}{14}{The Cloud Resource}{section*.21}{}}
\@writefile{toc}{\contentsline {subsubsection}{File Driver for the Cloud}{14}{section*.22}}
\@writefile{toc}{\contentsline {subsection}{\numberline {2.0.2}WORM Tape Support}{15}{subsection.2.0.2}}
\@writefile{toc}{\contentsline {chapter}{\numberline {3}New Features in 9.2.0}{17}{chapter.3}}
\@writefile{lof}{\addvspace {10\p@ }}
\@writefile{lot}{\addvspace {10\p@ }}
\@writefile{toc}{\contentsline {subsection}{\numberline {3.0.1}Enhanced Autochanger Support}{17}{subsection.3.0.1}}
\@writefile{toc}{\contentsline {subsection}{\numberline {3.0.2}New Prune Command Option}{18}{subsection.3.0.2}}
\@writefile{toc}{\contentsline {subsection}{\numberline {3.0.3}BConsole Features}{18}{subsection.3.0.3}}
\@writefile{toc}{\contentsline {subsubsection}{Delete a Client}{18}{section*.23}}
\@writefile{toc}{\contentsline {subsubsection}{Status Schedule Enhancements}{18}{section*.24}}
\@writefile{toc}{\contentsline {subsubsection}{Restore option ``noautoparent''}{18}{section*.25}}
\@writefile{toc}{\contentsline {subsection}{\numberline {3.0.4}Tray Monitor Restore Screen}{18}{subsection.3.0.4}}
\@writefile{lof}{\contentsline {figure}{\numberline {3.1}{\ignorespaces Tray Monitor Restore Wizard}}{19}{figure.3.1}}
\newlabel{fig:tray-monitor-restore}{{3.1}{19}{Tray Monitor Restore Wizard}{figure.3.1}{}}
\@writefile{toc}{\contentsline {chapter}{\numberline {4}New Features in 9.0.0}{21}{chapter.4}}
\@writefile{lof}{\addvspace {10\p@ }}
\@writefile{lot}{\addvspace {10\p@ }}
\@writefile{toc}{\contentsline {subsection}{\numberline {4.0.1}Enhanced Autochanger Support}{21}{subsection.4.0.1}}
\@writefile{toc}{\contentsline {subsection}{\numberline {4.0.2}Source Code for Windows}{22}{subsection.4.0.2}}
\@writefile{toc}{\contentsline {subsection}{\numberline {4.0.3}Maximum Virtual Full Interval Option}{22}{subsection.4.0.3}}
\@writefile{toc}{\contentsline {subsection}{\numberline {4.0.4}Progressive Virtual Full}{22}{subsection.4.0.4}}
\@writefile{toc}{\contentsline {subsubsection}{Backups To Keep Directive}{22}{section*.26}}
\@writefile{lof}{\contentsline {figure}{\numberline {4.1}{\ignorespaces Backup Sequence Slides Forward One Day, Each Day}}{23}{figure.4.1}}
\newlabel{fig:slidingbackups}{{4.1}{23}{Backup Sequence Slides Forward One Day, Each Day}{figure.4.1}{}}
\@writefile{toc}{\contentsline {subsubsection}{Delete Consolidated Jobs}{23}{section*.27}}
\@writefile{toc}{\contentsline {subsubsection}{Virtual Full Compatibility}{23}{section*.28}}
\@writefile{toc}{\contentsline {subsection}{\numberline {4.0.5}TapeAlert Enhancements}{23}{subsection.4.0.5}}
\@writefile{toc}{\contentsline {subsubsection}{What is New}{23}{section*.29}}
\@writefile{toc}{\contentsline {subsubsection}{Handling of Alerts}{25}{section*.30}}
\@writefile{toc}{\contentsline {subsection}{\numberline {4.0.6}New Console ACL Directives}{25}{subsection.4.0.6}}
\@writefile{toc}{\contentsline {subsubsection}{DirectoryACL}{26}{section*.31}}
\@writefile{dir}{\indexentry{Directive!DirectoryACL}{26}}
\@writefile{toc}{\contentsline {subsection}{\numberline {4.0.7}New Bconsole ``list'' Command Behavior}{26}{subsection.4.0.7}}
\@writefile{toc}{\contentsline {subsection}{\numberline {4.0.8}New Console ACL Directives}{26}{subsection.4.0.8}}
\@writefile{dir}{\indexentry{Directive!BackupClientACL}{26}}
\@writefile{toc}{\contentsline {subsection}{\numberline {4.0.9}Client Initiated Backup}{27}{subsection.4.0.9}}
\newlabel{sec:featurecib}{{4.0.9}{27}{Client Initiated Backup}{subsection.4.0.9}{}}
\@writefile{lof}{\contentsline {figure}{\numberline {4.2}{\ignorespaces Client Initiated Backup Network Flow}}{27}{figure.4.2}}
\newlabel{fig:nat3}{{4.2}{27}{Client Initiated Backup Network Flow}{figure.4.2}{}}
\@writefile{toc}{\contentsline {subsection}{\numberline {4.0.10}Configuring Client Initiated Backup}{28}{subsection.4.0.10}}
\@writefile{lof}{\contentsline {figure}{\numberline {4.3}{\ignorespaces Relation Between Resources (bconsole)}}{29}{figure.4.3}}
\newlabel{fig:nat}{{4.3}{29}{Relation Between Resources (bconsole)}{figure.4.3}{}}
\@writefile{lof}{\contentsline {figure}{\numberline {4.4}{\ignorespaces Relation Between Resources (tray-monitor)}}{29}{figure.4.4}}
\newlabel{fig:nat2}{{4.4}{29}{Relation Between Resources (tray-monitor)}{figure.4.4}{}}
\@writefile{toc}{\contentsline {subsection}{\numberline {4.0.11}New Tray Monitor}{29}{subsection.4.0.11}}
\newlabel{4@xvr}{{}{29}{New Tray Monitor}{subsection.4.0.11}{}}
\newlabel{4@vr}{{}{29}{New Tray Monitor}{subsection.4.0.11}{}}
\newlabel{5@xvr}{{}{29}{New Tray Monitor}{subsection.4.0.11}{}}
\newlabel{5@vr}{{}{29}{New Tray Monitor}{subsection.4.0.11}{}}
\newlabel{6@xvr}{{}{30}{New Tray Monitor}{subsection.4.0.11}{}}
\newlabel{6@vr}{{}{30}{New Tray Monitor}{subsection.4.0.11}{}}
\newlabel{7@xvr}{{}{30}{New Tray Monitor}{subsection.4.0.11}{}}
\newlabel{7@vr}{{}{30}{New Tray Monitor}{subsection.4.0.11}{}}
\newlabel{8@xvr}{{}{30}{New Tray Monitor}{subsection.4.0.11}{}}
\newlabel{8@vr}{{}{30}{New Tray Monitor}{subsection.4.0.11}{}}
\@writefile{lof}{\contentsline {figure}{\numberline {4.5}{\ignorespaces Tray Monitor Status}}{30}{figure.4.5}}
\newlabel{fig:tray0}{{4.5}{30}{Tray Monitor Status}{figure.4.5}{}}
\@writefile{toc}{\contentsline {subsection}{\numberline {4.0.12}Schedule Jobs via the Tray Monitor}{30}{subsection.4.0.12}}
\@writefile{lof}{\contentsline {figure}{\numberline {4.6}{\ignorespaces Tray Monitor Client Configuration}}{31}{figure.4.6}}
\newlabel{fig:tray2}{{4.6}{31}{Tray Monitor Client Configuration}{figure.4.6}{}}
\@writefile{lof}{\contentsline {figure}{\numberline {4.7}{\ignorespaces Tray Monitor Run a Job}}{32}{figure.4.7}}
\newlabel{fig:tray4}{{4.7}{32}{Tray Monitor Run a Job}{figure.4.7}{}}
\@writefile{toc}{\contentsline {subsection}{\numberline {4.0.13}Accurate Option for Verify ``Volume Data'' Job}{33}{subsection.4.0.13}}
\newlabel{9@xvr}{{}{33}{Accurate Option for Verify ``Volume Data'' Job}{subsection.4.0.13}{}}
\newlabel{9@vr}{{}{33}{Accurate Option for Verify ``Volume Data'' Job}{subsection.4.0.13}{}}
\@writefile{toc}{\contentsline {subsection}{\numberline {4.0.14}FileDaemon Saved Messages Resource Destination}{33}{subsection.4.0.14}}
\@writefile{toc}{\contentsline {subsection}{\numberline {4.0.15}Minor Enhancements}{33}{subsection.4.0.15}}
\@writefile{toc}{\contentsline {subsubsection}{New Bconsole ".estimate" Command}{33}{section*.32}}
\@writefile{toc}{\contentsline {subsubsection}{Traceback and Lockdump}{34}{section*.33}}
\@writefile{toc}{\contentsline {subsection}{\numberline {4.0.16}Bconsole ``list jobs'' command options}{34}{subsection.4.0.16}}
\@writefile{toc}{\contentsline {subsection}{\numberline {4.0.17}Minor Enhancements}{34}{subsection.4.0.17}}
\@writefile{toc}{\contentsline {subsubsection}{New Bconsole "Tee All" Command}{34}{section*.34}}
\@writefile{toc}{\contentsline {subsection}{\numberline {4.0.18}Bconsole ``list jobs'' command options}{34}{subsection.4.0.18}}
\@writefile{toc}{\contentsline {subsection}{\numberline {4.0.19}New Bconsole "Tee All" Command}{34}{subsection.4.0.19}}
\@writefile{toc}{\contentsline {subsection}{\numberline {4.0.20}New Job Edit Codes \%I}{34}{subsection.4.0.20}}
\@writefile{toc}{\contentsline {subsection}{\numberline {4.0.21}Communication Line Compression}{36}{subsection.4.0.21}}
\@writefile{toc}{\contentsline {subsection}{\numberline {4.0.22}Deduplication Optimized Volumes}{36}{subsection.4.0.22}}
\@writefile{toc}{\contentsline {subsection}{\numberline {4.0.23}baculabackupreport}{36}{subsection.4.0.23}}
\@writefile{toc}{\contentsline {subsection}{\numberline {4.0.24}New Message Identification Format}{36}{subsection.4.0.24}}
\@writefile{toc}{\contentsline {chapter}{\numberline {5}New Features in 7.4.0}{39}{chapter.5}}
\@writefile{lof}{\addvspace {10\p@ }}
\@writefile{lot}{\addvspace {10\p@ }}
\@writefile{toc}{\contentsline {section}{\numberline {5.1}New Features in 7.4.3}{39}{section.5.1}}
\@writefile{toc}{\contentsline {subsection}{\numberline {5.1.1}RunScripts}{39}{subsection.5.1.1}}
\@writefile{toc}{\contentsline {section}{\numberline {5.2}New Features in 7.4.0}{39}{section.5.2}}
\@writefile{toc}{\contentsline {subsection}{\numberline {5.2.1}Verify Volume Data}{39}{subsection.5.2.1}}
\@writefile{toc}{\contentsline {subsection}{\numberline {5.2.2}Bconsole ``list jobs'' command options}{40}{subsection.5.2.2}}
\@writefile{toc}{\contentsline {subsection}{\numberline {5.2.3}Minor Enhancements}{41}{subsection.5.2.3}}
\@writefile{toc}{\contentsline {subsubsection}{New Bconsole "Tee All" Command}{41}{section*.37}}
\@writefile{toc}{\contentsline {subsection}{\numberline {5.2.4}Windows Encrypted File System (EFS) Support}{41}{subsection.5.2.4}}
\@writefile{toc}{\contentsline {subsection}{\numberline {5.2.5}SSL Connections to MySQL}{41}{subsection.5.2.5}}
\@writefile{toc}{\contentsline {subsection}{\numberline {5.2.6}Max Virtual Full Interval}{41}{subsection.5.2.6}}
\@writefile{toc}{\contentsline {subsection}{\numberline {5.2.7}New List Volumes Output}{41}{subsection.5.2.7}}
\@writefile{toc}{\contentsline {chapter}{\numberline {6}New Features in 7.2.0}{43}{chapter.6}}
\@writefile{lof}{\addvspace {10\p@ }}
\@writefile{lot}{\addvspace {10\p@ }}
\@writefile{toc}{\contentsline {section}{\numberline {6.1}New Features in 7.2.0}{43}{section.6.1}}
\@writefile{toc}{\contentsline {subsection}{\numberline {6.1.1}New Job Edit Codes \%E \%R}{43}{subsection.6.1.1}}
\@writefile{toc}{\contentsline {subsection}{\numberline {6.1.2}Enable/Disable commands}{43}{subsection.6.1.2}}
\@writefile{toc}{\contentsline {section}{\numberline {6.2}Bacula 7.2}{43}{section.6.2}}
\@writefile{toc}{\contentsline {subsection}{\numberline {6.2.1}Snapshot Management}{43}{subsection.6.2.1}}
\@writefile{toc}{\contentsline {subsubsection}{Snapshot Backends}{43}{section*.38}}
\newlabel{10@xvr}{{}{43}{Snapshot Backends}{section*.38}{}}
\newlabel{10@vr}{{}{43}{Snapshot Backends}{section*.38}{}}
\newlabel{bsnapshotconf}{{6.2.1}{44}{Snapshot Backends}{section*.38}{}}
\@writefile{toc}{\contentsline {subsubsection}{Application Quiescing}{44}{section*.39}}
\newlabel{11@xvr}{{}{44}{Application Quiescing}{section*.39}{}}
\newlabel{11@vr}{{}{44}{Application Quiescing}{section*.39}{}}
\@writefile{toc}{\contentsline {subsubsection}{New Director Directives}{44}{section*.40}}
\newlabel{SnapRunScriptExample}{{6.2.1}{45}{New Director Directives}{section*.40}{}}
\@writefile{toc}{\contentsline {subsubsection}{Job Output Information}{45}{section*.41}}
\@writefile{toc}{\contentsline {subsubsection}{New ``snapshot'' Bconsole Commands}{45}{section*.42}}
\@writefile{toc}{\contentsline {subsubsection}{LVM Backend Restrictions}{46}{section*.43}}
\newlabel{LVMBackend}{{6.2.1}{46}{LVM Backend Restrictions}{section*.43}{}}
\@writefile{toc}{\contentsline {subsubsection}{Debug Options}{47}{section*.44}}
\@writefile{toc}{\contentsline {subsection}{\numberline {6.2.2}Minor Enhancements}{47}{subsection.6.2.2}}
\@writefile{toc}{\contentsline {subsubsection}{Storage Daemon Reports Disk Usage}{47}{section*.45}}
\@writefile{toc}{\contentsline {subsection}{\numberline {6.2.3}Data Encryption Cipher Configuration}{47}{subsection.6.2.3}}
\@writefile{toc}{\contentsline {subsection}{\numberline {6.2.4}Read Only Storage Devices}{48}{subsection.6.2.4}}
\@writefile{toc}{\contentsline {subsection}{\numberline {6.2.5}New Resume Command}{48}{subsection.6.2.5}}
\@writefile{toc}{\contentsline {subsection}{\numberline {6.2.6}New Prune ``Expired'' Volume Command}{49}{subsection.6.2.6}}
\@writefile{toc}{\contentsline {subsection}{\numberline {6.2.7}New Job Edit Codes \%P \%C}{49}{subsection.6.2.7}}
\@writefile{toc}{\contentsline {subsection}{\numberline {6.2.8}Enhanced Status and Error Messages}{49}{subsection.6.2.8}}
\@writefile{toc}{\contentsline {subsection}{\numberline {6.2.9}Miscellaneous New Features}{49}{subsection.6.2.9}}
\@writefile{toc}{\contentsline {subsection}{\numberline {6.2.10}FD Storage Address}{50}{subsection.6.2.10}}
\@writefile{toc}{\contentsline {subsection}{\numberline {6.2.11}Maximum Concurrent Read Jobs}{50}{subsection.6.2.11}}
\@writefile{toc}{\contentsline {subsection}{\numberline {6.2.12}Incomplete Jobs}{50}{subsection.6.2.12}}
\@writefile{toc}{\contentsline {subsection}{\numberline {6.2.13}The Stop Command}{50}{subsection.6.2.13}}
\@writefile{toc}{\contentsline {subsection}{\numberline {6.2.14}The Restart Command}{51}{subsection.6.2.14}}
\@writefile{toc}{\contentsline {subsection}{\numberline {6.2.15}Job Bandwidth Limitation}{51}{subsection.6.2.15}}
\@writefile{toc}{\contentsline {subsection}{\numberline {6.2.16}Always Backup a File}{52}{subsection.6.2.16}}
\@writefile{toc}{\contentsline {subsection}{\numberline {6.2.17}Setting Accurate Mode at Runtime}{52}{subsection.6.2.17}}
\@writefile{toc}{\contentsline {subsection}{\numberline {6.2.18}Additions to RunScript variables}{53}{subsection.6.2.18}}
\@writefile{toc}{\contentsline {subsection}{\numberline {6.2.19}LZO Compression}{53}{subsection.6.2.19}}
\@writefile{toc}{\contentsline {subsection}{\numberline {6.2.20}Purge Migration Job}{53}{subsection.6.2.20}}
\@writefile{toc}{\contentsline {subsection}{\numberline {6.2.21}Changes in the Pruning Algorithm}{54}{subsection.6.2.21}}
\@writefile{toc}{\contentsline {subsection}{\numberline {6.2.22}Ability to Verify any specified Job}{54}{subsection.6.2.22}}
\@writefile{toc}{\contentsline {chapter}{\numberline {7}New Features in 7.0.0}{55}{chapter.7}}
\@writefile{lof}{\addvspace {10\p@ }}
\@writefile{lot}{\addvspace {10\p@ }}
\@writefile{toc}{\contentsline {section}{\numberline {7.1}New Features in 7.0.0}{55}{section.7.1}}
\@writefile{toc}{\contentsline {subsection}{\numberline {7.1.1}Storage daemon to Storage daemon}{55}{subsection.7.1.1}}
\@writefile{toc}{\contentsline {subsection}{\numberline {7.1.2}SD Calls Client}{55}{subsection.7.1.2}}
\@writefile{toc}{\contentsline {subsection}{\numberline {7.1.3}Next Pool}{56}{subsection.7.1.3}}
\@writefile{toc}{\contentsline {subsection}{\numberline {7.1.4}status storage}{56}{subsection.7.1.4}}
\@writefile{toc}{\contentsline {subsection}{\numberline {7.1.5}status schedule}{56}{subsection.7.1.5}}
\@writefile{toc}{\contentsline {subsection}{\numberline {7.1.6}Data Encryption Cipher Configuration}{57}{subsection.7.1.6}}
\@writefile{toc}{\contentsline {subsection}{\numberline {7.1.7}New Truncate Command}{57}{subsection.7.1.7}}
\@writefile{toc}{\contentsline {subsection}{\numberline {7.1.8}Migration/Copy/VirtualFull Performance Enhancements}{57}{subsection.7.1.8}}
\@writefile{toc}{\contentsline {subsection}{\numberline {7.1.9}VirtualFull Backup Consolidation Enhancements}{58}{subsection.7.1.9}}
\@writefile{toc}{\contentsline {subsection}{\numberline {7.1.10}FD Storage Address}{58}{subsection.7.1.10}}
\newlabel{fig:fdstorageaddress}{{7.1.10}{59}{FD Storage Address}{subsection.7.1.10}{}}
\@writefile{toc}{\contentsline {subsection}{\numberline {7.1.11}Job Bandwidth Limitation}{59}{subsection.7.1.11}}
\@writefile{toc}{\contentsline {subsection}{\numberline {7.1.12}Maximum Concurrent Read Jobs}{60}{subsection.7.1.12}}
\@writefile{toc}{\contentsline {subsection}{\numberline {7.1.13}Director job Codes in Message Resource Commands}{60}{subsection.7.1.13}}
\@writefile{toc}{\contentsline {subsection}{\numberline {7.1.14}Additions to RunScript variables}{60}{subsection.7.1.14}}
\@writefile{toc}{\contentsline {subsection}{\numberline {7.1.15}Read Only Storage Devices}{61}{subsection.7.1.15}}
\@writefile{toc}{\contentsline {subsection}{\numberline {7.1.16}New Prune ``Expired'' Volume Command}{61}{subsection.7.1.16}}
\@writefile{toc}{\contentsline {subsection}{\numberline {7.1.17}Hardlink Performance Enhancements}{61}{subsection.7.1.17}}
\@writefile{toc}{\contentsline {subsection}{\numberline {7.1.18}DisableCommand Directive}{61}{subsection.7.1.18}}
\@writefile{toc}{\contentsline {subsection}{\numberline {7.1.19}Multiple Console Directors}{62}{subsection.7.1.19}}
\@writefile{toc}{\contentsline {subsection}{\numberline {7.1.20}Restricted Consoles}{62}{subsection.7.1.20}}
\@writefile{toc}{\contentsline {subsection}{\numberline {7.1.21}Configuration Files}{62}{subsection.7.1.21}}
\@writefile{toc}{\contentsline {subsection}{\numberline {7.1.22}Maximum Spawned Jobs}{62}{subsection.7.1.22}}
\@writefile{toc}{\contentsline {subsection}{\numberline {7.1.23}Progress Meter}{62}{subsection.7.1.23}}
\@writefile{toc}{\contentsline {subsection}{\numberline {7.1.24}Scheduling a 6th Week}{62}{subsection.7.1.24}}
\@writefile{toc}{\contentsline {subsection}{\numberline {7.1.25}Scheduling the Last Day of a Month}{62}{subsection.7.1.25}}
\@writefile{toc}{\contentsline {subsection}{\numberline {7.1.26}Improvements to Cancel and Restart bconsole Commands}{62}{subsection.7.1.26}}
\@writefile{toc}{\contentsline {subsection}{\numberline {7.1.27}bconsole Performance Improvements}{62}{subsection.7.1.27}}
\@writefile{toc}{\contentsline {subsection}{\numberline {7.1.28}New .bvfs\_decode\_lstat Command}{63}{subsection.7.1.28}}
\@writefile{toc}{\contentsline {chapter}{\numberline {8}New Features in 5.2.13}{65}{chapter.8}}
\@writefile{lof}{\addvspace {10\p@ }}
\@writefile{lot}{\addvspace {10\p@ }}
\@writefile{toc}{\contentsline {subsection}{\numberline {8.0.1}Additions to RunScript variables}{65}{subsection.8.0.1}}
\@writefile{toc}{\contentsline {section}{\numberline {8.1}New Features in 5.2.1}{65}{section.8.1}}
\@writefile{toc}{\contentsline {subsection}{\numberline {8.1.1}LZO Compression}{65}{subsection.8.1.1}}
\@writefile{toc}{\contentsline {subsection}{\numberline {8.1.2}New Tray Monitor}{65}{subsection.8.1.2}}
\newlabel{fig:traymonitor}{{8.1.2}{66}{New Tray Monitor}{subsection.8.1.2}{}}
\@writefile{lof}{\contentsline {figure}{\numberline {8.1}{\ignorespaces New tray monitor}}{66}{figure.8.1}}
\newlabel{fig:traymonitor1}{{8.1.2}{66}{New Tray Monitor}{figure.8.1}{}}
\@writefile{lof}{\contentsline {figure}{\numberline {8.2}{\ignorespaces Run a Job through the new tray monitor}}{66}{figure.8.2}}
\@writefile{toc}{\contentsline {subsection}{\numberline {8.1.3}Purge Migration Job}{67}{subsection.8.1.3}}
\@writefile{toc}{\contentsline {subsection}{\numberline {8.1.4}Changes in Bvfs (Bacula Virtual FileSystem)}{67}{subsection.8.1.4}}
\newlabel{fig:batbrestore}{{8.1.4}{68}{Changes in Bvfs (Bacula Virtual FileSystem)}{subsection.8.1.4}{}}
\@writefile{lof}{\contentsline {figure}{\numberline {8.3}{\ignorespaces Bat Brestore Panel}}{68}{figure.8.3}}
\@writefile{toc}{\contentsline {subsection}{\numberline {8.1.5}Changes in the Pruning Algorithm}{70}{subsection.8.1.5}}
\@writefile{toc}{\contentsline {subsection}{\numberline {8.1.6}Ability to Verify any specified Job}{70}{subsection.8.1.6}}
\@writefile{toc}{\contentsline {subsection}{\numberline {8.1.7}Additions to RunScript variables}{71}{subsection.8.1.7}}
\@writefile{toc}{\contentsline {subsection}{\numberline {8.1.8}Additions to the Plugin API}{71}{subsection.8.1.8}}
\@writefile{toc}{\contentsline {subsubsection}{bfuncs}{71}{section*.57}}
\@writefile{toc}{\contentsline {subsubsection}{Bacula events}{73}{section*.58}}
\@writefile{toc}{\contentsline {subsection}{\numberline {8.1.9}ACL enhancements}{73}{subsection.8.1.9}}
\@writefile{toc}{\contentsline {subsection}{\numberline {8.1.10}XATTR enhancements}{73}{subsection.8.1.10}}
\@writefile{toc}{\contentsline {subsection}{\numberline {8.1.11}Class Based Database Backend Drivers}{74}{subsection.8.1.11}}
\@writefile{toc}{\contentsline {subsection}{\numberline {8.1.12}Hash List Enhancements}{75}{subsection.8.1.12}}
\@writefile{toc}{\contentsline {section}{\numberline {8.2}Release Version 5.0.3}{75}{section.8.2}}
\@writefile{toc}{\contentsline {section}{\numberline {8.3}Release Version 5.0.2}{75}{section.8.3}}
\@writefile{toc}{\contentsline {section}{\numberline {8.4}New Features in 5.0.1}{75}{section.8.4}}
\@writefile{toc}{\contentsline {subsection}{\numberline {8.4.1}Truncate Volume after Purge}{75}{subsection.8.4.1}}
\newlabel{sec:actiononpurge}{{8.4.1}{75}{Truncate Volume after Purge}{subsection.8.4.1}{}}
\@writefile{toc}{\contentsline {subsection}{\numberline {8.4.2}Allow Higher Duplicates}{76}{subsection.8.4.2}}
\@writefile{toc}{\contentsline {subsection}{\numberline {8.4.3}Cancel Lower Level Duplicates}{76}{subsection.8.4.3}}
\@writefile{toc}{\contentsline {section}{\numberline {8.5}New Features in 5.0.0}{76}{section.8.5}}
\@writefile{toc}{\contentsline {subsection}{\numberline {8.5.1}Maximum Concurrent Jobs for Devices}{76}{subsection.8.5.1}}
\newlabel{sec:maximumconcurrentjobdevice}{{8.5.1}{76}{Maximum Concurrent Jobs for Devices}{subsection.8.5.1}{}}
\@writefile{toc}{\contentsline {subsection}{\numberline {8.5.2}Restore from Multiple Storage Daemons}{76}{subsection.8.5.2}}
\@writefile{general}{\indexentry{Restore}{76}}
\@writefile{toc}{\contentsline {subsection}{\numberline {8.5.3}File Deduplication using Base Jobs}{76}{subsection.8.5.3}}
\@writefile{toc}{\contentsline {subsection}{\numberline {8.5.4}AllowCompression = $<${}yes$|${}no$>${}}{76}{subsection.8.5.4}}
\@writefile{dir}{\indexentry{AllowCompression}{76}}
\@writefile{toc}{\contentsline {subsection}{\numberline {8.5.5}Accurate Fileset Options}{77}{subsection.8.5.5}}
\newlabel{sec:accuratefileset}{{8.5.5}{77}{Accurate Fileset Options}{subsection.8.5.5}{}}
\@writefile{toc}{\contentsline {subsection}{\numberline {8.5.6}Tab-completion for Bconsole}{77}{subsection.8.5.6}}
\newlabel{sec:tabcompletion}{{8.5.6}{77}{Tab-completion for Bconsole}{subsection.8.5.6}{}}
\@writefile{toc}{\contentsline {subsection}{\numberline {8.5.7}Pool File and Job Retention}{78}{subsection.8.5.7}}
\newlabel{sec:poolfilejobretention}{{8.5.7}{78}{Pool File and Job Retention}{subsection.8.5.7}{}}
\@writefile{toc}{\contentsline {subsection}{\numberline {8.5.8}Read-only File Daemon using capabilities}{78}{subsection.8.5.8}}
\newlabel{sec:fdreadonly}{{8.5.8}{78}{Read-only File Daemon using capabilities}{subsection.8.5.8}{}}
\@writefile{toc}{\contentsline {subsection}{\numberline {8.5.9}Bvfs API}{78}{subsection.8.5.9}}
\newlabel{sec:bvfs}{{8.5.9}{78}{Bvfs API}{subsection.8.5.9}{}}
\@writefile{toc}{\contentsline {subsection}{\numberline {8.5.10}Testing your Tape Drive}{78}{subsection.8.5.10}}
\newlabel{sec:btapespeed}{{8.5.10}{78}{Testing your Tape Drive}{subsection.8.5.10}{}}
\@writefile{toc}{\contentsline {subsection}{\numberline {8.5.11}New {\bf  Block Checksum} Device Directive}{79}{subsection.8.5.11}}
\@writefile{toc}{\contentsline {subsection}{\numberline {8.5.12}New Bat Features}{79}{subsection.8.5.12}}
\@writefile{toc}{\contentsline {subsubsection}{Media List View}{79}{section*.59}}
\@writefile{toc}{\contentsline {subsubsection}{Media Information View}{79}{section*.60}}
\newlabel{12@xvr}{{}{79}{Media Information View}{section*.60}{}}
\newlabel{12@vr}{{}{79}{Media Information View}{section*.60}{}}
\@writefile{toc}{\contentsline {subsubsection}{Job Information View}{79}{section*.61}}
\newlabel{13@xvr}{{}{79}{Job Information View}{section*.61}{}}
\newlabel{13@vr}{{}{79}{Job Information View}{section*.61}{}}
\@writefile{toc}{\contentsline {subsubsection}{Autochanger Content View}{79}{section*.62}}
\newlabel{14@xvr}{{}{79}{Autochanger Content View}{section*.62}{}}
\newlabel{14@vr}{{}{79}{Autochanger Content View}{section*.62}{}}
\newlabel{fig:mediaview}{{8.5.12}{80}{Media List View}{section*.59}{}}
\@writefile{lof}{\contentsline {figure}{\numberline {8.4}{\ignorespaces Media information}}{80}{figure.8.4}}
\newlabel{fig:mediainfo}{{8.4}{80}{Media information}{figure.8.4}{}}
\@writefile{lof}{\contentsline {figure}{\numberline {8.5}{\ignorespaces Job information}}{81}{figure.8.5}}
\newlabel{fig:jobinfo}{{8.5}{81}{Job information}{figure.8.5}{}}
\@writefile{lof}{\contentsline {figure}{\numberline {8.6}{\ignorespaces Autochanger content}}{81}{figure.8.6}}
\newlabel{fig:achcontent}{{8.6}{81}{Autochanger content}{figure.8.6}{}}
\@writefile{toc}{\contentsline {subsection}{\numberline {8.5.13}Bat on Windows}{82}{subsection.8.5.13}}
\@writefile{toc}{\contentsline {subsection}{\numberline {8.5.14}New Win32 Installer}{82}{subsection.8.5.14}}
\@writefile{toc}{\contentsline {subsection}{\numberline {8.5.15}Win64 Installer}{82}{subsection.8.5.15}}
\@writefile{toc}{\contentsline {subsection}{\numberline {8.5.16}Linux Bare Metal Recovery USB Key}{82}{subsection.8.5.16}}
\@writefile{toc}{\contentsline {subsection}{\numberline {8.5.17}bconsole Timeout Option}{82}{subsection.8.5.17}}
\@writefile{toc}{\contentsline {subsection}{\numberline {8.5.18}Important Changes}{82}{subsection.8.5.18}}
\newlabel{sec:importantchanges}{{8.5.18}{82}{Important Changes}{subsection.8.5.18}{}}
\@writefile{toc}{\contentsline {subsubsection}{Custom Catalog queries}{83}{section*.64}}
\@writefile{toc}{\contentsline {subsubsection}{Deprecated parts}{83}{section*.65}}
\@writefile{toc}{\contentsline {subsection}{\numberline {8.5.19}Misc Changes}{83}{subsection.8.5.19}}
\newlabel{sec:miscchanges}{{8.5.19}{83}{Misc Changes}{subsection.8.5.19}{}}
\@writefile{toc}{\contentsline {chapter}{\numberline {9}Released Version 3.0.3 and 3.0.3a}{85}{chapter.9}}
\@writefile{lof}{\addvspace {10\p@ }}
\@writefile{lot}{\addvspace {10\p@ }}
\@writefile{toc}{\contentsline {section}{\numberline {9.1}New Features in Released Version 3.0.2}{85}{section.9.1}}
\@writefile{toc}{\contentsline {subsection}{\numberline {9.1.1}Full Restore from a Given JobId}{85}{subsection.9.1.1}}
\@writefile{general}{\indexentry{Restore menu}{85}}
\@writefile{toc}{\contentsline {subsection}{\numberline {9.1.2}Source Address}{85}{subsection.9.1.2}}
\@writefile{general}{\indexentry{Source Address}{85}}
\@writefile{toc}{\contentsline {subsection}{\numberline {9.1.3}Show volume availability when doing restore}{86}{subsection.9.1.3}}
\@writefile{toc}{\contentsline {subsection}{\numberline {9.1.4}Accurate estimate command}{86}{subsection.9.1.4}}
\@writefile{toc}{\contentsline {section}{\numberline {9.2}New Features in 3.0.0}{86}{section.9.2}}
\newlabel{NewFeaturesChapter}{{9.2}{86}{New Features in 3.0.0}{section.9.2}{}}
\@writefile{general}{\indexentry{New Features}{86}}
\@writefile{toc}{\contentsline {subsection}{\numberline {9.2.1}Accurate Backup}{87}{subsection.9.2.1}}
\@writefile{general}{\indexentry{Accurate Backup}{87}}
\@writefile{toc}{\contentsline {subsubsection}{Accurate = $<${}yes$|${}no$>${}}{87}{section*.66}}
\@writefile{toc}{\contentsline {subsection}{\numberline {9.2.2}Copy Jobs}{87}{subsection.9.2.2}}
\@writefile{general}{\indexentry{Copy Jobs}{87}}
\@writefile{toc}{\contentsline {subsection}{\numberline {9.2.3}ACL Updates}{89}{subsection.9.2.3}}
\@writefile{general}{\indexentry{ACL Updates}{89}}
\@writefile{toc}{\contentsline {subsection}{\numberline {9.2.4}Extended Attributes}{90}{subsection.9.2.4}}
\@writefile{general}{\indexentry{Extended Attributes}{90}}
\@writefile{toc}{\contentsline {subsection}{\numberline {9.2.5}Shared objects}{91}{subsection.9.2.5}}
\@writefile{general}{\indexentry{Shared objects}{91}}
\@writefile{toc}{\contentsline {subsection}{\numberline {9.2.6}Building Static versions of Bacula}{91}{subsection.9.2.6}}
\@writefile{general}{\indexentry{Static linking}{91}}
\@writefile{toc}{\contentsline {subsection}{\numberline {9.2.7}Virtual Backup (Vbackup)}{91}{subsection.9.2.7}}
\@writefile{general}{\indexentry{Virtual Backup}{91}}
\@writefile{general}{\indexentry{Vbackup}{91}}
\@writefile{toc}{\contentsline {subsection}{\numberline {9.2.8}Catalog Format}{93}{subsection.9.2.8}}
\@writefile{general}{\indexentry{Catalog Format}{93}}
\@writefile{toc}{\contentsline {subsection}{\numberline {9.2.9}64 bit Windows Client}{93}{subsection.9.2.9}}
\@writefile{general}{\indexentry{Win64 Client}{93}}
\@writefile{toc}{\contentsline {subsection}{\numberline {9.2.10}Duplicate Job Control}{94}{subsection.9.2.10}}
\@writefile{general}{\indexentry{Duplicate Jobs}{94}}
\@writefile{toc}{\contentsline {subsubsection}{Allow Duplicate Jobs = $<${}yes$|${}no$>${}}{94}{section*.67}}
\@writefile{general}{\indexentry{Allow Duplicate Jobs}{94}}
\@writefile{toc}{\contentsline {subsubsection}{Allow Higher Duplicates = $<${}yes$|${}no$>${}}{94}{section*.68}}
\@writefile{general}{\indexentry{Allow Higher Duplicates}{94}}
\@writefile{toc}{\contentsline {subsubsection}{Cancel Running Duplicates = $<${}yes$|${}no$>${}}{94}{section*.69}}
\@writefile{general}{\indexentry{Cancel Running Duplicates}{94}}
\@writefile{toc}{\contentsline {subsubsection}{Cancel Queued Duplicates = $<${}yes$|${}no$>${}}{94}{section*.70}}
\@writefile{general}{\indexentry{Cancel Queued Duplicates}{94}}
\@writefile{toc}{\contentsline {subsection}{\numberline {9.2.11}TLS Authentication}{94}{subsection.9.2.11}}
\@writefile{general}{\indexentry{TLS Authentication}{94}}
\@writefile{toc}{\contentsline {subsubsection}{TLS Authenticate = yes}{94}{section*.71}}
\@writefile{toc}{\contentsline {subsection}{\numberline {9.2.12}bextract non-portable Win32 data}{95}{subsection.9.2.12}}
\@writefile{general}{\indexentry{bextract handles Win32 non-portable data}{95}}
\@writefile{toc}{\contentsline {subsection}{\numberline {9.2.13}State File updated at Job Termination}{95}{subsection.9.2.13}}
\@writefile{general}{\indexentry{State File}{95}}
\@writefile{toc}{\contentsline {subsection}{\numberline {9.2.14}MaxFullInterval = $<${}time-interval$>${}}{95}{subsection.9.2.14}}
\@writefile{general}{\indexentry{MaxFullInterval}{95}}
\@writefile{toc}{\contentsline {subsection}{\numberline {9.2.15}MaxDiffInterval = $<${}time-interval$>${}}{95}{subsection.9.2.15}}
\@writefile{general}{\indexentry{MaxDiffInterval}{95}}
\@writefile{toc}{\contentsline {subsection}{\numberline {9.2.16}Honor No Dump Flag = $<${}yes$|${}no$>${}}{95}{subsection.9.2.16}}
\@writefile{general}{\indexentry{MaxDiffInterval}{95}}
\@writefile{toc}{\contentsline {subsection}{\numberline {9.2.17}Exclude Dir Containing = $<${}filename-string$>${}}{95}{subsection.9.2.17}}
\@writefile{general}{\indexentry{IgnoreDir}{95}}
\@writefile{toc}{\contentsline {subsection}{\numberline {9.2.18}Bacula Plugins}{96}{subsection.9.2.18}}
\@writefile{general}{\indexentry{Plugin}{96}}
\@writefile{toc}{\contentsline {subsubsection}{Plugin Directory}{96}{section*.72}}
\@writefile{general}{\indexentry{Plugin Directory}{96}}
\@writefile{toc}{\contentsline {subsubsection}{Plugin Options}{96}{section*.73}}
\@writefile{general}{\indexentry{Plugin Options}{96}}
\@writefile{toc}{\contentsline {subsubsection}{Plugin Options ACL}{96}{section*.74}}
\@writefile{general}{\indexentry{Plugin Options ACL}{96}}
\@writefile{toc}{\contentsline {subsubsection}{Plugin = $<${}plugin-command-string$>${}}{96}{section*.75}}
\@writefile{general}{\indexentry{Plugin}{96}}
\@writefile{toc}{\contentsline {subsection}{\numberline {9.2.19}The bpipe Plugin}{97}{subsection.9.2.19}}
\@writefile{general}{\indexentry{The bpipe Plugin}{97}}
\@writefile{toc}{\contentsline {subsection}{\numberline {9.2.20}Microsoft Exchange Server 2003/2007 Plugin}{97}{subsection.9.2.20}}
\@writefile{general}{\indexentry{Microsoft Exchange Server 2003/2007 Plugin}{97}}
\@writefile{toc}{\contentsline {subsubsection}{Background}{97}{section*.76}}
\@writefile{toc}{\contentsline {subsubsection}{Concepts}{98}{section*.77}}
\@writefile{toc}{\contentsline {subsubsection}{Installing}{98}{section*.78}}
\@writefile{toc}{\contentsline {subsubsection}{Backing Up}{98}{section*.79}}
\@writefile{toc}{\contentsline {subsubsection}{Restoring}{99}{section*.80}}
\@writefile{toc}{\contentsline {subsubsection}{Restoring to the Recovery Storage Group}{99}{section*.81}}
\@writefile{toc}{\contentsline {subsubsection}{Restoring on Microsoft Server 2007}{99}{section*.82}}
\@writefile{toc}{\contentsline {subsubsection}{Caveats}{99}{section*.83}}
\@writefile{toc}{\contentsline {subsection}{\numberline {9.2.21}libdbi Framework}{100}{subsection.9.2.21}}
\@writefile{general}{\indexentry{libdbi Framework}{100}}
\@writefile{toc}{\contentsline {subsection}{\numberline {9.2.22}Console Command Additions and Enhancements}{101}{subsection.9.2.22}}
\@writefile{general}{\indexentry{Console Additions}{101}}
\@writefile{toc}{\contentsline {subsubsection}{Display Autochanger Content}{101}{section*.84}}
\@writefile{general}{\indexentry{StatusSlots}{101}}
\@writefile{toc}{\contentsline {subsubsection}{list joblog job=xxx or jobid=nnn}{101}{section*.85}}
\@writefile{general}{\indexentry{list joblog}{101}}
\@writefile{toc}{\contentsline {subsubsection}{Use separator for multiple commands}{101}{section*.86}}
\@writefile{general}{\indexentry{Command Separator}{101}}
\@writefile{toc}{\contentsline {subsubsection}{Deleting Volumes}{101}{section*.87}}
\@writefile{toc}{\contentsline {subsection}{\numberline {9.2.23}Bare Metal Recovery}{101}{subsection.9.2.23}}
\@writefile{toc}{\contentsline {subsection}{\numberline {9.2.24}Miscellaneous}{102}{subsection.9.2.24}}
\@writefile{general}{\indexentry{Misc New Features}{102}}
\@writefile{toc}{\contentsline {subsubsection}{Allow Mixed Priority = $<${}yes$|${}no$>${}}{102}{section*.88}}
\@writefile{general}{\indexentry{Allow Mixed Priority}{102}}
\@writefile{toc}{\contentsline {subsubsection}{Bootstrap File Directive -- FileRegex}{102}{section*.89}}
\@writefile{general}{\indexentry{Bootstrap File Directive}{102}}
\@writefile{toc}{\contentsline {subsubsection}{Bootstrap File Optimization Changes}{102}{section*.90}}
\@writefile{toc}{\contentsline {subsubsection}{Solaris ZFS/NFSv4 ACLs}{102}{section*.91}}
\@writefile{toc}{\contentsline {subsubsection}{Virtual Tape Emulation}{103}{section*.92}}
\@writefile{general}{\indexentry{Virtual Tape Emulation}{103}}
\@writefile{toc}{\contentsline {subsubsection}{Bat Enhancements}{103}{section*.93}}
\@writefile{general}{\indexentry{Bat Enhancements}{103}}
\@writefile{toc}{\contentsline {subsubsection}{RunScript Enhancements}{103}{section*.94}}
\@writefile{general}{\indexentry{RunScript Enhancements}{103}}
\@writefile{toc}{\contentsline {subsubsection}{Status Enhancements}{103}{section*.95}}
\@writefile{general}{\indexentry{Status Enhancements}{103}}
\@writefile{toc}{\contentsline {subsubsection}{Connect Timeout}{103}{section*.96}}
\@writefile{general}{\indexentry{Connect Timeout}{103}}
\@writefile{toc}{\contentsline {subsubsection}{ftruncate for NFS Volumes}{103}{section*.97}}
\@writefile{general}{\indexentry{ftruncate for NFS Volumes}{103}}
\@writefile{toc}{\contentsline {subsubsection}{Support for Ubuntu}{103}{section*.98}}
\@writefile{toc}{\contentsline {subsubsection}{Recycle Pool = $<${}pool-name$>${}}{104}{section*.99}}
\@writefile{general}{\indexentry{Recycle Pool}{104}}
\@writefile{toc}{\contentsline {subsubsection}{FD Version}{104}{section*.100}}
\@writefile{general}{\indexentry{FD Version}{104}}
\@writefile{toc}{\contentsline {subsubsection}{Max Run Sched Time = $<${}time-period-in-seconds$>${}}{104}{section*.101}}
\@writefile{general}{\indexentry{Max Run Sched Time}{104}}
\@writefile{toc}{\contentsline {subsubsection}{Max Wait Time = $<${}time-period-in-seconds$>${}}{104}{section*.102}}
\@writefile{general}{\indexentry{Max Wait Time}{104}}
\@writefile{toc}{\contentsline {subsubsection}{Incremental|Differential Max Wait Time = $<${}time-period-in-seconds$>${}}{104}{section*.103}}
\@writefile{general}{\indexentry{Incremental Max Wait Time}{104}}
\@writefile{general}{\indexentry{Differential Max Wait Time}{104}}
\@writefile{toc}{\contentsline {subsubsection}{Max Run Time directives}{104}{section*.104}}
\@writefile{general}{\indexentry{Max Run Time directives}{104}}
\@writefile{lof}{\contentsline {figure}{Job time control directives}{104}{section*.104}}
\@writefile{toc}{\contentsline {subsubsection}{Statistics Enhancements}{104}{section*.105}}
\@writefile{general}{\indexentry{Statistics Enhancements}{104}}
\@writefile{toc}{\contentsline {subsubsection}{ScratchPool = $<${}pool-resource-name$>${}}{105}{section*.106}}
\@writefile{general}{\indexentry{ScratchPool}{105}}
\@writefile{toc}{\contentsline {subsubsection}{Enhanced Attribute Despooling}{105}{section*.107}}
\@writefile{general}{\indexentry{Attribute Despooling}{105}}
\@writefile{toc}{\contentsline {subsubsection}{SpoolSize = $<${}size-specification-in-bytes$>${}}{105}{section*.108}}
\@writefile{general}{\indexentry{SpoolSize}{105}}
\@writefile{toc}{\contentsline {subsubsection}{MaximumConsoleConnections = $<${}number$>${}}{105}{section*.109}}
\@writefile{general}{\indexentry{MaximumConsoleConnections}{105}}
\@writefile{toc}{\contentsline {subsubsection}{VerId = $<${}string$>${}}{105}{section*.110}}
\@writefile{general}{\indexentry{VerId}{105}}
\@writefile{toc}{\contentsline {subsubsection}{dbcheck enhancements}{106}{section*.111}}
\@writefile{general}{\indexentry{dbcheck enhancements}{106}}
\@writefile{toc}{\contentsline {subsubsection}{{-}{-}docdir configure option}{106}{section*.112}}
\@writefile{general}{\indexentry{{-}{-}docdir configure option}{106}}
\@writefile{toc}{\contentsline {subsubsection}{{-}{-}htmldir configure option}{106}{section*.113}}
\@writefile{general}{\indexentry{{-}{-}htmldir configure option}{106}}
\@writefile{toc}{\contentsline {subsubsection}{{-}{-}with-plugindir configure option}{106}{section*.114}}
\@writefile{general}{\indexentry{{-}{-}plugindir configure option}{106}}
\@setckpt{newfeatures}{
\setcounter{page}{107}
\setcounter{equation}{0}
\setcounter{enumi}{4}
\setcounter{enumii}{0}
\setcounter{enumiii}{0}
\setcounter{enumiv}{0}
\setcounter{footnote}{0}
\setcounter{mpfootnote}{0}
\setcounter{part}{0}
\setcounter{chapter}{9}
\setcounter{section}{2}
\setcounter{subsection}{24}
\setcounter{subsubsection}{0}
\setcounter{paragraph}{0}
\setcounter{subparagraph}{0}
\setcounter{figure}{0}
\setcounter{table}{0}
\setcounter{Item}{23}
\setcounter{Hfootnote}{1}
\setcounter{bookmark@seq@number}{182}
\setcounter{lpart}{0}
\setcounter{lchapter}{1}
\setcounter{lsection}{0}
\setcounter{lsubsection}{0}
\setcounter{lsubsubsection}{0}
\setcounter{lparagraph}{0}
\setcounter{lsubparagraph}{0}
\setcounter{lsubsubparagraph}{0}
\setcounter{float@type}{4}
\setcounter{LT@tables}{0}
\setcounter{LT@chunks}{0}
\setcounter{vrcnt}{14}
\setcounter{AM@survey}{0}
\setcounter{section@level}{3}
}
