\relax 
\providecommand\hyper@newdestlabel[2]{}
\@writefile{toc}{\contentsline {chapter}{\numberline {28}Automated Disk Backup}{291}{chapter.28}}
\@writefile{lof}{\addvspace {10\p@ }}
\@writefile{lot}{\addvspace {10\p@ }}
\newlabel{PoolsChapter}{{28}{291}{Automated Disk Backup}{chapter.28}{}}
\@writefile{general}{\indexentry{Volumes!Using Pools to Manage}{291}}
\@writefile{general}{\indexentry{Disk!Automated Backup}{291}}
\@writefile{general}{\indexentry{Using Pools to Manage Volumes}{291}}
\@writefile{general}{\indexentry{Automated Disk Backup}{291}}
\newlabel{TheProblem}{{28}{291}{Automated Disk Backup}{chapter.28}{}}
\@writefile{toc}{\contentsline {section}{\numberline {28.1}The Problem}{291}{section.28.1}}
\@writefile{general}{\indexentry{Problem}{291}}
\newlabel{TheSolution}{{28.1}{291}{The Problem}{section.28.1}{}}
\@writefile{toc}{\contentsline {section}{\numberline {28.2}The Solution}{291}{section.28.2}}
\@writefile{general}{\indexentry{Solution}{291}}
\newlabel{OverallDesign}{{28.2}{291}{The Solution}{section.28.2}{}}
\@writefile{toc}{\contentsline {section}{\numberline {28.3}Overall Design}{291}{section.28.3}}
\@writefile{general}{\indexentry{Overall Design}{291}}
\@writefile{general}{\indexentry{Design!Overall}{291}}
\newlabel{FullPool}{{28.3}{292}{Overall Design}{section.28.3}{}}
\@writefile{toc}{\contentsline {subsection}{\numberline {28.3.1}Full Pool}{292}{subsection.28.3.1}}
\@writefile{general}{\indexentry{Pool!Full}{292}}
\@writefile{general}{\indexentry{Full Pool}{292}}
\newlabel{DiffPool}{{28.3.1}{292}{Full Pool}{subsection.28.3.1}{}}
\@writefile{toc}{\contentsline {subsection}{\numberline {28.3.2}Differential Pool}{292}{subsection.28.3.2}}
\@writefile{general}{\indexentry{Pool!Differential}{292}}
\@writefile{general}{\indexentry{Differential Pool}{292}}
\newlabel{IncPool}{{28.3.2}{292}{Differential Pool}{subsection.28.3.2}{}}
\@writefile{toc}{\contentsline {subsection}{\numberline {28.3.3}Incremental Pool}{293}{subsection.28.3.3}}
\@writefile{general}{\indexentry{Incremental Pool}{293}}
\@writefile{general}{\indexentry{Pool!Incremental}{293}}
\newlabel{Example}{{28.3.3}{293}{Incremental Pool}{subsection.28.3.3}{}}
\@writefile{toc}{\contentsline {section}{\numberline {28.4}The Actual Conf Files}{293}{section.28.4}}
\@writefile{general}{\indexentry{Files!Actual Conf}{293}}
\@writefile{general}{\indexentry{Actual Conf Files}{293}}
\@setckpt{pools}{
\setcounter{page}{297}
\setcounter{equation}{0}
\setcounter{enumi}{10}
\setcounter{enumii}{0}
\setcounter{enumiii}{0}
\setcounter{enumiv}{0}
\setcounter{footnote}{0}
\setcounter{mpfootnote}{0}
\setcounter{part}{0}
\setcounter{chapter}{28}
\setcounter{section}{4}
\setcounter{subsection}{0}
\setcounter{subsubsection}{0}
\setcounter{paragraph}{0}
\setcounter{subparagraph}{0}
\setcounter{figure}{0}
\setcounter{table}{0}
\setcounter{Item}{99}
\setcounter{Hfootnote}{2}
\setcounter{bookmark@seq@number}{364}
\setcounter{lpart}{0}
\setcounter{lchapter}{1}
\setcounter{lsection}{0}
\setcounter{lsubsection}{0}
\setcounter{lsubsubsection}{0}
\setcounter{lparagraph}{0}
\setcounter{lsubparagraph}{0}
\setcounter{lsubsubparagraph}{0}
\setcounter{float@type}{4}
\setcounter{LT@tables}{7}
\setcounter{LT@chunks}{5}
\setcounter{vrcnt}{63}
\setcounter{AM@survey}{0}
\setcounter{section@level}{1}
}
