\relax 
\providecommand\hyper@newdestlabel[2]{}
\@writefile{toc}{\contentsline {chapter}{\numberline {14}Getting Started with Bacula}{119}{chapter.14}}
\@writefile{lof}{\addvspace {10\p@ }}
\@writefile{lot}{\addvspace {10\p@ }}
\newlabel{QuickStartChapter}{{14}{119}{Getting Started with Bacula}{chapter.14}{}}
\@writefile{general}{\indexentry{Getting Started with Bacula }{119}}
\newlabel{JobsandSchedules}{{14}{119}{Getting Started with Bacula}{chapter.14}{}}
\@writefile{toc}{\contentsline {section}{\numberline {14.1}Understanding Jobs and Schedules}{119}{section.14.1}}
\@writefile{general}{\indexentry{Jobs!Understanding}{119}}
\@writefile{general}{\indexentry{Schedules!Understanding}{119}}
\newlabel{PoolsVolsLabels}{{14.1}{119}{Understanding Jobs and Schedules}{section.14.1}{}}
\@writefile{toc}{\contentsline {section}{\numberline {14.2}Understanding Pools, Volumes and Labels}{119}{section.14.2}}
\@writefile{general}{\indexentry{Labels!Understanding Pools Volumes and }{119}}
\@writefile{general}{\indexentry{Understanding Pools, Volumes and Labels }{119}}
\@writefile{toc}{\contentsline {section}{\numberline {14.3}Setting Up Bacula Configuration Files}{120}{section.14.3}}
\newlabel{config}{{14.3}{120}{Setting Up Bacula Configuration Files}{section.14.3}{}}
\@writefile{general}{\indexentry{Setting Up Bacula Configuration Files }{120}}
\@writefile{general}{\indexentry{Files!Setting Up Bacula Configuration }{120}}
\@writefile{toc}{\contentsline {subsection}{\numberline {14.3.1}Configuring the Console Program}{120}{subsection.14.3.1}}
\@writefile{general}{\indexentry{Configuring the Console Program }{120}}
\@writefile{general}{\indexentry{Program!Configuring the Console }{120}}
\@writefile{toc}{\contentsline {subsection}{\numberline {14.3.2}Configuring the Monitor Program}{120}{subsection.14.3.2}}
\@writefile{general}{\indexentry{Program!Configuring the Monitor }{120}}
\@writefile{general}{\indexentry{Configuring the Monitor Program }{120}}
\@writefile{lof}{\contentsline {figure}{Bacula Tray Monitor}{120}{subsection.14.3.2}}
\@writefile{toc}{\contentsline {subsection}{\numberline {14.3.3}Configuring the File daemon}{121}{subsection.14.3.3}}
\@writefile{general}{\indexentry{Daemon!Configuring the File }{121}}
\@writefile{general}{\indexentry{Configuring the File daemon }{121}}
\@writefile{toc}{\contentsline {subsection}{\numberline {14.3.4}Configuring the Director}{121}{subsection.14.3.4}}
\@writefile{general}{\indexentry{Director!Configuring the }{121}}
\@writefile{general}{\indexentry{Configuring the Director }{121}}
\@writefile{toc}{\contentsline {subsection}{\numberline {14.3.5}Configuring the Storage daemon}{122}{subsection.14.3.5}}
\@writefile{general}{\indexentry{Daemon!Configuring the Storage }{122}}
\@writefile{general}{\indexentry{Configuring the Storage daemon }{122}}
\newlabel{ConfigTesting}{{14.3.5}{122}{Configuring the Storage daemon}{subsection.14.3.5}{}}
\@writefile{toc}{\contentsline {section}{\numberline {14.4}Testing your Configuration Files}{122}{section.14.4}}
\@writefile{general}{\indexentry{Testing your Configuration Files }{122}}
\@writefile{general}{\indexentry{Files!Testing your Configuration }{122}}
\newlabel{TapeTesting}{{14.4}{122}{Testing your Configuration Files}{section.14.4}{}}
\@writefile{toc}{\contentsline {section}{\numberline {14.5}Testing Compatibility with Your Tape Drive}{122}{section.14.5}}
\@writefile{general}{\indexentry{Drive!Testing Bacula Compatibility with Your Tape}{122}}
\@writefile{general}{\indexentry{Testing Bacula Compatibility with Your Tape Drive}{122}}
\newlabel{notls}{{14.5}{122}{Testing Compatibility with Your Tape Drive}{section.14.5}{}}
\@writefile{toc}{\contentsline {section}{\numberline {14.6}Get Rid of the /lib/tls Directory}{122}{section.14.6}}
\@writefile{general}{\indexentry{Directory!Get Rid of the /lib/tls }{122}}
\@writefile{general}{\indexentry{Get Rid of the /lib/tls Directory }{122}}
\newlabel{Running1}{{14.6}{123}{Get Rid of the /lib/tls Directory}{section.14.6}{}}
\@writefile{toc}{\contentsline {section}{\numberline {14.7}Running Bacula}{123}{section.14.7}}
\@writefile{general}{\indexentry{Bacula!Running }{123}}
\@writefile{general}{\indexentry{Running Bacula }{123}}
\@writefile{toc}{\contentsline {section}{\numberline {14.8}Log Rotation}{123}{section.14.8}}
\@writefile{general}{\indexentry{Rotation!Log }{123}}
\@writefile{general}{\indexentry{Log Rotation }{123}}
\@writefile{toc}{\contentsline {section}{\numberline {14.9}Log Watch}{123}{section.14.9}}
\@writefile{general}{\indexentry{Watch!Log}{123}}
\@writefile{general}{\indexentry{Log Watch}{123}}
\@writefile{toc}{\contentsline {section}{\numberline {14.10}Disaster Recovery}{123}{section.14.10}}
\@writefile{general}{\indexentry{Recovery!Disaster }{123}}
\@writefile{general}{\indexentry{Disaster Recovery }{123}}
\@setckpt{quickstart}{
\setcounter{page}{124}
\setcounter{equation}{0}
\setcounter{enumi}{4}
\setcounter{enumii}{0}
\setcounter{enumiii}{0}
\setcounter{enumiv}{0}
\setcounter{footnote}{0}
\setcounter{mpfootnote}{0}
\setcounter{part}{0}
\setcounter{chapter}{14}
\setcounter{section}{10}
\setcounter{subsection}{0}
\setcounter{subsubsection}{0}
\setcounter{paragraph}{0}
\setcounter{subparagraph}{0}
\setcounter{figure}{0}
\setcounter{table}{0}
\setcounter{Item}{23}
\setcounter{Hfootnote}{1}
\setcounter{bookmark@seq@number}{211}
\setcounter{lpart}{0}
\setcounter{lchapter}{1}
\setcounter{lsection}{0}
\setcounter{lsubsection}{0}
\setcounter{lsubsubsection}{0}
\setcounter{lparagraph}{0}
\setcounter{lsubparagraph}{0}
\setcounter{lsubsubparagraph}{0}
\setcounter{float@type}{4}
\setcounter{LT@tables}{2}
\setcounter{LT@chunks}{5}
\setcounter{vrcnt}{18}
\setcounter{AM@survey}{0}
\setcounter{section@level}{1}
}
