\relax 
\providecommand\hyper@newdestlabel[2]{}
\@writefile{toc}{\contentsline {chapter}{\numberline {26}Automatic Volume Recycling}{271}{chapter.26}}
\@writefile{lof}{\addvspace {10\p@ }}
\@writefile{lot}{\addvspace {10\p@ }}
\newlabel{RecyclingChapter}{{26}{271}{Automatic Volume Recycling}{chapter.26}{}}
\@writefile{general}{\indexentry{Recycling!Automatic Volume }{271}}
\@writefile{general}{\indexentry{Automatic Volume Recycling }{271}}
\newlabel{AutoPruning}{{26}{272}{Automatic Volume Recycling}{chapter.26}{}}
\@writefile{toc}{\contentsline {section}{\numberline {26.1}Automatic Pruning}{272}{section.26.1}}
\@writefile{general}{\indexentry{Automatic Pruning}{272}}
\@writefile{general}{\indexentry{Pruning!Automatic}{272}}
\newlabel{62@xvr}{{}{272}{Automatic Pruning}{section.26.1}{}}
\newlabel{62@vr}{{}{272}{Automatic Pruning}{section.26.1}{}}
\@writefile{toc}{\contentsline {section}{\numberline {26.2}Pruning Directives}{272}{section.26.2}}
\@writefile{general}{\indexentry{Pruning Directives }{272}}
\@writefile{general}{\indexentry{Directives!Pruning }{272}}
\@writefile{console}{\indexentry{AutoPrune  }{273}}
\@writefile{console}{\indexentry{Volume Retention}{273}}
\@writefile{fd}{\indexentry{Recycle  }{273}}
\newlabel{Recycling}{{26.2}{273}{Pruning Directives}{section.26.2}{}}
\newlabel{RecyclingAlgorithm}{{26.2}{273}{Pruning Directives}{section.26.2}{}}
\@writefile{toc}{\contentsline {section}{\numberline {26.3}Recycling Algorithm}{273}{section.26.3}}
\@writefile{general}{\indexentry{Algorithm!Recycling }{273}}
\@writefile{general}{\indexentry{Recycling Algorithm }{273}}
\@writefile{general}{\indexentry{New Volume Algorithm}{274}}
\@writefile{general}{\indexentry{Algorithm!New Volume}{274}}
\@writefile{toc}{\contentsline {section}{\numberline {26.4}Recycle Status}{275}{section.26.4}}
\@writefile{general}{\indexentry{Status!Recycle }{275}}
\@writefile{general}{\indexentry{Recycle Status }{275}}
\@writefile{toc}{\contentsline {section}{\numberline {26.5}Making Bacula Use a Single Tape}{276}{section.26.5}}
\newlabel{singletape}{{26.5}{276}{Making Bacula Use a Single Tape}{section.26.5}{}}
\@writefile{general}{\indexentry{Tape!Making Bacula Use a Single}{276}}
\@writefile{general}{\indexentry{Making Bacula Use a Single Tape}{276}}
\@writefile{toc}{\contentsline {section}{\numberline {26.6}Daily, Weekly, Monthly Tape Usage Example}{276}{section.26.6}}
\newlabel{usageexample}{{26.6}{276}{Daily, Weekly, Monthly Tape Usage Example}{section.26.6}{}}
\@writefile{general}{\indexentry{Daily, Weekly, Monthly Tape Usage Example }{276}}
\@writefile{general}{\indexentry{Example!Daily Weekly Monthly Tape Usage }{276}}
\@writefile{toc}{\contentsline {section}{\numberline {26.7} Automatic Pruning and Recycling Example}{277}{section.26.7}}
\newlabel{PruningExample}{{26.7}{277}{Automatic Pruning and Recycling Example}{section.26.7}{}}
\@writefile{general}{\indexentry{Automatic Pruning and Recycling Example }{277}}
\@writefile{general}{\indexentry{Example!Automatic Pruning and Recycling }{277}}
\@writefile{toc}{\contentsline {section}{\numberline {26.8}Manually Recycling Volumes}{278}{section.26.8}}
\newlabel{manualrecycling}{{26.8}{278}{Manually Recycling Volumes}{section.26.8}{}}
\@writefile{general}{\indexentry{Volumes!Manually Recycling }{278}}
\@writefile{general}{\indexentry{Manually Recycling Volumes }{278}}
\@setckpt{recycling}{
\setcounter{page}{280}
\setcounter{equation}{0}
\setcounter{enumi}{3}
\setcounter{enumii}{0}
\setcounter{enumiii}{0}
\setcounter{enumiv}{0}
\setcounter{footnote}{0}
\setcounter{mpfootnote}{0}
\setcounter{part}{0}
\setcounter{chapter}{26}
\setcounter{section}{8}
\setcounter{subsection}{0}
\setcounter{subsubsection}{0}
\setcounter{paragraph}{0}
\setcounter{subparagraph}{0}
\setcounter{figure}{0}
\setcounter{table}{0}
\setcounter{Item}{89}
\setcounter{Hfootnote}{2}
\setcounter{bookmark@seq@number}{347}
\setcounter{lpart}{0}
\setcounter{lchapter}{1}
\setcounter{lsection}{0}
\setcounter{lsubsection}{0}
\setcounter{lsubsubsection}{0}
\setcounter{lparagraph}{0}
\setcounter{lsubparagraph}{0}
\setcounter{lsubsubparagraph}{0}
\setcounter{float@type}{4}
\setcounter{LT@tables}{7}
\setcounter{LT@chunks}{5}
\setcounter{vrcnt}{62}
\setcounter{AM@survey}{0}
\setcounter{section@level}{1}
}
