\relax 
\providecommand\hyper@newdestlabel[2]{}
\@writefile{toc}{\contentsline {chapter}{\numberline {46}Bacula Security Issues}{393}{chapter.46}}
\@writefile{lof}{\addvspace {10\p@ }}
\@writefile{lot}{\addvspace {10\p@ }}
\newlabel{SecurityChapter}{{46}{393}{Bacula Security Issues}{chapter.46}{}}
\@writefile{general}{\indexentry{Bacula Security Issues}{393}}
\@writefile{general}{\indexentry{Security}{393}}
\@writefile{general}{\indexentry{Issues!Bacula Security}{393}}
\@writefile{toc}{\contentsline {section}{\numberline {46.1}Backward Compatibility}{393}{section.46.1}}
\@writefile{general}{\indexentry{Backward Compatibility}{393}}
\newlabel{wrappers}{{46.1}{394}{Backward Compatibility}{section.46.1}{}}
\@writefile{toc}{\contentsline {section}{\numberline {46.2}Configuring and Testing TCP Wrappers}{394}{section.46.2}}
\@writefile{general}{\indexentry{Configuring and Testing TCP Wrappers}{394}}
\@writefile{general}{\indexentry{TCP Wrappers}{394}}
\@writefile{general}{\indexentry{Wrappers!TCP}{394}}
\@writefile{general}{\indexentry{libwrappers}{394}}
\@writefile{toc}{\contentsline {section}{\numberline {46.3}Running as non-root}{395}{section.46.3}}
\@writefile{general}{\indexentry{Running as non-root }{395}}
\@setckpt{security}{
\setcounter{page}{397}
\setcounter{equation}{0}
\setcounter{enumi}{5}
\setcounter{enumii}{0}
\setcounter{enumiii}{0}
\setcounter{enumiv}{0}
\setcounter{footnote}{0}
\setcounter{mpfootnote}{0}
\setcounter{part}{0}
\setcounter{chapter}{46}
\setcounter{section}{3}
\setcounter{subsection}{0}
\setcounter{subsubsection}{0}
\setcounter{paragraph}{0}
\setcounter{subparagraph}{0}
\setcounter{figure}{0}
\setcounter{table}{0}
\setcounter{Item}{180}
\setcounter{Hfootnote}{2}
\setcounter{bookmark@seq@number}{507}
\setcounter{lpart}{0}
\setcounter{lchapter}{1}
\setcounter{lsection}{0}
\setcounter{lsubsection}{0}
\setcounter{lsubsubsection}{0}
\setcounter{lparagraph}{0}
\setcounter{lsubparagraph}{0}
\setcounter{lsubsubparagraph}{0}
\setcounter{float@type}{4}
\setcounter{LT@tables}{9}
\setcounter{LT@chunks}{6}
\setcounter{vrcnt}{66}
\setcounter{AM@survey}{0}
\setcounter{section@level}{1}
}
