\relax 
\providecommand\hyper@newdestlabel[2]{}
\@writefile{toc}{\contentsline {chapter}{\numberline {35}Data Spooling}{331}{chapter.35}}
\@writefile{lof}{\addvspace {10\p@ }}
\@writefile{lot}{\addvspace {10\p@ }}
\newlabel{SpoolingChapter}{{35}{331}{Data Spooling}{chapter.35}{}}
\@writefile{general}{\indexentry{Data Spooling }{331}}
\@writefile{general}{\indexentry{Spooling!Data }{331}}
\newlabel{directives}{{35}{331}{Data Spooling}{chapter.35}{}}
\@writefile{toc}{\contentsline {section}{\numberline {35.1}Data Spooling Directives}{331}{section.35.1}}
\@writefile{general}{\indexentry{Directives!Data Spooling }{331}}
\@writefile{general}{\indexentry{Data Spooling Directives }{331}}
\newlabel{warning}{{35.1}{332}{Data Spooling Directives}{section.35.1}{}}
\@writefile{toc}{\contentsline {section}{\numberline {35.2}!!! MAJOR WARNING !!!}{332}{section.35.2}}
\@writefile{general}{\indexentry{WARNING! MAJOR }{332}}
\@writefile{general}{\indexentry{ MAJOR WARNING  }{332}}
\newlabel{points}{{35.2}{332}{!!! MAJOR WARNING !!!}{section.35.2}{}}
\@writefile{toc}{\contentsline {section}{\numberline {35.3}Other Points}{332}{section.35.3}}
\@writefile{general}{\indexentry{Points!Other }{332}}
\@writefile{general}{\indexentry{Other Points }{332}}
\@setckpt{spooling}{
\setcounter{page}{333}
\setcounter{equation}{0}
\setcounter{enumi}{3}
\setcounter{enumii}{0}
\setcounter{enumiii}{0}
\setcounter{enumiv}{0}
\setcounter{footnote}{0}
\setcounter{mpfootnote}{0}
\setcounter{part}{0}
\setcounter{chapter}{35}
\setcounter{section}{3}
\setcounter{subsection}{0}
\setcounter{subsubsection}{0}
\setcounter{paragraph}{0}
\setcounter{subparagraph}{0}
\setcounter{figure}{0}
\setcounter{table}{0}
\setcounter{Item}{102}
\setcounter{Hfootnote}{2}
\setcounter{bookmark@seq@number}{408}
\setcounter{lpart}{0}
\setcounter{lchapter}{1}
\setcounter{lsection}{0}
\setcounter{lsubsection}{0}
\setcounter{lsubsubsection}{0}
\setcounter{lparagraph}{0}
\setcounter{lsubparagraph}{0}
\setcounter{lsubsubparagraph}{0}
\setcounter{float@type}{4}
\setcounter{LT@tables}{8}
\setcounter{LT@chunks}{6}
\setcounter{vrcnt}{66}
\setcounter{AM@survey}{0}
\setcounter{section@level}{1}
}
