\relax 
\providecommand\hyper@newdestlabel[2]{}
\@writefile{toc}{\contentsline {chapter}{\numberline {10}The Current State of Bacula}{107}{chapter.10}}
\@writefile{lof}{\addvspace {10\p@ }}
\@writefile{lot}{\addvspace {10\p@ }}
\newlabel{StateChapter}{{10}{107}{The Current State of Bacula}{chapter.10}{}}
\@writefile{general}{\indexentry{Current State of Bacula }{107}}
\@writefile{toc}{\contentsline {section}{\numberline {10.1}What is Implemented}{107}{section.10.1}}
\@writefile{general}{\indexentry{Implemented!What}{107}}
\@writefile{general}{\indexentry{What is Implemented}{107}}
\@writefile{toc}{\contentsline {section}{\numberline {10.2}Advantages Over Other Backup Programs}{109}{section.10.2}}
\@writefile{general}{\indexentry{Advantages of Bacula Over Other Backup Programs }{109}}
\@writefile{general}{\indexentry{Programs!Advantages of Bacula Over Other Backup }{109}}
\@writefile{toc}{\contentsline {section}{\numberline {10.3}Current Implementation Restrictions}{109}{section.10.3}}
\@writefile{general}{\indexentry{Current Implementation Restrictions }{109}}
\@writefile{general}{\indexentry{Restrictions!Current Implementation }{109}}
\@writefile{toc}{\contentsline {section}{\numberline {10.4}Design Limitations or Restrictions}{110}{section.10.4}}
\@writefile{general}{\indexentry{Restrictions!Design Limitations or }{110}}
\@writefile{general}{\indexentry{Design Limitations or Restrictions }{110}}
\@writefile{toc}{\contentsline {section}{\numberline {10.5}Items to Note}{110}{section.10.5}}
\@writefile{general}{\indexentry{Items to Note}{110}}
\@setckpt{state}{
\setcounter{page}{111}
\setcounter{equation}{0}
\setcounter{enumi}{4}
\setcounter{enumii}{0}
\setcounter{enumiii}{0}
\setcounter{enumiv}{0}
\setcounter{footnote}{0}
\setcounter{mpfootnote}{0}
\setcounter{part}{0}
\setcounter{chapter}{10}
\setcounter{section}{5}
\setcounter{subsection}{0}
\setcounter{subsubsection}{0}
\setcounter{paragraph}{0}
\setcounter{subparagraph}{0}
\setcounter{figure}{0}
\setcounter{table}{0}
\setcounter{Item}{23}
\setcounter{Hfootnote}{1}
\setcounter{bookmark@seq@number}{188}
\setcounter{lpart}{0}
\setcounter{lchapter}{1}
\setcounter{lsection}{0}
\setcounter{lsubsection}{0}
\setcounter{lsubsubsection}{0}
\setcounter{lparagraph}{0}
\setcounter{lsubparagraph}{0}
\setcounter{lsubsubparagraph}{0}
\setcounter{float@type}{4}
\setcounter{LT@tables}{0}
\setcounter{LT@chunks}{0}
\setcounter{vrcnt}{14}
\setcounter{AM@survey}{0}
\setcounter{section@level}{1}
}
