\relax 
\providecommand\hyper@newdestlabel[2]{}
\@writefile{toc}{\contentsline {chapter}{\numberline {31}Backup Strategies}{309}{chapter.31}}
\@writefile{lof}{\addvspace {10\p@ }}
\@writefile{lot}{\addvspace {10\p@ }}
\newlabel{StrategiesChapter}{{31}{309}{Backup Strategies}{chapter.31}{}}
\@writefile{general}{\indexentry{Strategies!Backup }{309}}
\@writefile{general}{\indexentry{Backup Strategies }{309}}
\newlabel{Simple}{{31}{309}{Backup Strategies}{chapter.31}{}}
\@writefile{toc}{\contentsline {section}{\numberline {31.1}Simple One Tape Backup}{309}{section.31.1}}
\@writefile{general}{\indexentry{Backup!Simple One Tape }{309}}
\@writefile{general}{\indexentry{Simple One Tape Backup }{309}}
\@writefile{toc}{\contentsline {subsection}{\numberline {31.1.1}Advantages}{309}{subsection.31.1.1}}
\@writefile{general}{\indexentry{Advantages }{309}}
\@writefile{toc}{\contentsline {subsection}{\numberline {31.1.2}Disadvantages}{309}{subsection.31.1.2}}
\@writefile{general}{\indexentry{Disadvantages }{309}}
\@writefile{toc}{\contentsline {subsection}{\numberline {31.1.3}Practical Details}{309}{subsection.31.1.3}}
\@writefile{general}{\indexentry{Details!Practical }{309}}
\@writefile{general}{\indexentry{Practical Details }{309}}
\newlabel{Manual}{{31.1.3}{309}{Practical Details}{subsection.31.1.3}{}}
\@writefile{toc}{\contentsline {section}{\numberline {31.2}Manually Changing Tapes}{309}{section.31.2}}
\@writefile{general}{\indexentry{Tapes!Manually Changing }{309}}
\@writefile{general}{\indexentry{Manually Changing Tapes }{309}}
\newlabel{Daily}{{31.2}{310}{Manually Changing Tapes}{section.31.2}{}}
\@writefile{toc}{\contentsline {section}{\numberline {31.3}Daily Tape Rotation}{310}{section.31.3}}
\@writefile{general}{\indexentry{Rotation!Daily Tape }{310}}
\@writefile{general}{\indexentry{Daily Tape Rotation }{310}}
\@writefile{toc}{\contentsline {subsection}{\numberline {31.3.1}Advantages}{310}{subsection.31.3.1}}
\@writefile{general}{\indexentry{Advantages }{310}}
\@writefile{toc}{\contentsline {subsection}{\numberline {31.3.2}Disadvantages}{310}{subsection.31.3.2}}
\@writefile{general}{\indexentry{Disadvantages }{310}}
\@writefile{toc}{\contentsline {subsection}{\numberline {31.3.3}Practical Details}{311}{subsection.31.3.3}}
\@writefile{general}{\indexentry{Details!Practical }{311}}
\@writefile{general}{\indexentry{Practical Details }{311}}
\@setckpt{strategies}{
\setcounter{page}{315}
\setcounter{equation}{0}
\setcounter{enumi}{10}
\setcounter{enumii}{0}
\setcounter{enumiii}{0}
\setcounter{enumiv}{0}
\setcounter{footnote}{0}
\setcounter{mpfootnote}{0}
\setcounter{part}{0}
\setcounter{chapter}{31}
\setcounter{section}{3}
\setcounter{subsection}{3}
\setcounter{subsubsection}{0}
\setcounter{paragraph}{0}
\setcounter{subparagraph}{0}
\setcounter{figure}{0}
\setcounter{table}{0}
\setcounter{Item}{99}
\setcounter{Hfootnote}{2}
\setcounter{bookmark@seq@number}{383}
\setcounter{lpart}{0}
\setcounter{lchapter}{1}
\setcounter{lsection}{0}
\setcounter{lsubsection}{0}
\setcounter{lsubsubsection}{0}
\setcounter{lparagraph}{0}
\setcounter{lsubparagraph}{0}
\setcounter{lsubsubparagraph}{0}
\setcounter{float@type}{4}
\setcounter{LT@tables}{7}
\setcounter{LT@chunks}{5}
\setcounter{vrcnt}{63}
\setcounter{AM@survey}{0}
\setcounter{section@level}{2}
}
