\relax 
\providecommand\hyper@newdestlabel[2]{}
\@writefile{toc}{\contentsline {chapter}{\numberline {12}Supported Operating Systems}{113}{chapter.12}}
\@writefile{lof}{\addvspace {10\p@ }}
\@writefile{lot}{\addvspace {10\p@ }}
\newlabel{SupportedOSes}{{12}{113}{Supported Operating Systems}{chapter.12}{}}
\@writefile{general}{\indexentry{Systems!Supported Operating }{113}}
\@writefile{general}{\indexentry{Supported Operating Systems }{113}}
\newlabel{15@xvr}{{}{113}{Important notes}{section*.115}{}}
\newlabel{15@vr}{{}{113}{Important notes}{section*.115}{}}
\newlabel{16@xvr}{{}{114}{Important notes}{section*.115}{}}
\newlabel{16@vr}{{}{114}{Important notes}{section*.115}{}}
\@setckpt{supportedoses}{
\setcounter{page}{115}
\setcounter{equation}{0}
\setcounter{enumi}{4}
\setcounter{enumii}{0}
\setcounter{enumiii}{0}
\setcounter{enumiv}{0}
\setcounter{footnote}{0}
\setcounter{mpfootnote}{0}
\setcounter{part}{0}
\setcounter{chapter}{12}
\setcounter{section}{0}
\setcounter{subsection}{0}
\setcounter{subsubsection}{0}
\setcounter{paragraph}{0}
\setcounter{subparagraph}{0}
\setcounter{figure}{0}
\setcounter{table}{0}
\setcounter{Item}{23}
\setcounter{Hfootnote}{1}
\setcounter{bookmark@seq@number}{190}
\setcounter{lpart}{0}
\setcounter{lchapter}{1}
\setcounter{lsection}{1}
\setcounter{lsubsection}{0}
\setcounter{lsubsubsection}{0}
\setcounter{lparagraph}{0}
\setcounter{lsubparagraph}{0}
\setcounter{lsubsubparagraph}{0}
\setcounter{float@type}{4}
\setcounter{LT@tables}{0}
\setcounter{LT@chunks}{0}
\setcounter{vrcnt}{16}
\setcounter{AM@survey}{0}
\setcounter{section@level}{1}
}
