\relax 
\providecommand\hyper@newdestlabel[2]{}
\@writefile{toc}{\contentsline {chapter}{\numberline {49}Thanks}{423}{chapter.49}}
\@writefile{lof}{\addvspace {10\p@ }}
\@writefile{lot}{\addvspace {10\p@ }}
\newlabel{ThanksChapter}{{49}{423}{Thanks}{chapter.49}{}}
\@writefile{general}{\indexentry{Thanks }{423}}
\@writefile{general}{\indexentry{Trademarks!Copyrights and }{424}}
\@writefile{general}{\indexentry{Copyrights and Trademarks }{424}}
\@setckpt{thanks}{
\setcounter{page}{425}
\setcounter{equation}{0}
\setcounter{enumi}{17}
\setcounter{enumii}{6}
\setcounter{enumiii}{0}
\setcounter{enumiv}{0}
\setcounter{footnote}{0}
\setcounter{mpfootnote}{0}
\setcounter{part}{0}
\setcounter{chapter}{49}
\setcounter{section}{0}
\setcounter{subsection}{0}
\setcounter{subsubsection}{0}
\setcounter{paragraph}{0}
\setcounter{subparagraph}{0}
\setcounter{figure}{0}
\setcounter{table}{0}
\setcounter{Item}{213}
\setcounter{Hfootnote}{2}
\setcounter{bookmark@seq@number}{527}
\setcounter{lpart}{0}
\setcounter{lchapter}{1}
\setcounter{lsection}{1}
\setcounter{lsubsection}{0}
\setcounter{lsubsubsection}{0}
\setcounter{lparagraph}{0}
\setcounter{lsubparagraph}{0}
\setcounter{lsubsubparagraph}{0}
\setcounter{float@type}{4}
\setcounter{LT@tables}{9}
\setcounter{LT@chunks}{6}
\setcounter{vrcnt}{67}
\setcounter{AM@survey}{0}
\setcounter{section@level}{1}
}
