\relax 
\providecommand\hyper@newdestlabel[2]{}
\@setckpt{coverpage}{
\setcounter{page}{2}
\setcounter{equation}{0}
\setcounter{enumi}{0}
\setcounter{enumii}{0}
\setcounter{enumiii}{0}
\setcounter{enumiv}{0}
\setcounter{footnote}{0}
\setcounter{mpfootnote}{0}
\setcounter{part}{0}
\setcounter{chapter}{0}
\setcounter{section}{0}
\setcounter{subsection}{0}
\setcounter{subsubsection}{0}
\setcounter{paragraph}{0}
\setcounter{subparagraph}{0}
\setcounter{figure}{0}
\setcounter{table}{0}
\setcounter{Item}{0}
\setcounter{Hfootnote}{0}
\setcounter{bookmark@seq@number}{0}
\setcounter{lpart}{0}
\setcounter{lchapter}{0}
\setcounter{lsection}{0}
\setcounter{lsubsection}{0}
\setcounter{lsubsubsection}{0}
\setcounter{lparagraph}{0}
\setcounter{lsubparagraph}{0}
\setcounter{lsubsubparagraph}{0}
\setcounter{float@type}{4}
\setcounter{LT@tables}{0}
\setcounter{LT@chunks}{0}
\setcounter{vrcnt}{0}
\setcounter{section@level}{0}
}
