\relax 
\providecommand\hyper@newdestlabel[2]{}
\@writefile{toc}{\contentsline {chapter}{\numberline {5}Daemon Protocol}{39}{chapter.5}}
\@writefile{lof}{\addvspace {10\p@ }}
\@writefile{lot}{\addvspace {10\p@ }}
\newlabel{TheChapterStart2}{{5}{39}{Daemon Protocol}{chapter.5}{}}
\@writefile{default}{\indexentry{Protocol!Daemon }{39}}
\@writefile{default}{\indexentry{Daemon Protocol }{39}}
\@writefile{toc}{\contentsline {section}{\numberline {5.1}General}{39}{section.5.1}}
\@writefile{default}{\indexentry{General }{39}}
\@writefile{toc}{\contentsline {subsection}{General}{39}{section*.11}}
\@writefile{toc}{\contentsline {section}{\numberline {5.2}Low Level Network Protocol}{39}{section.5.2}}
\@writefile{default}{\indexentry{Protocol!Low Level Network }{39}}
\@writefile{default}{\indexentry{Low Level Network Protocol }{39}}
\@writefile{toc}{\contentsline {subsection}{Low Level Network Protocol}{39}{section*.12}}
\@writefile{toc}{\contentsline {section}{\numberline {5.3}General Daemon Protocol}{39}{section.5.3}}
\@writefile{default}{\indexentry{General Daemon Protocol }{39}}
\@writefile{default}{\indexentry{Protocol!General Daemon }{39}}
\@writefile{toc}{\contentsline {subsection}{General Daemon Protocol}{39}{section*.13}}
\@writefile{toc}{\contentsline {section}{\numberline {5.4}The Protocol Used Between the Director and the Storage Daemon}{40}{section.5.4}}
\@writefile{default}{\indexentry{Daemon!Protocol Used Between the Director and the Storage }{40}}
\@writefile{default}{\indexentry{Protocol Used Between the Director and the Storage Daemon }{40}}
\@writefile{toc}{\contentsline {subsection}{Protocol Used Between the Director and the Storage Daemon}{40}{section*.14}}
\@writefile{toc}{\contentsline {section}{\numberline {5.5}The Protocol Used Between the Director and the File Daemon}{40}{section.5.5}}
\@writefile{default}{\indexentry{Daemon!Protocol Used Between the Director and the File }{40}}
\@writefile{default}{\indexentry{Protocol Used Between the Director and the File Daemon }{40}}
\@writefile{toc}{\contentsline {subsection}{Protocol Used Between the Director and the File Daemon}{40}{section*.15}}
\@writefile{toc}{\contentsline {section}{\numberline {5.6}The Save Protocol Between the File Daemon and the Storage Daemon}{41}{section.5.6}}
\@writefile{default}{\indexentry{Save Protocol Between the File Daemon and the Storage Daemon }{41}}
\@writefile{default}{\indexentry{Daemon!Save Protocol Between the File Daemon and the Storage }{41}}
\@writefile{toc}{\contentsline {subsection}{Save Protocol Between the File Daemon and the Storage Daemon}{41}{section*.16}}
\@writefile{toc}{\contentsline {subsection}{\numberline {5.6.1}Command and Control Information}{41}{subsection.5.6.1}}
\@writefile{default}{\indexentry{Information!Command and Control }{41}}
\@writefile{default}{\indexentry{Command and Control Information }{41}}
\@writefile{toc}{\contentsline {subsubsection}{Command and Control Information}{41}{subsection.5.6.1}}
\@writefile{toc}{\contentsline {subsection}{\numberline {5.6.2}Data Information}{41}{subsection.5.6.2}}
\@writefile{default}{\indexentry{Information!Data }{41}}
\@writefile{default}{\indexentry{Data Information }{41}}
\@writefile{toc}{\contentsline {subsubsection}{Data Information}{41}{subsection.5.6.2}}
\@setckpt{daemonprotocol}{
\setcounter{page}{43}
\setcounter{equation}{0}
\setcounter{enumi}{3}
\setcounter{enumii}{0}
\setcounter{enumiii}{0}
\setcounter{enumiv}{0}
\setcounter{footnote}{0}
\setcounter{mpfootnote}{0}
\setcounter{part}{0}
\setcounter{chapter}{5}
\setcounter{section}{6}
\setcounter{subsection}{2}
\setcounter{subsubsection}{0}
\setcounter{paragraph}{0}
\setcounter{subparagraph}{0}
\setcounter{figure}{0}
\setcounter{table}{0}
\setcounter{Item}{3}
\setcounter{Hfootnote}{0}
\setcounter{bookmark@seq@number}{91}
\setcounter{lpart}{0}
\setcounter{lchapter}{1}
\setcounter{lsection}{0}
\setcounter{lsubsection}{0}
\setcounter{lsubsubsection}{0}
\setcounter{lparagraph}{0}
\setcounter{lsubparagraph}{0}
\setcounter{lsubsubparagraph}{0}
\setcounter{float@type}{4}
\setcounter{LT@tables}{1}
\setcounter{LT@chunks}{1}
\setcounter{vrcnt}{0}
\setcounter{section@level}{2}
}
