\relax 
\providecommand\hyper@newdestlabel[2]{}
\@writefile{toc}{\contentsline {chapter}{\numberline {2}Bacula Git Usage}{15}{chapter.2}}
\@writefile{lof}{\addvspace {10\p@ }}
\@writefile{lot}{\addvspace {10\p@ }}
\newlabel{TheGitChapterStart}{{2}{15}{Bacula Git Usage}{chapter.2}{}}
\@writefile{default}{\indexentry{Git}{15}}
\@writefile{default}{\indexentry{Git!Repo}{15}}
\@writefile{toc}{\contentsline {section}{Bacula Bit Usage}{15}{section*.5}}
\@writefile{toc}{\contentsline {section}{\numberline {2.1}Bacula Git repositories}{15}{section.2.1}}
\@writefile{default}{\indexentry{Git}{15}}
\@writefile{toc}{\contentsline {subsection}{Git repositories}{15}{section*.6}}
\@writefile{toc}{\contentsline {section}{\numberline {2.2}Git Usage}{15}{section.2.2}}
\@writefile{default}{\indexentry{Git Usage}{15}}
\@writefile{toc}{\contentsline {subsection}{Git Usage}{15}{section*.7}}
\@writefile{toc}{\contentsline {subsection}{\numberline {2.2.1}Learning Git}{16}{subsection.2.2.1}}
\@writefile{default}{\indexentry{Learning Git}{16}}
\@writefile{toc}{\contentsline {section}{\numberline {2.3}Step by Step Modifying Bacula Code}{17}{section.2.3}}
\@writefile{toc}{\contentsline {subsection}{\numberline {2.3.1}More Details}{19}{subsection.2.3.1}}
\@writefile{toc}{\contentsline {section}{\numberline {2.4}Forcing Changes}{20}{section.2.4}}
\@setckpt{git}{
\setcounter{page}{22}
\setcounter{equation}{0}
\setcounter{enumi}{0}
\setcounter{enumii}{0}
\setcounter{enumiii}{0}
\setcounter{enumiv}{0}
\setcounter{footnote}{0}
\setcounter{mpfootnote}{0}
\setcounter{part}{0}
\setcounter{chapter}{2}
\setcounter{section}{4}
\setcounter{subsection}{0}
\setcounter{subsubsection}{0}
\setcounter{paragraph}{0}
\setcounter{subparagraph}{0}
\setcounter{figure}{0}
\setcounter{table}{0}
\setcounter{Item}{0}
\setcounter{Hfootnote}{0}
\setcounter{bookmark@seq@number}{43}
\setcounter{lpart}{0}
\setcounter{lchapter}{1}
\setcounter{lsection}{0}
\setcounter{lsubsection}{0}
\setcounter{lsubsubsection}{0}
\setcounter{lparagraph}{0}
\setcounter{lsubparagraph}{0}
\setcounter{lsubsubparagraph}{0}
\setcounter{float@type}{4}
\setcounter{LT@tables}{1}
\setcounter{LT@chunks}{1}
\setcounter{vrcnt}{0}
\setcounter{section@level}{1}
}
