\relax 
\providecommand\hyper@newdestlabel[2]{}
\@writefile{toc}{\contentsline {chapter}{\numberline {18}Bacula Copyright, Trademark, and Licenses}{121}{chapter.18}}
\@writefile{lof}{\addvspace {10\p@ }}
\@writefile{lot}{\addvspace {10\p@ }}
\newlabel{LicenseChapter}{{18}{121}{Bacula Copyright, Trademark, and Licenses}{chapter.18}{}}
\@writefile{general}{\indexentry{Licenses!Bacula Copyright Trademark}{121}}
\@writefile{general}{\indexentry{Bacula Copyright, Trademark, and Licenses}{121}}
\@writefile{toc}{\contentsline {section}{\numberline {18.1}CC-BY-SA}{121}{section.18.1}}
\@writefile{general}{\indexentry{CC-BY-SA}{121}}
\@writefile{toc}{\contentsline {section}{\numberline {18.2}GPL}{121}{section.18.2}}
\@writefile{general}{\indexentry{GPL }{121}}
\@writefile{toc}{\contentsline {section}{\numberline {18.3}LGPL}{121}{section.18.3}}
\@writefile{general}{\indexentry{LGPL }{121}}
\@writefile{toc}{\contentsline {section}{\numberline {18.4}Public Domain}{121}{section.18.4}}
\@writefile{general}{\indexentry{Domain!Public }{121}}
\@writefile{general}{\indexentry{Public Domain }{121}}
\@writefile{toc}{\contentsline {section}{\numberline {18.5}Trademark}{122}{section.18.5}}
\@writefile{general}{\indexentry{Trademark }{122}}
\@writefile{toc}{\contentsline {section}{\numberline {18.6}Fiduciary License Agreement}{122}{section.18.6}}
\@writefile{general}{\indexentry{Fiduciary License Agreement }{122}}
\@writefile{toc}{\contentsline {section}{\numberline {18.7}Disclaimer}{122}{section.18.7}}
\@writefile{general}{\indexentry{Disclaimer }{122}}
\@writefile{toc}{\contentsline {section}{\numberline {18.8}Authors}{122}{section.18.8}}
\@setckpt{license}{
\setcounter{page}{124}
\setcounter{equation}{0}
\setcounter{enumi}{9}
\setcounter{enumii}{0}
\setcounter{enumiii}{0}
\setcounter{enumiv}{0}
\setcounter{footnote}{0}
\setcounter{mpfootnote}{0}
\setcounter{part}{0}
\setcounter{chapter}{18}
\setcounter{section}{8}
\setcounter{subsection}{0}
\setcounter{subsubsection}{0}
\setcounter{paragraph}{0}
\setcounter{subparagraph}{0}
\setcounter{figure}{0}
\setcounter{table}{0}
\setcounter{Item}{22}
\setcounter{Hfootnote}{0}
\setcounter{bookmark@seq@number}{303}
\setcounter{lpart}{0}
\setcounter{lchapter}{2}
\setcounter{lsection}{0}
\setcounter{lsubsection}{0}
\setcounter{lsubsubsection}{0}
\setcounter{lparagraph}{0}
\setcounter{lsubparagraph}{0}
\setcounter{lsubsubparagraph}{0}
\setcounter{float@type}{4}
\setcounter{LT@tables}{22}
\setcounter{LT@chunks}{1}
\setcounter{vrcnt}{3}
\setcounter{section@level}{1}
}
