\relax 
\providecommand\hyper@newdestlabel[2]{}
\@writefile{toc}{\contentsline {chapter}{\numberline {10}Storage Media Output Format}{65}{chapter.10}}
\@writefile{lof}{\addvspace {10\p@ }}
\@writefile{lot}{\addvspace {10\p@ }}
\newlabel{TheChapterStart9}{{10}{65}{Storage Media Output Format}{chapter.10}{}}
\@writefile{default}{\indexentry{Format!Storage Media Output}{65}}
\@writefile{default}{\indexentry{Storage Media Output Format}{65}}
\@writefile{toc}{\contentsline {section}{Storage Media Output Format}{65}{section*.25}}
\@writefile{toc}{\contentsline {section}{\numberline {10.1}General}{65}{section.10.1}}
\@writefile{default}{\indexentry{General}{65}}
\@writefile{toc}{\contentsline {subsection}{General}{65}{section*.26}}
\@writefile{toc}{\contentsline {section}{\numberline {10.2}Definitions}{65}{section.10.2}}
\@writefile{default}{\indexentry{Definitions}{65}}
\@writefile{toc}{\contentsline {subsection}{Definitions}{65}{section*.27}}
\@writefile{default}{\indexentry{Block}{65}}
\@writefile{default}{\indexentry{Record}{65}}
\@writefile{default}{\indexentry{JobId}{65}}
\@writefile{default}{\indexentry{Session}{65}}
\@writefile{default}{\indexentry{VolSessionId}{65}}
\@writefile{default}{\indexentry{VolSessionTime}{66}}
\@writefile{default}{\indexentry{FileIndex}{66}}
\@writefile{default}{\indexentry{Stream}{66}}
\@writefile{default}{\indexentry{Block Header}{66}}
\@writefile{default}{\indexentry{Record Header}{66}}
\@writefile{default}{\indexentry{Data Record}{66}}
\@writefile{default}{\indexentry{Volume Label}{66}}
\@writefile{default}{\indexentry{Begin Session Label}{66}}
\@writefile{default}{\indexentry{End Session Label}{66}}
\@writefile{toc}{\contentsline {section}{\numberline {10.3}Storage Daemon File Output Format}{66}{section.10.3}}
\@writefile{default}{\indexentry{Format!Storage Daemon File Output}{66}}
\@writefile{default}{\indexentry{Storage Daemon File Output Format}{66}}
\@writefile{toc}{\contentsline {subsection}{Storage Daemon File Output Format}{66}{section*.28}}
\@writefile{toc}{\contentsline {section}{\numberline {10.4}Overall Format}{67}{section.10.4}}
\@writefile{default}{\indexentry{Format!Overall}{67}}
\@writefile{default}{\indexentry{Overall Format}{67}}
\@writefile{toc}{\contentsline {subsection}{Overall Format}{67}{section*.29}}
\@writefile{toc}{\contentsline {section}{\numberline {10.5}Serialization}{67}{section.10.5}}
\@writefile{default}{\indexentry{Serialization}{67}}
\@writefile{toc}{\contentsline {subsection}{Serialization}{67}{section*.30}}
\@writefile{toc}{\contentsline {section}{\numberline {10.6}Block Header}{67}{section.10.6}}
\@writefile{default}{\indexentry{Header!Block}{67}}
\@writefile{default}{\indexentry{Block Header}{67}}
\@writefile{toc}{\contentsline {subsection}{Block Header}{67}{section*.31}}
\@writefile{toc}{\contentsline {section}{\numberline {10.7}Record Header}{68}{section.10.7}}
\@writefile{default}{\indexentry{Header!Record}{68}}
\@writefile{default}{\indexentry{Record Header}{68}}
\@writefile{toc}{\contentsline {subsection}{Record Header}{68}{section*.32}}
\@writefile{default}{\indexentry{VolSessionId}{68}}
\@writefile{default}{\indexentry{VolSessionTime}{68}}
\@writefile{default}{\indexentry{FileIndex}{68}}
\@writefile{default}{\indexentry{Stream}{68}}
\@writefile{default}{\indexentry{DataSize}{68}}
\@writefile{toc}{\contentsline {section}{\numberline {10.8}Version BB02 Block Header}{69}{section.10.8}}
\@writefile{default}{\indexentry{Version BB02 Block Header}{69}}
\@writefile{default}{\indexentry{Header!Version BB02 Block}{69}}
\@writefile{toc}{\contentsline {subsection}{Version BB02 Block Header}{69}{section*.33}}
\@writefile{toc}{\contentsline {section}{\numberline {10.9}Version 2 Record Header}{69}{section.10.9}}
\@writefile{default}{\indexentry{Version 2 Record Header}{69}}
\@writefile{default}{\indexentry{Header!Version 2 Record}{69}}
\@writefile{toc}{\contentsline {subsection}{Version 2 Record Header}{69}{section*.34}}
\@writefile{toc}{\contentsline {section}{\numberline {10.10}Volume Label Format}{69}{section.10.10}}
\@writefile{default}{\indexentry{Volume Label Format}{69}}
\@writefile{default}{\indexentry{Format!Volume Label}{69}}
\@writefile{toc}{\contentsline {subsection}{Volume Label Format}{69}{section*.35}}
\@writefile{toc}{\contentsline {section}{\numberline {10.11}Session Label}{70}{section.10.11}}
\@writefile{default}{\indexentry{Label!Session}{70}}
\@writefile{default}{\indexentry{Session Label}{70}}
\@writefile{toc}{\contentsline {subsection}{Session Label}{70}{section*.36}}
\@writefile{toc}{\contentsline {section}{\numberline {10.12}Overall Storage Format}{70}{section.10.12}}
\@writefile{default}{\indexentry{Format!Overall Storage}{70}}
\@writefile{default}{\indexentry{Overall Storage Format}{70}}
\@writefile{toc}{\contentsline {subsection}{Overall Storage Format}{70}{section*.37}}
\gdef \LT@xxi {\LT@entry 
    {1}{59.86224pt}\LT@entry 
    {1}{66.60106pt}\LT@entry 
    {1}{84.66998pt}\LT@entry 
    {1}{84.66998pt}\LT@entry 
    {1}{113.57755pt}}
\@writefile{toc}{\contentsline {section}{\numberline {10.13}Unix File Attributes}{74}{section.10.13}}
\@writefile{default}{\indexentry{Unix File Attributes}{74}}
\@writefile{default}{\indexentry{Attributes!Unix File}{74}}
\@writefile{toc}{\contentsline {subsection}{Unix File Attributes}{74}{section*.38}}
\@writefile{default}{\indexentry{FileIndex}{74}}
\@writefile{default}{\indexentry{Type}{74}}
\@writefile{default}{\indexentry{Filename}{74}}
\@writefile{default}{\indexentry{File-Attributes}{74}}
\@writefile{default}{\indexentry{Link}{74}}
\@writefile{default}{\indexentry{Extended-Attributes}{74}}
\@writefile{lot}{\contentsline {table}{File Attributes}{74}{section*.38}}
\@writefile{toc}{\contentsline {section}{\numberline {10.14}Old Depreciated Tape Format}{75}{section.10.14}}
\@writefile{default}{\indexentry{Old Depreciated Tape Format}{75}}
\@writefile{default}{\indexentry{Format!Old Depreciated Tape}{75}}
\@writefile{toc}{\contentsline {subsection}{Old Depreciated Tape Format}{75}{section*.39}}
\@setckpt{mediaformat}{
\setcounter{page}{79}
\setcounter{equation}{0}
\setcounter{enumi}{10}
\setcounter{enumii}{0}
\setcounter{enumiii}{0}
\setcounter{enumiv}{0}
\setcounter{footnote}{0}
\setcounter{mpfootnote}{0}
\setcounter{part}{0}
\setcounter{chapter}{10}
\setcounter{section}{14}
\setcounter{subsection}{0}
\setcounter{subsubsection}{0}
\setcounter{paragraph}{0}
\setcounter{subparagraph}{0}
\setcounter{figure}{0}
\setcounter{table}{1}
\setcounter{Item}{13}
\setcounter{Hfootnote}{0}
\setcounter{bookmark@seq@number}{156}
\setcounter{lpart}{0}
\setcounter{lchapter}{1}
\setcounter{lsection}{0}
\setcounter{lsubsection}{0}
\setcounter{lsubsubsection}{0}
\setcounter{lparagraph}{0}
\setcounter{lsubparagraph}{0}
\setcounter{lsubsubparagraph}{0}
\setcounter{float@type}{4}
\setcounter{LT@tables}{21}
\setcounter{LT@chunks}{1}
\setcounter{vrcnt}{3}
\setcounter{section@level}{1}
}
