\relax 
\providecommand\hyper@newdestlabel[2]{}
\@writefile{toc}{\contentsline {chapter}{\numberline {4}Platform Support}{37}{chapter.4}}
\@writefile{lof}{\addvspace {10\p@ }}
\@writefile{lot}{\addvspace {10\p@ }}
\newlabel{ThePlatformChapter}{{4}{37}{Platform Support}{chapter.4}{}}
\@writefile{default}{\indexentry{Support!Platform}{37}}
\@writefile{default}{\indexentry{Platform Support}{37}}
\@writefile{toc}{\contentsline {section}{Platform Support}{37}{section*.8}}
\@writefile{toc}{\contentsline {section}{\numberline {4.1}General}{37}{section.4.1}}
\@writefile{default}{\indexentry{General }{37}}
\@writefile{toc}{\contentsline {subsection}{General}{37}{section*.9}}
\@writefile{toc}{\contentsline {section}{\numberline {4.2}Requirements to become a Supported Platform}{37}{section.4.2}}
\@writefile{default}{\indexentry{Requirements!Platform}{37}}
\@writefile{default}{\indexentry{Platform Requirements}{37}}
\@writefile{toc}{\contentsline {subsection}{Platform Requirements}{37}{section*.10}}
\@setckpt{platformsupport}{
\setcounter{page}{39}
\setcounter{equation}{0}
\setcounter{enumi}{3}
\setcounter{enumii}{0}
\setcounter{enumiii}{0}
\setcounter{enumiv}{0}
\setcounter{footnote}{0}
\setcounter{mpfootnote}{0}
\setcounter{part}{0}
\setcounter{chapter}{4}
\setcounter{section}{2}
\setcounter{subsection}{0}
\setcounter{subsubsection}{0}
\setcounter{paragraph}{0}
\setcounter{subparagraph}{0}
\setcounter{figure}{0}
\setcounter{table}{0}
\setcounter{Item}{3}
\setcounter{Hfootnote}{0}
\setcounter{bookmark@seq@number}{76}
\setcounter{lpart}{0}
\setcounter{lchapter}{1}
\setcounter{lsection}{0}
\setcounter{lsubsection}{0}
\setcounter{lsubsubsection}{0}
\setcounter{lparagraph}{0}
\setcounter{lsubparagraph}{0}
\setcounter{lsubsubparagraph}{0}
\setcounter{float@type}{4}
\setcounter{LT@tables}{1}
\setcounter{LT@chunks}{1}
\setcounter{vrcnt}{0}
\setcounter{section@level}{1}
}
