\relax 
\providecommand\hyper@newdestlabel[2]{}
\@writefile{toc}{\contentsline {chapter}{\numberline {17}Smart Memory Allocation}{115}{chapter.17}}
\@writefile{lof}{\addvspace {10\p@ }}
\@writefile{lot}{\addvspace {10\p@ }}
\newlabel{TheChapterStart4}{{17}{115}{Smart Memory Allocation}{chapter.17}{}}
\@writefile{default}{\indexentry{Detection!Smart Memory Allocation With Orphaned Buffer }{115}}
\@writefile{default}{\indexentry{Smart Memory Allocation With Orphaned Buffer Detection }{115}}
\@writefile{toc}{\contentsline {section}{Smart Memory Allocation With Orphaned Buffer Detection}{115}{section*.79}}
\@writefile{lof}{\contentsline {figure}{Smart Memory Allocation with Orphaned Buffer Detection}{115}{section*.79}}
\@writefile{toc}{\contentsline {subsection}{\numberline {17.0.1} Installing SMARTALLOC}{115}{subsection.17.0.1}}
\@writefile{default}{\indexentry{SMARTALLOC!Installing }{115}}
\@writefile{default}{\indexentry{Installing SMARTALLOC }{115}}
\@writefile{toc}{\contentsline {subsection}{Installing SMARTALLOC}{115}{subsection.17.0.1}}
\@writefile{toc}{\contentsline {subsection}{\numberline {17.0.2} Squelching a SMARTALLOC}{116}{subsection.17.0.2}}
\@writefile{default}{\indexentry{SMARTALLOC!Squelching a }{116}}
\@writefile{default}{\indexentry{Squelching a SMARTALLOC }{116}}
\@writefile{toc}{\contentsline {subsection}{Squelching a SMARTALLOC}{116}{subsection.17.0.2}}
\@writefile{toc}{\contentsline {subsection}{\numberline {17.0.3} Living with Libraries}{116}{subsection.17.0.3}}
\@writefile{default}{\indexentry{Libraries!Living with }{116}}
\@writefile{default}{\indexentry{Living with Libraries }{116}}
\@writefile{toc}{\contentsline {subsection}{Living with Libraries}{116}{subsection.17.0.3}}
\gdef \LT@xxii {\LT@entry 
    {1}{114.4715pt}\LT@entry 
    {1}{153.99896pt}}
\@writefile{toc}{\contentsline {subsection}{\numberline {17.0.4} SMARTALLOC Details}{117}{subsection.17.0.4}}
\@writefile{default}{\indexentry{SMARTALLOC Details }{117}}
\@writefile{default}{\indexentry{Details!SMARTALLOC }{117}}
\@writefile{toc}{\contentsline {subsection}{SMARTALLOC Details}{117}{subsection.17.0.4}}
\@writefile{toc}{\contentsline {subsection}{\numberline {17.0.5} When SMARTALLOC is Disabled}{118}{subsection.17.0.5}}
\@writefile{default}{\indexentry{When SMARTALLOC is Disabled }{118}}
\@writefile{default}{\indexentry{Disabled!When SMARTALLOC is }{118}}
\@writefile{toc}{\contentsline {subsection}{When SMARTALLOC is Disabled}{118}{subsection.17.0.5}}
\@writefile{toc}{\contentsline {subsection}{\numberline {17.0.6} The {\tt  alloc()} Function}{118}{subsection.17.0.6}}
\@writefile{default}{\indexentry{Function!alloc }{118}}
\@writefile{default}{\indexentry{Alloc() Function }{118}}
\@writefile{toc}{\contentsline {subsection}{alloc() Function}{118}{subsection.17.0.6}}
\@writefile{toc}{\contentsline {subsection}{\numberline {17.0.7} Overlays and Underhandedness}{119}{subsection.17.0.7}}
\@writefile{default}{\indexentry{Underhandedness!Overlays and }{119}}
\@writefile{default}{\indexentry{Overlays and Underhandedness }{119}}
\@writefile{toc}{\contentsline {subsection}{Overlays and Underhandedness}{119}{subsection.17.0.7}}
\@writefile{toc}{\contentsline {subsection}{\numberline {17.0.8} Test and Demonstration Program}{119}{subsection.17.0.8}}
\@writefile{default}{\indexentry{Test and Demonstration Program }{119}}
\@writefile{default}{\indexentry{Program!Test and Demonstration }{119}}
\@writefile{toc}{\contentsline {subsection}{Test and Demonstration Program}{119}{subsection.17.0.8}}
\@writefile{toc}{\contentsline {subsection}{\numberline {17.0.9} Invitation to the Hack}{119}{subsection.17.0.9}}
\@writefile{default}{\indexentry{Hack!Invitation to the }{119}}
\@writefile{default}{\indexentry{Invitation to the Hack }{119}}
\@writefile{toc}{\contentsline {subsection}{Invitation to the Hack}{119}{subsection.17.0.9}}
\@writefile{toc}{\contentsline {section}{\numberline {17.1} \href  {http://www.fourmilab.ch/smartall/smartall.zip}{http://www.fourmilab.ch/smartall/smartall.zip}  \href  {http://www.fourmilab.ch/smartall/smartall.zip}{Download smartall.zip}  (Zipped archive)}{120}{section.17.1}}
\@writefile{default}{\indexentry{Archive! Download smartall.zip Zipped }{120}}
\@writefile{default}{\indexentry{ Download smartall.zip (Zipped archive) }{120}}
\@writefile{toc}{\contentsline {section}{ Download smartall.zip (Zipped archive)}{120}{section.17.1}}
\@writefile{toc}{\contentsline {subsection}{\numberline {17.1.1} Copying}{120}{subsection.17.1.1}}
\@writefile{default}{\indexentry{Copying }{120}}
\@writefile{toc}{\contentsline {subsection}{Copying}{120}{subsection.17.1.1}}
\@setckpt{smartall}{
\setcounter{page}{121}
\setcounter{equation}{0}
\setcounter{enumi}{9}
\setcounter{enumii}{0}
\setcounter{enumiii}{0}
\setcounter{enumiv}{0}
\setcounter{footnote}{0}
\setcounter{mpfootnote}{0}
\setcounter{part}{0}
\setcounter{chapter}{17}
\setcounter{section}{1}
\setcounter{subsection}{1}
\setcounter{subsubsection}{0}
\setcounter{paragraph}{0}
\setcounter{subparagraph}{0}
\setcounter{figure}{0}
\setcounter{table}{1}
\setcounter{Item}{22}
\setcounter{Hfootnote}{0}
\setcounter{bookmark@seq@number}{294}
\setcounter{lpart}{0}
\setcounter{lchapter}{2}
\setcounter{lsection}{0}
\setcounter{lsubsection}{0}
\setcounter{lsubsubsection}{0}
\setcounter{lparagraph}{0}
\setcounter{lsubparagraph}{0}
\setcounter{lsubsubparagraph}{0}
\setcounter{float@type}{4}
\setcounter{LT@tables}{22}
\setcounter{LT@chunks}{1}
\setcounter{vrcnt}{3}
\setcounter{section@level}{2}
}
