\relax 
\providecommand\hyper@newdestlabel[2]{}
\@writefile{toc}{\contentsline {chapter}{\numberline {8}Storage Daemon Design}{47}{chapter.8}}
\@writefile{lof}{\addvspace {10\p@ }}
\@writefile{lot}{\addvspace {10\p@ }}
\newlabel{TheChapterStart3}{{8}{47}{Storage Daemon Design}{chapter.8}{}}
\@writefile{default}{\indexentry{Storage Daemon Design }{47}}
\@writefile{default}{\indexentry{Design!Storage Daemon }{47}}
\@writefile{toc}{\contentsline {section}{Storage Daemon Design}{47}{section*.21}}
\@writefile{toc}{\contentsline {section}{\numberline {8.1}SD Design Introduction}{47}{section.8.1}}
\@writefile{default}{\indexentry{Introduction!SD Design }{47}}
\@writefile{default}{\indexentry{SD Design Introduction }{47}}
\@writefile{toc}{\contentsline {section}{SD Design Introduction}{47}{section.8.1}}
\@writefile{toc}{\contentsline {section}{\numberline {8.2}SD Development Outline}{47}{section.8.2}}
\@writefile{default}{\indexentry{Outline!SD Development }{47}}
\@writefile{default}{\indexentry{SD Development Outline }{47}}
\@writefile{toc}{\contentsline {section}{SD Development Outline}{47}{section.8.2}}
\@writefile{toc}{\contentsline {section}{\numberline {8.3}SD Connections and Sessions}{47}{section.8.3}}
\@writefile{default}{\indexentry{Sessions!SD Connections and }{47}}
\@writefile{default}{\indexentry{SD Connections and Sessions }{47}}
\@writefile{toc}{\contentsline {section}{SD Connections and Sessions}{47}{section.8.3}}
\@writefile{toc}{\contentsline {subsection}{\numberline {8.3.1}SD Append Requests}{48}{subsection.8.3.1}}
\@writefile{default}{\indexentry{Requests!SD Append }{48}}
\@writefile{default}{\indexentry{SD Append Requests }{48}}
\@writefile{toc}{\contentsline {subsection}{SD Append Requests}{48}{subsection.8.3.1}}
\@writefile{default}{\indexentry{SPAN class }{48}}
\@writefile{default}{\indexentry{SPAN class }{48}}
\@writefile{default}{\indexentry{SPAN class }{48}}
\@writefile{default}{\indexentry{SPAN class }{48}}
\@writefile{default}{\indexentry{SPAN class }{48}}
\@writefile{toc}{\contentsline {subsection}{\numberline {8.3.2}SD Read Requests}{49}{subsection.8.3.2}}
\@writefile{default}{\indexentry{SD Read Requests }{49}}
\@writefile{default}{\indexentry{Requests!SD Read }{49}}
\@writefile{toc}{\contentsline {subsection}{SD Read Requests}{49}{subsection.8.3.2}}
\@writefile{default}{\indexentry{SPAN class }{49}}
\@writefile{default}{\indexentry{SPAN class }{49}}
\@writefile{default}{\indexentry{SPAN class }{49}}
\@writefile{toc}{\contentsline {section}{\numberline {8.4}SD Data Structures}{49}{section.8.4}}
\@writefile{default}{\indexentry{SD Data Structures}{49}}
\@writefile{toc}{\contentsline {section}{SD Data Structures}{49}{section.8.4}}
\@setckpt{storage}{
\setcounter{page}{51}
\setcounter{equation}{0}
\setcounter{enumi}{3}
\setcounter{enumii}{0}
\setcounter{enumiii}{0}
\setcounter{enumiv}{0}
\setcounter{footnote}{0}
\setcounter{mpfootnote}{0}
\setcounter{part}{0}
\setcounter{chapter}{8}
\setcounter{section}{4}
\setcounter{subsection}{0}
\setcounter{subsubsection}{0}
\setcounter{paragraph}{0}
\setcounter{subparagraph}{0}
\setcounter{figure}{0}
\setcounter{table}{0}
\setcounter{Item}{3}
\setcounter{Hfootnote}{0}
\setcounter{bookmark@seq@number}{113}
\setcounter{lpart}{0}
\setcounter{lchapter}{1}
\setcounter{lsection}{0}
\setcounter{lsubsection}{0}
\setcounter{lsubsubsection}{0}
\setcounter{lparagraph}{0}
\setcounter{lsubparagraph}{0}
\setcounter{lsubsubparagraph}{0}
\setcounter{float@type}{4}
\setcounter{LT@tables}{1}
\setcounter{LT@chunks}{1}
\setcounter{vrcnt}{0}
\setcounter{section@level}{1}
}
