\relax 
\providecommand\hyper@newdestlabel[2]{}
\@writefile{toc}{\contentsline {chapter}{\numberline {1}Bacula Frequently Asked Questions}{7}{chapter.1}}
\@writefile{lof}{\addvspace {10\p@ }}
\@writefile{lot}{\addvspace {10\p@ }}
\newlabel{FaqChapter}{{1}{7}{Bacula Frequently Asked Questions}{chapter.1}{}}
\@writefile{general}{\indexentry{Questions!Bacula Frequently Asked }{7}}
\@writefile{general}{\indexentry{Bacula Frequently Asked Questions }{7}}
\newlabel{1@xvr}{{}{7}{Bacula Frequently Asked Questions}{chapter.1}{}}
\newlabel{1@vr}{{}{7}{Bacula Frequently Asked Questions}{chapter.1}{}}
\newlabel{what}{{1}{7}{Bacula Frequently Asked Questions}{chapter.1}{}}
\@writefile{toc}{\contentsline {section}{\numberline {1.1}What is Bacula?}{7}{section.1.1}}
\@writefile{general}{\indexentry{What is Bacula? }{7}}
\@writefile{toc}{\contentsline {section}{\numberline {1.2}Does Bacula support Windows?}{7}{section.1.2}}
\@writefile{general}{\indexentry{Does Bacula support Windows? }{7}}
\newlabel{lang}{{1.2}{7}{Does Bacula support Windows?}{section.1.2}{}}
\@writefile{toc}{\contentsline {section}{\numberline {1.3}What language is Bacula written in?}{7}{section.1.3}}
\@writefile{general}{\indexentry{What language is Bacula written in? }{7}}
\newlabel{run}{{1.3}{7}{What language is Bacula written in?}{section.1.3}{}}
\@writefile{toc}{\contentsline {section}{\numberline {1.4}On what machines does Bacula run?}{7}{section.1.4}}
\@writefile{general}{\indexentry{On what machines does Bacula run? }{7}}
\newlabel{stable}{{1.4}{7}{On what machines does Bacula run?}{section.1.4}{}}
\@writefile{toc}{\contentsline {section}{\numberline {1.5}Is Bacula Stable?}{8}{section.1.5}}
\@writefile{general}{\indexentry{Is Bacula Stable? }{8}}
\newlabel{AuthorizationErrors}{{1.5}{8}{Is Bacula Stable?}{Item.4}{}}
\@writefile{toc}{\contentsline {section}{\numberline {1.6}I'm Getting Authorization Errors. What is Going On? }{8}{section.1.6}}
\@writefile{general}{\indexentry{Authorization Errors}{8}}
\@writefile{general}{\indexentry{Concurrent Jobs}{8}}
\newlabel{2@xvr}{{}{8}{I'm Getting Authorization Errors. What is Going On?}{section.1.6}{}}
\newlabel{2@vr}{{}{8}{I'm Getting Authorization Errors. What is Going On?}{section.1.6}{}}
\newlabel{AccessProblems}{{1.6}{9}{I'm Getting Authorization Errors. What is Going On?}{section.1.6}{}}
\@writefile{toc}{\contentsline {section}{\numberline {1.7}Bacula Runs Fine but Cannot Access a Client on a Different Machine. Why? }{9}{section.1.7}}
\@writefile{general}{\indexentry{Cannot Access a Client}{9}}
\newlabel{startover}{{1.7}{10}{Bacula Runs Fine but Cannot Access a Client on a Different Machine. Why?}{section.1.7}{}}
\@writefile{toc}{\contentsline {section}{\numberline {1.8}My Catalog is Full of Test Runs, How Can I Start Over?}{10}{section.1.8}}
\@writefile{general}{\indexentry{My Catalog is Full of Test Runs, How Can I Start Over? }{10}}
\newlabel{restorehang}{{1.8}{10}{My Catalog is Full of Test Runs, How Can I Start Over?}{section.1.8}{}}
\@writefile{toc}{\contentsline {section}{\numberline {1.9}I Run a Restore Job and Bacula Hangs. What do I do?}{10}{section.1.9}}
\@writefile{general}{\indexentry{I Run a Restore Job and Bacula Hangs. What do I do? }{10}}
\newlabel{windowstart}{{1.9}{10}{I Run a Restore Job and Bacula Hangs. What do I do?}{section.1.9}{}}
\@writefile{toc}{\contentsline {section}{\numberline {1.10}I Cannot Get My Windows Client to Start Automatically? }{10}{section.1.10}}
\@writefile{general}{\indexentry{Windows Auto Start}{10}}
\newlabel{3@xvr}{{}{10}{I Cannot Get My Windows Client to Start Automatically?}{section.1.10}{}}
\newlabel{3@vr}{{}{10}{I Cannot Get My Windows Client to Start Automatically?}{section.1.10}{}}
\newlabel{windowsdie}{{1.10}{10}{I Cannot Get My Windows Client to Start Automatically?}{section.1.10}{}}
\@writefile{toc}{\contentsline {section}{\numberline {1.11}My Windows Client Immediately Dies When I Start It}{10}{section.1.11}}
\@writefile{general}{\indexentry{Windows Client Dies}{10}}
\newlabel{scroll}{{1.11}{11}{My Windows Client Immediately Dies When I Start It}{section.1.11}{}}
\@writefile{general}{\indexentry{Error Messages}{11}}
\newlabel{nobackup}{{1.11}{11}{My Windows Client Immediately Dies When I Start It}{section.1.11}{}}
\@writefile{toc}{\contentsline {section}{\numberline {1.12}My backups are not working on my Windows Client. What should I do?}{11}{section.1.12}}
\@writefile{general}{\indexentry{Backups Failing}{11}}
\newlabel{sched}{{1.12}{11}{My backups are not working on my Windows Client. What should I do?}{section.1.12}{}}
\@writefile{toc}{\contentsline {section}{\numberline {1.13}All my Jobs are scheduled for the same time. Will this cause problems?}{11}{section.1.13}}
\@writefile{general}{\indexentry{Schedule problems}{11}}
\newlabel{disk}{{1.13}{11}{All my Jobs are scheduled for the same time. Will this cause problems?}{section.1.13}{}}
\@writefile{toc}{\contentsline {section}{\numberline {1.14}Can Bacula Backup My System To Files instead of Tape?}{11}{section.1.14}}
\@writefile{general}{\indexentry{Backup to Disk}{11}}
\newlabel{4@xvr}{{}{11}{Can Bacula Backup My System To Files instead of Tape?}{section.1.14}{}}
\newlabel{4@vr}{{}{11}{Can Bacula Backup My System To Files instead of Tape?}{section.1.14}{}}
\newlabel{5@xvr}{{}{11}{Can Bacula Backup My System To Files instead of Tape?}{section.1.14}{}}
\newlabel{5@vr}{{}{11}{Can Bacula Backup My System To Files instead of Tape?}{section.1.14}{}}
\newlabel{testbackup}{{1.14}{11}{Can Bacula Backup My System To Files instead of Tape?}{section.1.14}{}}
\@writefile{toc}{\contentsline {section}{\numberline {1.15}Can I use a dummy device to test the backup?}{12}{section.1.15}}
\newlabel{6@xvr}{{}{12}{Can I use a dummy device to test the backup?}{section.1.15}{}}
\newlabel{6@vr}{{}{12}{Can I use a dummy device to test the backup?}{section.1.15}{}}
\newlabel{bigfiles}{{1.15}{12}{Can I use a dummy device to test the backup?}{section.1.15}{}}
\@writefile{toc}{\contentsline {section}{\numberline {1.16}Can Bacula Backup and Restore Files Bigger than 2 Gigabytes?}{12}{section.1.16}}
\@writefile{general}{\indexentry{Large file support}{12}}
\newlabel{cancel}{{1.16}{12}{Can Bacula Backup and Restore Files Bigger than 2 Gigabytes?}{section.1.16}{}}
\@writefile{toc}{\contentsline {section}{\numberline {1.17}I want to stop a job.}{12}{section.1.17}}
\@writefile{general}{\indexentry{Cancelling jobs}{12}}
\newlabel{trademark}{{1.17}{12}{I want to stop a job}{section.1.17}{}}
\@writefile{toc}{\contentsline {section}{\numberline {1.18}Why have You Trademarked the Name Bacula?}{12}{section.1.18}}
\@writefile{general}{\indexentry{Bacula Trademark}{12}}
\newlabel{docversion}{{1.18}{12}{Why have You Trademarked the Name Bacula?}{section.1.18}{}}
\@writefile{toc}{\contentsline {section}{\numberline {1.19}Why is the Online Document for Version 1.39 but the Released Version is 1.38?}{12}{section.1.19}}
\@writefile{general}{\indexentry{Multiple manuals}{12}}
\newlabel{sure}{{1.19}{12}{Why is the Online Document for Version 1.39 but the Released Version is 1.38?}{section.1.19}{}}
\@writefile{toc}{\contentsline {section}{\numberline {1.20}Does Bacula really save and restore all files?}{13}{section.1.20}}
\@writefile{general}{\indexentry{Checking Restores}{13}}
\newlabel{7@xvr}{{}{13}{Does Bacula really save and restore all files?}{section.1.20}{}}
\newlabel{7@vr}{{}{13}{Does Bacula really save and restore all files?}{section.1.20}{}}
\newlabel{upgrade}{{1.20}{13}{Does Bacula really save and restore all files?}{section.1.20}{}}
\@writefile{toc}{\contentsline {section}{\numberline {1.21}I want an Incremental but Bacula runs it as a Full backup. Why?}{13}{section.1.21}}
\@writefile{general}{\indexentry{FULL backup not found}{13}}
\newlabel{8@xvr}{{}{13}{I want an Incremental but Bacula runs it as a Full backup. Why?}{section.1.21}{}}
\newlabel{8@vr}{{}{13}{I want an Incremental but Bacula runs it as a Full backup. Why?}{section.1.21}{}}
\newlabel{filenamelengths}{{1.21}{13}{I want an Incremental but Bacula runs it as a Full backup. Why?}{section.1.21}{}}
\@writefile{toc}{\contentsline {section}{\numberline {1.22}Do you really handle unlimited path lengths?}{13}{section.1.22}}
\@writefile{general}{\indexentry{Path and Filename Lengths}{13}}
\newlabel{unique}{{1.22}{13}{Do you really handle unlimited path lengths?}{section.1.22}{}}
\@writefile{toc}{\contentsline {section}{\numberline {1.23}What Is the Really Unique Feature of Bacula?}{13}{section.1.23}}
\@writefile{general}{\indexentry{Unique Feature of Bacula}{13}}
\newlabel{sequence}{{1.23}{14}{What Is the Really Unique Feature of Bacula?}{section.1.23}{}}
\@writefile{toc}{\contentsline {section}{\numberline {1.24}How can I force one job to run after another?}{14}{section.1.24}}
\@writefile{general}{\indexentry{Multiple Simultaneous Jobs}{14}}
\newlabel{9@xvr}{{}{14}{How can I force one job to run after another?}{section.1.24}{}}
\newlabel{9@vr}{{}{14}{How can I force one job to run after another?}{section.1.24}{}}
\newlabel{nomail}{{1.24}{14}{How can I force one job to run after another?}{section.1.24}{}}
\@writefile{toc}{\contentsline {section}{\numberline {1.25}I Am Not Getting Email Notification, What Can I Do? }{14}{section.1.25}}
\@writefile{general}{\indexentry{No Email Notification}{14}}
\newlabel{10@xvr}{{}{14}{I Am Not Getting Email Notification, What Can I Do?}{section.1.25}{}}
\newlabel{10@vr}{{}{14}{I Am Not Getting Email Notification, What Can I Do?}{section.1.25}{}}
\newlabel{periods}{{1.25}{14}{I Am Not Getting Email Notification, What Can I Do?}{section.1.25}{}}
\@writefile{toc}{\contentsline {section}{\numberline {1.26}My retention periods don't work}{14}{section.1.26}}
\@writefile{general}{\indexentry{Recycling}{14}}
\@writefile{general}{\indexentry{Retention Periods}{14}}
\@writefile{general}{\indexentry{Pool changes}{14}}
\newlabel{CompressionNotWorking}{{1.26}{14}{My retention periods don't work}{section.1.26}{}}
\@writefile{toc}{\contentsline {section}{\numberline {1.27}Why aren't my files compressed?}{14}{section.1.27}}
\@writefile{general}{\indexentry{Compression}{14}}
\newlabel{NewTape}{{1.27}{14}{Why aren't my files compressed?}{Item.6}{}}
\@writefile{general}{\indexentry{Tape capacity}{15}}
\newlabel{LevelChanging}{{1.27}{15}{Why aren't my files compressed?}{Item.6}{}}
\@writefile{toc}{\contentsline {section}{\numberline {1.28}Incremental backups are not working}{15}{section.1.28}}
\@writefile{general}{\indexentry{Incremental backups}{15}}
\newlabel{11@xvr}{{}{15}{Incremental backups are not working}{section.1.28}{}}
\newlabel{11@vr}{{}{15}{Incremental backups are not working}{section.1.28}{}}
\newlabel{WaitForever}{{1.28}{15}{Incremental backups are not working}{section.1.28}{}}
\@writefile{toc}{\contentsline {section}{\numberline {1.29}I am waiting forever for a backup of an offsite machine}{15}{section.1.29}}
\@writefile{general}{\indexentry{Backing Up Offsite Machines}{15}}
\newlabel{sshHanging}{{1.29}{15}{I am waiting forever for a backup of an offsite machine}{section.1.29}{}}
\@writefile{toc}{\contentsline {section}{\numberline {1.30}SSH hangs forever after starting Bacula}{15}{section.1.30}}
\@writefile{general}{\indexentry{ssh hangs}{15}}
\newlabel{RetentionPeriods}{{1.30}{15}{SSH hangs forever after starting Bacula}{section.1.30}{}}
\@writefile{toc}{\contentsline {section}{\numberline {1.31}I'm confused by retention periods}{16}{section.1.31}}
\@writefile{general}{\indexentry{Retention Periods}{16}}
\newlabel{MaxVolumeSize}{{1.31}{16}{I'm confused by retention periods}{section.1.31}{}}
\@writefile{toc}{\contentsline {section}{\numberline {1.32}MaxVolumeSize is ignored}{16}{section.1.32}}
\@writefile{general}{\indexentry{MaxVolumeSize}{16}}
\newlabel{ConnectionRefused}{{1.32}{16}{MaxVolumeSize is ignored}{section.1.32}{}}
\@writefile{toc}{\contentsline {section}{\numberline {1.33}I get a Connection refused when connecting to my Client}{16}{section.1.33}}
\@writefile{general}{\indexentry{ERR:Connection Refused}{16}}
\@writefile{toc}{\contentsline {section}{\numberline {1.34}Long running jobs die with Pipe Error}{16}{section.1.34}}
\@writefile{general}{\indexentry{Communications Errors}{16}}
\@writefile{general}{\indexentry{Pipe Errors}{16}}
\@writefile{general}{\indexentry{slow}{16}}
\@writefile{general}{\indexentry{Backups!slow}{16}}
\@writefile{toc}{\contentsline {section}{\numberline {1.35}How do I tell the Job which Volume to use?}{17}{section.1.35}}
\@writefile{general}{\indexentry{What tape to mount}{17}}
\newlabel{Password generation}{{1.35}{17}{How do I tell the Job which Volume to use?}{section.1.35}{}}
\@writefile{toc}{\contentsline {section}{\numberline {1.36}Password generation}{17}{section.1.36}}
\@writefile{general}{\indexentry{MaxVolumeSize}{17}}
\@setckpt{faq}{
\setcounter{page}{18}
\setcounter{equation}{0}
\setcounter{enumi}{2}
\setcounter{enumii}{0}
\setcounter{enumiii}{0}
\setcounter{enumiv}{0}
\setcounter{footnote}{0}
\setcounter{mpfootnote}{0}
\setcounter{part}{0}
\setcounter{chapter}{1}
\setcounter{section}{36}
\setcounter{subsection}{0}
\setcounter{subsubsection}{0}
\setcounter{paragraph}{0}
\setcounter{subparagraph}{0}
\setcounter{figure}{0}
\setcounter{table}{0}
\setcounter{Item}{6}
\setcounter{Hfootnote}{0}
\setcounter{bookmark@seq@number}{37}
\setcounter{lpart}{0}
\setcounter{lchapter}{1}
\setcounter{lsection}{0}
\setcounter{lsubsection}{0}
\setcounter{lsubsubsection}{0}
\setcounter{lparagraph}{0}
\setcounter{lsubparagraph}{0}
\setcounter{lsubsubparagraph}{0}
\setcounter{float@type}{4}
\setcounter{LT@tables}{0}
\setcounter{LT@chunks}{0}
\setcounter{vrcnt}{11}
\setcounter{section@level}{1}
}
