\relax 
\providecommand\hyper@newdestlabel[2]{}
\@writefile{toc}{\contentsline {chapter}{\numberline {6}Bacula Copyright, Trademark, and Licenses}{61}{chapter.6}}
\@writefile{lof}{\addvspace {10\p@ }}
\@writefile{lot}{\addvspace {10\p@ }}
\newlabel{LicenseChapter}{{6}{61}{Bacula Copyright, Trademark, and Licenses}{chapter.6}{}}
\@writefile{general}{\indexentry{Licenses!Bacula Copyright Trademark}{61}}
\@writefile{general}{\indexentry{Bacula Copyright, Trademark, and Licenses}{61}}
\@writefile{toc}{\contentsline {section}{\numberline {6.1}CC-BY-SA}{61}{section.6.1}}
\@writefile{general}{\indexentry{CC-BY-SA}{61}}
\@writefile{toc}{\contentsline {section}{\numberline {6.2}GPL}{61}{section.6.2}}
\@writefile{general}{\indexentry{GPL }{61}}
\@writefile{toc}{\contentsline {section}{\numberline {6.3}LGPL}{61}{section.6.3}}
\@writefile{general}{\indexentry{LGPL }{61}}
\@writefile{toc}{\contentsline {section}{\numberline {6.4}Public Domain}{61}{section.6.4}}
\@writefile{general}{\indexentry{Domain!Public }{61}}
\@writefile{general}{\indexentry{Public Domain }{61}}
\@writefile{toc}{\contentsline {section}{\numberline {6.5}Trademark}{62}{section.6.5}}
\@writefile{general}{\indexentry{Trademark }{62}}
\@writefile{toc}{\contentsline {section}{\numberline {6.6}Fiduciary License Agreement}{62}{section.6.6}}
\@writefile{general}{\indexentry{Fiduciary License Agreement }{62}}
\@writefile{toc}{\contentsline {section}{\numberline {6.7}Disclaimer}{62}{section.6.7}}
\@writefile{general}{\indexentry{Disclaimer }{62}}
\@writefile{toc}{\contentsline {section}{\numberline {6.8}Authors}{62}{section.6.8}}
\@setckpt{license}{
\setcounter{page}{64}
\setcounter{equation}{0}
\setcounter{enumi}{9}
\setcounter{enumii}{0}
\setcounter{enumiii}{0}
\setcounter{enumiv}{0}
\setcounter{footnote}{0}
\setcounter{mpfootnote}{0}
\setcounter{part}{0}
\setcounter{chapter}{6}
\setcounter{section}{8}
\setcounter{subsection}{0}
\setcounter{subsubsection}{0}
\setcounter{paragraph}{0}
\setcounter{subparagraph}{0}
\setcounter{figure}{0}
\setcounter{table}{0}
\setcounter{Item}{60}
\setcounter{Hfootnote}{0}
\setcounter{bookmark@seq@number}{105}
\setcounter{lpart}{0}
\setcounter{lchapter}{1}
\setcounter{lsection}{0}
\setcounter{lsubsection}{0}
\setcounter{lsubsubsection}{0}
\setcounter{lparagraph}{0}
\setcounter{lsubparagraph}{0}
\setcounter{lsubsubparagraph}{0}
\setcounter{float@type}{4}
\setcounter{LT@tables}{0}
\setcounter{LT@chunks}{0}
\setcounter{vrcnt}{19}
\setcounter{section@level}{1}
}
