\relax 
\providecommand\hyper@newdestlabel[2]{}
\newlabel{LesserChapter}{{4.8}{29}{GNU Lesser General Public License}{section*.4}{}}
\@writefile{general}{\indexentry{GNU Lesser General Public License }{29}}
\@writefile{general}{\indexentry{License!GNU Lesser General Public }{29}}
\@writefile{toc}{\contentsline {section}{\numberline {4.9}Table of Contents}{29}{section.4.9}}
\@writefile{general}{\indexentry{Table of Contents }{29}}
\@writefile{general}{\indexentry{Contents!Table of }{29}}
\newlabel{TOC12}{{4.9}{29}{Table of Contents}{section.4.9}{}}
\newlabel{TOC23}{{4.9}{29}{Table of Contents}{section.4.9}{}}
\newlabel{TOC34}{{4.9}{29}{Table of Contents}{section.4.9}{}}
\newlabel{TOC45}{{4.9}{29}{Table of Contents}{section.4.9}{}}
\@writefile{toc}{\contentsline {section}{\numberline {4.10}GNU LESSER GENERAL PUBLIC LICENSE}{29}{section.4.10}}
\newlabel{SEC12}{{4.10}{29}{GNU LESSER GENERAL PUBLIC LICENSE}{section.4.10}{}}
\@writefile{general}{\indexentry{LICENSE!GNU LESSER GENERAL PUBLIC }{29}}
\@writefile{general}{\indexentry{GNU LESSER GENERAL PUBLIC LICENSE }{29}}
\@writefile{toc}{\contentsline {section}{\numberline {4.11}Preamble}{29}{section.4.11}}
\newlabel{SEC23}{{4.11}{29}{Preamble}{section.4.11}{}}
\@writefile{general}{\indexentry{Preamble }{29}}
\@writefile{toc}{\contentsline {section}{\numberline {4.12}TERMS AND CONDITIONS}{30}{section.4.12}}
\newlabel{SEC34}{{4.12}{30}{TERMS AND CONDITIONS}{section.4.12}{}}
\@writefile{general}{\indexentry{CONDITIONS!TERMS AND }{30}}
\@writefile{general}{\indexentry{TERMS AND CONDITIONS }{30}}
\@writefile{toc}{\contentsline {section}{\numberline {4.13}How to Apply These Terms to Your New Libraries}{35}{section.4.13}}
\newlabel{SEC45}{{4.13}{35}{How to Apply These Terms to Your New Libraries}{section.4.13}{}}
\@writefile{general}{\indexentry{Libraries!How to Apply These Terms to Your New }{35}}
\@writefile{general}{\indexentry{How to Apply These Terms to Your New Libraries }{35}}
\@setckpt{lesser}{
\setcounter{page}{36}
\setcounter{equation}{0}
\setcounter{enumi}{17}
\setcounter{enumii}{6}
\setcounter{enumiii}{0}
\setcounter{enumiv}{0}
\setcounter{footnote}{0}
\setcounter{mpfootnote}{0}
\setcounter{part}{0}
\setcounter{chapter}{4}
\setcounter{section}{13}
\setcounter{subsection}{0}
\setcounter{subsubsection}{0}
\setcounter{paragraph}{0}
\setcounter{subparagraph}{0}
\setcounter{figure}{0}
\setcounter{table}{0}
\setcounter{Item}{33}
\setcounter{Hfootnote}{0}
\setcounter{bookmark@seq@number}{38}
\setcounter{lpart}{0}
\setcounter{lchapter}{1}
\setcounter{lsection}{3}
\setcounter{lsubsection}{0}
\setcounter{lsubsubsection}{0}
\setcounter{lparagraph}{0}
\setcounter{lsubparagraph}{0}
\setcounter{lsubsubparagraph}{0}
\setcounter{float@type}{4}
\setcounter{LT@tables}{0}
\setcounter{LT@chunks}{0}
\setcounter{vrcnt}{1}
\setcounter{section@level}{1}
}
