\relax 
\providecommand\hyper@newdestlabel[2]{}
\@writefile{toc}{\contentsline {chapter}{\numberline {3}Bacula Projects}{13}{chapter.3}}
\@writefile{lof}{\addvspace {10\p@ }}
\@writefile{lot}{\addvspace {10\p@ }}
\newlabel{ProjectsChapter}{{3}{13}{Bacula Projects}{chapter.3}{}}
\@writefile{general}{\indexentry{Projects!Bacula }{13}}
\@writefile{general}{\indexentry{Bacula Projects }{13}}
\@setckpt{projects}{
\setcounter{page}{14}
\setcounter{equation}{0}
\setcounter{enumi}{0}
\setcounter{enumii}{0}
\setcounter{enumiii}{0}
\setcounter{enumiv}{0}
\setcounter{footnote}{0}
\setcounter{mpfootnote}{0}
\setcounter{part}{0}
\setcounter{chapter}{3}
\setcounter{section}{0}
\setcounter{subsection}{0}
\setcounter{subsubsection}{0}
\setcounter{paragraph}{0}
\setcounter{subparagraph}{0}
\setcounter{figure}{0}
\setcounter{table}{0}
\setcounter{Item}{0}
\setcounter{Hfootnote}{0}
\setcounter{bookmark@seq@number}{24}
\setcounter{lpart}{0}
\setcounter{lchapter}{1}
\setcounter{lsection}{0}
\setcounter{lsubsection}{0}
\setcounter{lsubsubsection}{0}
\setcounter{lparagraph}{0}
\setcounter{lsubparagraph}{0}
\setcounter{lsubsubparagraph}{0}
\setcounter{float@type}{4}
\setcounter{LT@tables}{0}
\setcounter{LT@chunks}{0}
\setcounter{vrcnt}{1}
\setcounter{section@level}{1}
}
