<?xml version="1.0" encoding="UTF-8" standalone="no"?>
<!-- Generator: Adobe Illustrator 17.0.2, SVG Export Plug-In . SVG Version: 6.00 Build 0)  -->

<svg
   xmlns:dc="http://purl.org/dc/elements/1.1/"
   xmlns:cc="http://creativecommons.org/ns#"
   xmlns:rdf="http://www.w3.org/1999/02/22-rdf-syntax-ns#"
   xmlns:svg="http://www.w3.org/2000/svg"
   xmlns="http://www.w3.org/2000/svg"
   xmlns:xlink="http://www.w3.org/1999/xlink"
   xmlns:sodipodi="http://sodipodi.sourceforge.net/DTD/sodipodi-0.dtd"
   xmlns:inkscape="http://www.inkscape.org/namespaces/inkscape"
   version="1.1"
   id="Layer_1"
   x="0px"
   y="0px"
   width="287.46457"
   height="116.75481"
   viewBox="0 0 287.46457 116.75481"
   enable-background="new 0 0 960 560"
   xml:space="preserve"
   inkscape:version="0.48.4 r9939"
   sodipodi:docname="logo-bacula-org.svg"><metadata
     id="metadata864"><rdf:RDF><cc:Work
         rdf:about=""><dc:format>image/svg+xml</dc:format><dc:type
           rdf:resource="http://purl.org/dc/dcmitype/StillImage" /><dc:title></dc:title></cc:Work></rdf:RDF></metadata><defs
     id="defs862"><filter
       color-interpolation-filters="sRGB"
       id="filter5062"
       inkscape:collect="always"><feGaussianBlur
         id="feGaussianBlur5064"
         stdDeviation="0.048264443"
         inkscape:collect="always" /></filter><filter
       color-interpolation-filters="sRGB"
       id="filter4990"
       inkscape:collect="always"><feGaussianBlur
         id="feGaussianBlur4992"
         stdDeviation="0.24108367"
         inkscape:collect="always" /></filter><filter
       color-interpolation-filters="sRGB"
       id="filter4978"
       inkscape:collect="always"><feGaussianBlur
         id="feGaussianBlur4980"
         stdDeviation="0.31588894"
         inkscape:collect="always" /></filter><filter
       color-interpolation-filters="sRGB"
       id="filter4970"
       inkscape:collect="always"><feGaussianBlur
         id="feGaussianBlur4972"
         stdDeviation="0.20200843"
         inkscape:collect="always" /></filter><filter
       color-interpolation-filters="sRGB"
       id="filter4962"
       inkscape:collect="always"><feGaussianBlur
         id="feGaussianBlur4964"
         stdDeviation="0.21101913"
         inkscape:collect="always" /></filter><filter
       color-interpolation-filters="sRGB"
       id="filter4914"
       inkscape:collect="always"><feGaussianBlur
         id="feGaussianBlur4916"
         stdDeviation="0.61615515"
         inkscape:collect="always" /></filter><filter
       color-interpolation-filters="sRGB"
       height="1.8116976"
       y="-0.40584883"
       width="1.1408184"
       x="-0.070409171"
       id="filter4902"
       inkscape:collect="always"><feGaussianBlur
         id="feGaussianBlur4904"
         stdDeviation="6.0301965"
         inkscape:collect="always" /></filter><filter
       color-interpolation-filters="sRGB"
       height="1.1049833"
       y="-0.052491661"
       width="1.2291703"
       x="-0.11458517"
       id="filter4798"
       inkscape:collect="always"><feGaussianBlur
         id="feGaussianBlur4800"
         stdDeviation="3.0776548"
         inkscape:collect="always" /></filter><filter
       color-interpolation-filters="sRGB"
       id="filter4676"
       inkscape:collect="always"><feGaussianBlur
         id="feGaussianBlur4678"
         stdDeviation="0.59760643"
         inkscape:collect="always" /></filter><filter
       color-interpolation-filters="sRGB"
       id="filter4672"
       inkscape:collect="always"><feGaussianBlur
         id="feGaussianBlur4674"
         stdDeviation="0.90051285"
         inkscape:collect="always" /></filter><filter
       color-interpolation-filters="sRGB"
       id="filter4537"
       inkscape:collect="always"><feGaussianBlur
         id="feGaussianBlur4539"
         stdDeviation="0.67829776"
         inkscape:collect="always" /></filter><filter
       color-interpolation-filters="sRGB"
       height="1.1641935"
       y="-0.082096778"
       width="1.4458394"
       x="-0.22291972"
       id="filter4465"
       inkscape:collect="always"><feGaussianBlur
         id="feGaussianBlur4467"
         stdDeviation="9.0051285"
         inkscape:collect="always" /></filter><linearGradient
       id="linearGradient4025"><stop
         id="stop4027"
         offset="0"
         style="stop-color:#c60808;stop-opacity:1;" /><stop
         style="stop-color:#8b0808;stop-opacity:0.37410071;"
         offset="0.56333101"
         id="stop4033" /><stop
         id="stop4029"
         offset="1"
         style="stop-color:#8b0808;stop-opacity:1;" /></linearGradient><linearGradient
       id="linearGradient4045"><stop
         id="stop4047"
         offset="0"
         style="stop-color:#000000;stop-opacity:1;" /><stop
         style="stop-color:#464646;stop-opacity:1;"
         offset="0.23789497"
         id="stop4059" /><stop
         style="stop-color:#ffffff;stop-opacity:1;"
         offset="0.27460751"
         id="stop4053" /><stop
         id="stop4055"
         offset="0.74062073"
         style="stop-color:#ffffff;stop-opacity:1;" /><stop
         id="stop4049"
         offset="1"
         style="stop-color:#000000;stop-opacity:1;" /></linearGradient><linearGradient
       id="linearGradient4139"><stop
         id="stop4141"
         offset="0"
         style="stop-color:#c60a0a;stop-opacity:1;" /><stop
         id="stop4143"
         offset="1"
         style="stop-color:#850707;stop-opacity:0;" /></linearGradient><linearGradient
       id="linearGradient4644"><stop
         id="stop4646"
         offset="0"
         style="stop-color:#ff0000;stop-opacity:1;" /><stop
         id="stop4648"
         offset="1"
         style="stop-color:#cf0000;stop-opacity:0.46043167;" /></linearGradient><linearGradient
       id="linearGradient4664"
       inkscape:collect="always"><stop
         id="stop4666"
         offset="0"
         style="stop-color:#d00006;stop-opacity:1;" /><stop
         id="stop4668"
         offset="1"
         style="stop-color:#d00006;stop-opacity:0;" /></linearGradient><linearGradient
       inkscape:collect="always"
       xlink:href="#linearGradient4025"
       id="linearGradient4693"
       gradientUnits="userSpaceOnUse"
       gradientTransform="translate(-989.2736,-687.71261)"
       x1="142.69725"
       y1="430.72238"
       x2="237.76833"
       y2="478.84409" /><linearGradient
       inkscape:collect="always"
       xlink:href="#linearGradient4139"
       id="linearGradient4744"
       gradientUnits="userSpaceOnUse"
       gradientTransform="translate(-574.18492,-388.90641)"
       x1="254.05432"
       y1="482.6861"
       x2="200.9789"
       y2="409.79587" /><radialGradient
       inkscape:collect="always"
       xlink:href="#linearGradient4045"
       id="radialGradient4746"
       gradientUnits="userSpaceOnUse"
       gradientTransform="matrix(1.1257297,0,0,0.91316704,61.820386,35.435958)"
       cx="-299.81207"
       cy="454.15884"
       fx="-299.81207"
       fy="454.15884"
       r="15.914475" /><radialGradient
       inkscape:collect="always"
       xlink:href="#linearGradient4045"
       id="radialGradient4748"
       gradientUnits="userSpaceOnUse"
       gradientTransform="matrix(1.1814524,0,0,0.91316704,54.40163,39.435958)"
       cx="-299.81207"
       cy="454.15884"
       fx="-299.81207"
       fy="454.15884"
       r="15.914475" /><linearGradient
       inkscape:collect="always"
       xlink:href="#linearGradient4664"
       id="linearGradient4750"
       gradientUnits="userSpaceOnUse"
       x1="121.86762"
       y1="546.02277"
       x2="185.54404"
       y2="546.02277" /><radialGradient
       inkscape:collect="always"
       xlink:href="#linearGradient4644"
       id="radialGradient4752"
       gradientUnits="userSpaceOnUse"
       gradientTransform="matrix(2.1672929,-0.06597205,0.06707437,2.2035057,-132.61934,-651.85095)"
       cx="98.721039"
       cy="552.52179"
       fx="98.721039"
       fy="552.52179"
       r="32.572868" /><linearGradient
       inkscape:collect="always"
       xlink:href="#SVGID_1_"
       id="linearGradient5613"
       gradientUnits="userSpaceOnUse"
       gradientTransform="matrix(1,0,0,-1,84,535)"
       x1="288.78949"
       y1="412.5"
       x2="288.78949"
       y2="188.3907" /><linearGradient
       inkscape:collect="always"
       xlink:href="#SVGID_2_"
       id="linearGradient5615"
       gradientUnits="userSpaceOnUse"
       gradientTransform="matrix(1,0,0,-1,84,535)"
       x1="414.23499"
       y1="412.5"
       x2="414.23499"
       y2="188.3907" /><linearGradient
       inkscape:collect="always"
       xlink:href="#SVGID_3_"
       id="linearGradient5617"
       gradientUnits="userSpaceOnUse"
       gradientTransform="matrix(1,0,0,-1,84,535)"
       x1="542.23993"
       y1="412.5"
       x2="542.24011"
       y2="188.3907" /><linearGradient
       inkscape:collect="always"
       xlink:href="#SVGID_4_"
       id="linearGradient5619"
       gradientUnits="userSpaceOnUse"
       gradientTransform="matrix(1,0,0,-1,84,535)"
       x1="655.6225"
       y1="412.5"
       x2="655.6225"
       y2="188.3907" /><linearGradient
       inkscape:collect="always"
       xlink:href="#SVGID_5_"
       id="linearGradient5621"
       gradientUnits="userSpaceOnUse"
       gradientTransform="matrix(1,0,0,-1,84,535)"
       x1="755.00928"
       y1="412.5"
       x2="755.00952"
       y2="188.3907" /><linearGradient
       inkscape:collect="always"
       xlink:href="#SVGID_8_"
       id="linearGradient5623"
       gradientUnits="userSpaceOnUse"
       gradientTransform="matrix(1,0,0,-1,84,535)"
       x1="119.722"
       y1="393.5"
       x2="119.722"
       y2="188.34399" /><linearGradient
       inkscape:collect="always"
       xlink:href="#linearGradient4139"
       id="linearGradient5625"
       gradientUnits="userSpaceOnUse"
       gradientTransform="translate(-574.18492,-388.90641)"
       x1="254.05432"
       y1="482.6861"
       x2="200.9789"
       y2="409.79587" /><radialGradient
       inkscape:collect="always"
       xlink:href="#linearGradient4045"
       id="radialGradient5627"
       gradientUnits="userSpaceOnUse"
       gradientTransform="matrix(1.1257297,0,0,0.91316704,61.820386,35.435958)"
       cx="-299.81207"
       cy="454.15884"
       fx="-299.81207"
       fy="454.15884"
       r="15.914475" /><radialGradient
       inkscape:collect="always"
       xlink:href="#linearGradient4045"
       id="radialGradient5629"
       gradientUnits="userSpaceOnUse"
       gradientTransform="matrix(1.1814524,0,0,0.91316704,54.40163,39.435958)"
       cx="-299.81207"
       cy="454.15884"
       fx="-299.81207"
       fy="454.15884"
       r="15.914475" /><linearGradient
       inkscape:collect="always"
       xlink:href="#linearGradient4664"
       id="linearGradient5631"
       gradientUnits="userSpaceOnUse"
       x1="121.86762"
       y1="546.02277"
       x2="185.54404"
       y2="546.02277" /><radialGradient
       inkscape:collect="always"
       xlink:href="#linearGradient4644"
       id="radialGradient5633"
       gradientUnits="userSpaceOnUse"
       gradientTransform="matrix(2.1672929,-0.06597205,0.06707437,2.2035057,-132.61934,-651.85095)"
       cx="98.721039"
       cy="552.52179"
       fx="98.721039"
       fy="552.52179"
       r="32.572868" /></defs><sodipodi:namedview
     pagecolor="#ffffff"
     bordercolor="#666666"
     borderopacity="1"
     objecttolerance="10"
     gridtolerance="10"
     guidetolerance="10"
     inkscape:pageopacity="0"
     inkscape:pageshadow="2"
     inkscape:window-width="1366"
     inkscape:window-height="709"
     id="namedview860"
     showgrid="false"
     fit-margin-top="2"
     fit-margin-left="2"
     fit-margin-right="2"
     fit-margin-bottom="2"
     inkscape:zoom="0.84285714"
     inkscape:cx="398.82979"
     inkscape:cy="117.33226"
     inkscape:window-x="0"
     inkscape:window-y="27"
     inkscape:window-maximized="1"
     inkscape:current-layer="Layer_1" /><image
     style="display:none"
     width="435"
     height="435"
     xlink:href="file:///home/pchauvat/teicee/philippe/charte-bacula-org/images/jpeg/bacula.png"
     id="image3193"
     x="-93.423271"
     y="-334.69321" /><path
     style="fill:#d10a0a;fill-opacity:1;stroke:#d10a0a;stroke-width:1px;stroke-linecap:butt;stroke-linejoin:miter;stroke-opacity:1;display:none"
     d="m -565.69863,-834.57153 c -4.58645,4.91835 -33.06235,6.90551 -45.96194,4.04061 -33.125,17.85714 -23.68437,93.44001 13.63706,75.76144 -0.35714,8.66071 -14.89975,6.06091 -14.89975,6.06091 -17.67767,3.53553 14.64721,100.76272 -38.63834,194.45437 -11.36422,-22.47589 -30.05203,-28.53681 -42.4264,-29.04189 14.64721,-35.1028 -15.90991,-79.04443 -26.26397,-80.55966 3.283,-9.59645 1.51523,-27.02158 -1.51523,-30.80965 -3.283,-95.71195 -21.71828,-150.2602 37.88072,-182.83762 0.75761,-7.19734 6.9448,-8.20749 9.31234,-11.86929 2.36755,-3.6618 2.43068,-6.18718 4.07218,-8.08122 2.99889,-2.49381 3.8044,0.62599 9.95158,-3.21197 7.5209,-4.69563 18.14329,-6.19508 19.46911,-6.44761 8.46003,-1.6415 25.66702,1.16684 27.90547,2.33598 3.92857,-8.48214 28.10209,2.21772 98.99495,-17.42514 19.64286,-1.96429 34.4594,-0.38252 45.7094,-2.52538 43.21429,2.67857 54.9382,-3.19633 61.36677,-1.76776 21.877,3.07243 35.29535,0.2768 39.14341,2.27284 18.93187,5.45552 39.16485,5.18917 43.94164,5.80838 3.36144,0.61921 10.09869,3.86227 11.24866,4.03919 3.53836,1.14997 10.97328,-0.1384 12.74246,1.01157 -2.21148,11.05738 -98.81673,5.14924 -116.42008,8.33376 -0.4423,5.30754 1.27977,14.12929 -6.15079,13.95237 15.30341,-20.96478 -55.01633,-22.60416 -67.84289,-3.85085 -13.00348,-8.22669 -32.44927,-14.26322 -66.41753,10.85914 5.13062,3.98066 7.3222,4.50859 9.09138,3.53554 0,0 20.09185,-16.20096 32.82995,-15.40483 -0.70767,10.70354 -16.92005,25.50635 -16.92005,25.50635 14.2419,17.86872 -12.36011,38.71537 -14.39467,37.12311 -18.22256,1.14997 -19.44544,-1.26269 -19.44544,-1.26269 z"
     id="path4073"
     inkscape:connector-curvature="0"
     sodipodi:nodetypes="cccccccccscccccccccccccccccccc" /><use
     height="1052.3622"
     width="744.09448"
     transform="translate(-580,-1.5146725e-6)"
     id="use3999"
     xlink:href="#image3193"
     y="0"
     x="0"
     style="fill:#780000;fill-opacity:1;display:none" /><path
     sodipodi:nodetypes="ccssscccsscsccscccsscssscc"
     inkscape:connector-curvature="0"
     id="path4018"
     d="m -824.7111,-255.65011 -0.28125,2.6875 c 1.25025,0.14087 3.639,0.93566 6.34375,2.15625 2.70475,1.22059 5.77122,2.87465 8.71875,4.65625 2.94753,1.7816 5.76573,3.70512 7.9375,5.5 2.17177,1.79488 3.6627,3.55208 4,4.4375 l 0.4375,1.15625 1.1875,-0.34375 c 0.61843,-0.17503 2.71573,-0.0749 5.34375,0.46875 2.62802,0.54363 5.91478,1.38233 9.375,2.5 8.68747,2.80611 14.40162,4.50199 17.40923,8.39418 4.77678,1.76918 8.98721,4.46505 9.93452,9.10582 0.94731,4.64077 0.8125,8.90625 0.8125,8.90625 l 2.6875,0.0625 c 0,0 0.1459,-4.49873 -0.875,-9.5 -1.0209,-5.00127 -3.19032,-10.79041 -8.375,-12.84375 l -0.0312,-0.0312 -0.0625,0 c -5.79844,-1.80103 -13.67951,-4.55238 -20.71875,-6.6875 -3.51962,-1.06756 -6.823,-1.98934 -9.59375,-2.5625 -2.26445,-0.46843 -4.02403,-0.63942 -5.5625,-0.46875 -0.87568,-1.56843 -2.29322,-3.0703 -4.25,-4.6875 -2.32029,-1.91763 -5.21549,-3.88458 -8.25,-5.71875 -3.03451,-1.83417 -6.20455,-3.53688 -9.03125,-4.8125 -2.8267,-1.27562 -5.26621,-2.16204 -7.15625,-2.375 z"
     style="font-size:medium;font-style:normal;font-variant:normal;font-weight:normal;font-stretch:normal;text-indent:0;text-align:start;text-decoration:none;line-height:normal;letter-spacing:normal;word-spacing:normal;text-transform:none;direction:ltr;block-progression:tb;writing-mode:lr-tb;text-anchor:start;baseline-shift:baseline;color:#000000;fill:url(#linearGradient4693);fill-opacity:1;stroke:none;stroke-width:2.70000005;marker:none;visibility:visible;display:none;overflow:visible;enable-background:accumulate;font-family:Sans;-inkscape-font-specification:Sans" /><g
     id="g5555"
     transform="matrix(0.32024382,0,0,0.32024382,-9.8774194,-17.685552)"><g
       id="g792"><linearGradient
         gradientTransform="matrix(1,0,0,-1,84,535)"
         y2="188.3907"
         x2="288.78949"
         y1="412.5"
         x1="288.78949"
         gradientUnits="userSpaceOnUse"
         id="SVGID_1_"><stop
           id="stop795"
           style="stop-color:#3D3D3D"
           offset="0.6404" /><stop
           id="stop797"
           style="stop-color:#000000"
           offset="0.6441" /></linearGradient><path
         id="path799"
         d="m 434.384,274.713 c 0,3.173 -0.289,6.635 -0.577,9.521 0.577,16.155 8.943,31.157 22.214,40.39 v 22.214 c -15.002,-6.635 -26.542,-17.887 -33.754,-31.734 -12.982,19.329 -35.197,31.734 -60.584,31.734 -40.39,0 -72.125,-32.023 -72.125,-72.124 0,-40.678 31.158,-72.702 72.125,-72.702 38.946,-0.001 72.701,31.734 72.701,72.701 z m -19.33,-0.289 c 0,-29.138 -23.945,-53.083 -53.083,-53.083 -29.427,0 -53.084,23.945 -53.084,53.083 0,29.426 23.657,53.083 53.084,53.083 29.138,10e-4 53.083,-23.656 53.083,-53.083 z"
         inkscape:connector-curvature="0"
         style="fill:url(#linearGradient5613)" /><linearGradient
         gradientTransform="matrix(1,0,0,-1,84,535)"
         y2="188.3907"
         x2="414.23499"
         y1="412.5"
         x1="414.23499"
         gradientUnits="userSpaceOnUse"
         id="SVGID_2_"><stop
           id="stop802"
           style="stop-color:#3D3D3D"
           offset="0.6404" /><stop
           id="stop804"
           style="stop-color:#000000"
           offset="0.6441" /></linearGradient><path
         id="path806"
         d="m 546.612,236.054 -0.288,-0.289 c -20.772,-20.772 -54.238,-20.772 -75.01,0 -20.772,20.483 -20.772,54.237 0,75.01 20.483,20.771 54.526,20.771 75.01,0 l 13.559,13.559 v 0.289 c -28.561,28.272 -73.566,28.562 -102.128,0 -28.561,-28.85 -28.561,-73.855 -0.289,-102.417 28.85,-28.85 75.298,-27.407 102.706,0 l -13.56,13.848 z"
         inkscape:connector-curvature="0"
         style="fill:url(#linearGradient5615)" /><linearGradient
         gradientTransform="matrix(1,0,0,-1,84,535)"
         y2="188.3907"
         x2="542.24011"
         y1="412.5"
         x1="542.23993"
         gradientUnits="userSpaceOnUse"
         id="SVGID_3_"><stop
           id="stop809"
           style="stop-color:#3D3D3D"
           offset="0.6404" /><stop
           id="stop811"
           style="stop-color:#000000"
           offset="0.6441" /></linearGradient><path
         id="path813"
         d="m 698.653,345.972 h -19.33 v -20.483 c -12.982,13.848 -31.734,22.503 -52.795,22.503 -38.947,0 -72.701,-31.734 -72.701,-72.702 v -72.413 h 19.329 v 72.413 c 0,29.427 23.945,53.373 53.084,53.373 29.427,0 53.083,-23.945 53.083,-53.373 v -72.413 h 19.33 v 143.095 z"
         inkscape:connector-curvature="0"
         style="fill:url(#linearGradient5617)" /><linearGradient
         gradientTransform="matrix(1,0,0,-1,84,535)"
         y2="188.3907"
         x2="655.6225"
         y1="412.5"
         x1="655.6225"
         gradientUnits="userSpaceOnUse"
         id="SVGID_4_"><stop
           id="stop816"
           style="stop-color:#3D3D3D"
           offset="0.6404" /><stop
           id="stop818"
           style="stop-color:#000000"
           offset="0.6441" /></linearGradient><path
         id="path820"
         d="m 703.56,129.887 h 19.329 v 144.538 c 0,28.85 23.369,52.506 52.796,52.506 v 19.329 c -40.39,0 -72.125,-32.022 -72.125,-71.835 V 129.887 z"
         inkscape:connector-curvature="0"
         style="fill:url(#linearGradient5619)" /><linearGradient
         gradientTransform="matrix(1,0,0,-1,84,535)"
         y2="188.3907"
         x2="755.00952"
         y1="412.5"
         x1="755.00928"
         gradientUnits="userSpaceOnUse"
         id="SVGID_5_"><stop
           id="stop823"
           style="stop-color:#3D3D3D"
           offset="0.6404" /><stop
           id="stop825"
           style="stop-color:#000000"
           offset="0.6441" /></linearGradient><path
         id="path827"
         d="m 900.604,274.713 c 0,3.173 -0.289,6.635 -0.577,9.521 0.577,16.155 8.943,31.157 22.214,40.39 v 22.214 c -15.002,-6.635 -26.541,-17.887 -33.754,-31.734 -12.982,19.329 -35.196,31.734 -60.585,31.734 -40.39,0 -72.124,-32.023 -72.124,-72.124 0,-40.678 31.158,-72.702 72.124,-72.702 38.948,-0.001 72.702,31.734 72.702,72.701 z m -19.33,-0.289 c 0,-29.138 -23.945,-53.083 -53.083,-53.083 -29.427,0 -53.084,23.945 -53.084,53.083 0,29.426 23.657,53.083 53.084,53.083 29.138,10e-4 53.083,-23.656 53.083,-53.083 z"
         inkscape:connector-curvature="0"
         style="fill:url(#linearGradient5621)" /></g><g
       id="g829"><path
         id="path831"
         d="m 799.198,394.832 c -2.391,0 -4.542,-1.993 -4.542,-4.543 0,-2.551 2.151,-4.622 4.542,-4.622 2.551,0 4.623,2.071 4.623,4.622 0,2.55 -2.072,4.543 -4.623,4.543 z"
         inkscape:connector-curvature="0"
         style="fill:#dc0000" /><path
         id="path833"
         d="m 850.683,374.668 c 0,11.078 -8.847,19.925 -20.084,19.925 -11.157,0 -19.924,-8.847 -19.924,-19.925 0,-11.236 8.607,-20.083 19.924,-20.083 10.758,0 20.084,8.767 20.084,20.083 z m -5.34,-0.079 c 0,-8.129 -6.535,-14.664 -14.664,-14.664 -8.05,0 -14.664,6.535 -14.664,14.664 0,8.049 6.614,14.664 14.664,14.664 8.129,0 14.664,-6.615 14.664,-14.664 z"
         inkscape:connector-curvature="0"
         style="fill:#dc0000" /><path
         id="path835"
         d="m 857.061,354.903 h 5.34 v 6.217 c 3.586,-3.905 8.767,-6.296 14.584,-6.296 v 5.34 c -7.97,0 -14.266,6.216 -14.584,13.946 v 20.243 h -5.34 v -39.45 z"
         inkscape:connector-curvature="0"
         style="fill:#dc0000" /><path
         id="path837"
         d="m 913.327,388.217 c -3.666,3.905 -8.847,6.296 -14.744,6.296 -11.157,0 -19.924,-8.846 -19.924,-19.924 0,-11.237 8.607,-20.084 19.924,-20.084 10.68,0 20.004,8.767 20.084,20.004 v 19.128 c 0,11.077 -8.767,19.924 -19.925,19.924 v -5.34 c 8.13,0 14.585,-6.455 14.585,-14.584 v -5.42 z m 0,-13.071 v -0.638 c 0,-8.049 -6.615,-14.664 -14.664,-14.664 -8.129,0 -14.664,6.615 -14.664,14.664 0,8.129 6.535,14.664 14.664,14.664 7.811,10e-4 14.345,-6.215 14.664,-14.026 z"
         inkscape:connector-curvature="0"
         style="fill:#dc0000" /></g><g
       id="g839"><g
         id="g841"><g
           id="g843"><defs
             id="defs845"><path
               d="m 228.534,136 c -0.782,10 -6.131,24 -30.211,24 -37.206,0 -53.802,0 -53.802,0 l 1.2,-24 H 75 V 340 H 321 V 136 h -92.466 z"
               id="SVGID_6_"
               inkscape:connector-curvature="0" /></defs><clipPath
             id="SVGID_7_"><use
               id="use849"
               overflow="visible"
               xlink:href="#SVGID_6_"
               style="overflow:visible"
               x="0"
               y="0"
               width="960"
               height="560" /></clipPath><g
             id="g851"
             clip-path="url(#SVGID_7_)"><linearGradient
               gradientTransform="matrix(1,0,0,-1,84,535)"
               y2="188.34399"
               x2="119.722"
               y1="393.5"
               x1="119.722"
               gradientUnits="userSpaceOnUse"
               id="SVGID_8_"><stop
                 id="stop854"
                 style="stop-color:#C00000"
                 offset="0.5809" /><stop
                 id="stop856"
                 style="stop-color:#740000"
                 offset="0.5819" /></linearGradient><path
               id="path858"
               d="m 229.009,340.29 h -57.228 c -11.445,19.963 -33.538,34.869 -58.558,34.869 v -17.834 c 27.15,0 48.71,-21.561 48.71,-48.71 V 139.595 H 233.8 c 22.891,0.532 41.257,19.431 41.257,42.588 0,13.042 -6.122,25.021 -15.705,32.739 20.496,11.445 34.869,33.006 34.869,58.825 10e-4,36.465 -28.48,65.744 -65.212,66.543 z M 179.767,157.428 v 49.242 h 52.969 c 13.575,0 24.488,-10.913 24.488,-24.488 0,-13.575 -10.914,-24.754 -24.488,-24.754 h -52.969 z m 96.621,116.052 c 0,-27.15 -21.826,-48.976 -48.976,-48.976 h -47.646 v 97.952 h 47.646 c 27.15,0 48.976,-21.826 48.976,-48.976 z"
               inkscape:connector-curvature="0"
               style="fill:url(#linearGradient5623)" /></g></g></g></g><g
       transform="matrix(0.87021614,0,0,0.87021614,439.11507,75.204808)"
       id="g4725"><path
         sodipodi:nodetypes="cccccccccccccc"
         inkscape:connector-curvature="0"
         id="path3197"
         d="m -292.09982,88.1739 c -4.58645,4.91835 -33.06235,6.90551 -45.96194,4.04061 -56.27227,63.07881 43.79031,123.00812 -39.90103,276.27672 -11.36422,-22.47589 -30.05203,-28.53681 -42.4264,-29.04189 14.64721,-35.1028 -15.90991,-79.04443 -26.26397,-80.55966 -2.48947,-100.30982 -19.61638,-180.65317 36.36549,-213.64727 6.55983,-19.62478 24.40206,-26.2652 42.80521,-29.61009 8.46003,-1.6415 25.66702,1.16684 27.90547,2.33598 77.11376,-24.75455 196.18,-31.70301 300.40483,-9.59787 3.53836,1.14997 10.97328,-0.1384 12.74246,1.01157 -97.63121,28.69406 -135.20064,-4.34212 -190.41376,18.43528 -13.00348,-8.22669 -32.44927,-14.26322 -66.41753,10.85914 25.11424,-0.27152 48.5451,37.26402 7.10381,50.76017 -13.2196,2.48905 -15.94264,-1.26269 -15.94264,-1.26269 z"
         style="fill:#d10a0a;fill-opacity:1;stroke:#d10a0a;stroke-width:1px;stroke-linecap:butt;stroke-linejoin:miter;stroke-opacity:1" /><path
         sodipodi:nodetypes="ccccccccccc"
         inkscape:connector-curvature="0"
         id="path4802"
         d="m -297.81138,31.98159 c 0.79613,-3.71527 31.21428,-25.07809 33.16038,-26.05114 35.38361,-4.15757 100.29415,4.6094 112.58995,11.5092 1.06151,-6.28059 -27.93609,-17.06909 -38.37426,-18.74981 6.28059,0.79613 13.60187,0.5004 15.10567,0.23502 4.42295,1.32689 23.42252,11.2915 28.02239,18.01439 14.59574,-2.47685 55.04397,-16.26299 55.04397,-16.26299 0,0 -46.71626,14.35461 -55.03141,18.86602 -61.74439,-18.48793 -113.05739,-9.82848 -113.85352,-9.5631 -1.5038,-0.26538 -13.39368,3.40564 -31.35087,24.37042 z"
         style="fill:#000808;fill-opacity:1;stroke:none;filter:url(#filter4902)" /><path
         style="fill:#000000;fill-opacity:1;stroke:none;filter:url(#filter4465)"
         d="m -351.55936,71.13417 c -6.19213,10.61508 -24.01058,22.6548 -38.03738,31.66833 7.57774,18.38471 27.42229,29.19147 33.79134,70.94413 -19.28407,17.86872 -76.42859,52.72158 -84.56682,78.3747 17.86872,-28.12997 62.09823,-55.72918 82.08997,-72.00564 -9.73049,34.3221 -34.49902,93.05889 -58.02912,154.27253 11.67659,-17.51489 43.16801,-95.71267 61.92132,-154.98021 -1.59226,4.24603 -1.76919,108.09692 0.35383,112.87371 0,0 1.9461,-111.10453 3.18453,-112.51987 1.9461,3.36144 1.06151,103.67397 1.06151,103.67397 0,0 4.42295,-97.83568 3.53836,-101.90479 -13.26885,-45.64485 -29.89915,-64.75201 -34.3221,-77.13627 16.6303,-9.55357 31.49141,-29.89915 37.15279,-27.95305 -5.13062,-2.29993 -8.13823,-5.30754 -8.13823,-5.30754 z"
         id="path4435"
         inkscape:connector-curvature="0"
         sodipodi:nodetypes="cccccccccccccc" /><path
         sodipodi:nodetypes="cccccccccccccc"
         inkscape:connector-curvature="0"
         id="path4016"
         d="m -351.55936,71.13417 c -6.19213,10.61508 -24.01058,22.6548 -38.03738,31.66833 7.57774,18.38471 27.42229,29.19147 33.79134,70.94413 -19.28407,17.86872 -76.42859,52.72158 -84.56682,78.3747 17.86872,-28.12997 62.09823,-55.72918 82.08997,-72.00564 -9.73049,34.3221 -34.49902,93.05889 -58.02912,154.27253 11.67659,-17.51489 43.16801,-95.71267 61.92132,-154.98021 -1.59226,4.24603 -1.76919,108.09692 0.35383,112.87371 0,0 1.9461,-111.10453 3.18453,-112.51987 1.9461,3.36144 1.06151,103.67397 1.06151,103.67397 0,0 4.42295,-97.83568 3.53836,-101.90479 -13.26885,-45.64485 -29.89915,-64.75201 -34.3221,-77.13627 16.6303,-9.55357 31.49141,-29.89915 37.15279,-27.95305 -5.13062,-2.29993 -8.13823,-5.30754 -8.13823,-5.30754 z"
         style="fill:#b10808;fill-opacity:1;stroke:none;filter:url(#filter4672)" /><path
         sodipodi:nodetypes="csssccc"
         inkscape:connector-curvature="0"
         id="path4119"
         d="m -409.76694,43.21024 c 2.24081,-6.88781 10.36329,-25.16924 43.32382,-28.7086 30.18122,-3.24091 59.46222,19.07698 73.87165,20.20022 29.65437,2.31161 59.60462,29.86796 27.48078,52.66498 -13.0406,9.25439 -22.79405,2.08629 -28.80242,2.81843 -13.88575,4.54429 -35.39469,6.20655 -44.31666,2.43945 -3.30594,-28.42652 -35.77859,-16.38809 -71.55717,-49.41448 z"
         style="fill:url(#linearGradient5625);fill-opacity:1;stroke:none;filter:url(#filter4676)" /><path
         sodipodi:nodetypes="ccccc"
         inkscape:connector-curvature="0"
         id="path4115"
         d="m -283.1658,55.21983 c 0,0 9.1323,-24.58214 41.40809,-28.77299 1.43865,6.81795 -27.83474,39.34394 -27.83474,39.34394 8.13149,-22.33034 16.38809,-26.70884 15.19964,-30.96224 0,0 -14.88689,10.38329 -28.77299,20.39129 z"
         style="fill:#a00a0a;fill-opacity:1;stroke:none;filter:url(#filter4970)" /><path
         sodipodi:nodetypes="csscscc"
         inkscape:connector-curvature="0"
         id="path4111"
         d="m -299.18065,53.34946 c 0,0 -11.16482,-17.34958 -17.01449,-13.59938 -3.87878,2.48667 -1.23127,16.30854 2.56271,23.18331 1.38102,2.50243 5.2243,5.463 6.4753,6.27615 -30.27419,-12.07215 -24.12151,-40.15648 -22.94125,-40.35878 19.61351,-3.36186 33.36942,14.50588 42.32764,23.13204 -0.21196,5.8862 -11.40991,1.36666 -11.40991,1.36666 z"
         style="fill:#a00a0a;fill-opacity:1;stroke:none;filter:url(#filter4962)" /><path
         style="fill:#c60a0a;fill-opacity:1;stroke:none;filter:url(#filter4978)"
         d="m -283.1658,55.21983 13.57335,10.57095 c 13.51079,-24.45704 17.76419,-28.58534 16.57574,-32.83874 0,0 -20.01599,10.63349 -30.14909,22.26779 z"
         id="path4117"
         inkscape:connector-curvature="0"
         sodipodi:nodetypes="cccc" /><path
         style="fill:#c60a0a;fill-opacity:1;stroke:none;filter:url(#filter4990)"
         d="m -299.18065,53.34946 c 0,0 -11.16482,-17.34958 -17.01449,-13.59938 -3.87878,2.48667 -1.23127,16.30854 2.56271,23.18331 1.38102,2.50243 5.04021,6.50537 6.033,5.39156 z"
         id="path4113"
         inkscape:connector-curvature="0"
         sodipodi:nodetypes="csscc" /><g
         transform="translate(5.81508,-388.90641)"
         id="g4065"><path
           sodipodi:nodetypes="sssss"
           inkscape:connector-curvature="0"
           id="path4061"
           d="m -274.88566,435.66817 c 14.52662,0.88047 14.4015,14.5252 14.35685,17.83748 -0.0982,7.28202 -8.2904,11.03527 -14.67003,11.1831 -6.37963,0.14784 -15.54267,-5.85283 -15.65008,-13.1873 -0.0915,-6.25404 3.05305,-16.61578 15.96326,-15.83328 z"
           style="fill:url(#radialGradient5627);fill-opacity:1;stroke:none" /><path
           style="fill:url(#radialGradient5629);fill-opacity:1;stroke:none"
           d="m -298.97109,439.66817 c 15.24567,0.88047 15.11435,14.5252 15.06749,17.83748 -0.10302,7.28202 -8.70077,11.03527 -15.39618,11.1831 -6.69541,0.14784 -16.31202,-5.85283 -16.42474,-13.1873 -0.0961,-6.25404 3.20417,-16.61578 16.75343,-15.83328 z"
           id="path4035"
           inkscape:connector-curvature="0"
           sodipodi:nodetypes="sssss" /></g><path
         transform="matrix(2.127139,0,0,1.8235294,-912.73503,-779.88919)"
         d="m 302.176,471.18643 c 0,1.66106 -1.34655,3.00761 -3.0076,3.00761 -1.66106,0 -3.00761,-1.34655 -3.00761,-3.00761 0,-1.66105 1.34655,-3.0076 3.00761,-3.0076 1.66105,0 3.0076,1.34655 3.0076,3.0076 z"
         sodipodi:ry="3.0076067"
         sodipodi:rx="3.0076067"
         sodipodi:cy="471.18643"
         sodipodi:cx="299.1684"
         id="path4075"
         style="fill:#570000;fill-opacity:1;stroke:none;filter:url(#filter5062)"
         sodipodi:type="arc" /><path
         transform="matrix(1.2963724,0,0,1.2963724,-610.17236,-550.7325)"
         style="fill:url(#linearGradient5631);fill-opacity:1;stroke:none;filter:url(#filter4537)"
         d="m 134.68281,477.89335 c 0,0 47.0404,54.09764 48.70057,73.75861 1.66017,19.66097 -38.21425,31.62018 -57.70725,62.50018 0,0 -7.49486,-101.45431 9.00668,-136.25879 z"
         id="path4541"
         inkscape:connector-curvature="0"
         sodipodi:nodetypes="czcc" /><path
         sodipodi:nodetypes="czcc"
         inkscape:connector-curvature="0"
         id="path4614"
         d="m 124.49688,476.83231 c 0,0 57.22633,55.15868 58.8865,74.81965 1.66017,19.66097 -39.48749,35.43991 -62.80022,65.89549 -1.27324,-19.73525 -4.31175,-98.059 3.91372,-140.71514 z"
         style="fill:url(#radialGradient5633);fill-opacity:1;stroke:none;filter:url(#filter4798)"
         transform="matrix(0.83370498,0,0,0.83370498,-549.56497,-298.10557)" /><path
         style="fill:#af0808;fill-opacity:1;stroke:none;filter:url(#filter4914)"
         d="m -300.06318,34.98399 c 0.79613,-3.71527 33.46608,-28.08049 35.41218,-29.05354 35.38361,-4.15757 100.29415,4.6094 112.58995,11.5092 1.06151,-6.28059 -27.93609,-17.06909 -38.37426,-18.74981 6.28059,0.79613 13.60187,0.5004 15.10567,0.23502 4.42295,1.32689 23.42252,11.2915 28.02239,18.01439 15.21495,-3.80374 46.72882,-14.05151 55.04397,-16.26299 -4.15757,1.41534 -46.27396,15.50458 -55.03141,18.86602 -61.74439,-18.48793 -113.05739,-9.82848 -113.85352,-9.5631 -1.5038,-0.26538 -15.64548,6.40804 -33.60267,27.37282 z"
         id="path4804"
         inkscape:connector-curvature="0"
         sodipodi:nodetypes="ccccccccccc" /><path
         d="m -290.20594,84.246439 c 0,0 5.88227,9.533368 18.39358,5.013203 0,0 0.0934,-1.051813 -0.67185,-0.941373 -0.76519,0.11044 -11.51077,2.854357 -16.34254,-5.021091 0,0 -1.09388,-0.310285 -1.37919,0.949261 z"
         id="path4616"
         inkscape:connector-curvature="0"
         style="fill:#090909" /></g></g></svg>