\relax 
\providecommand\hyper@newdestlabel[2]{}
\@writefile{toc}{\contentsline {chapter}{\numberline {2}Baculum API and Web GUI Tools}{19}{chapter.2}}
\@writefile{lof}{\addvspace {10\p@ }}
\@writefile{lot}{\addvspace {10\p@ }}
\newlabel{BaculumChapter}{{2}{19}{Baculum API and Web GUI Tools}{chapter.2}{}}
\@writefile{toc}{\contentsline {section}{\numberline {2.1}Base Features}{19}{section.2.1}}
\@writefile{toc}{\contentsline {section}{\numberline {2.2}General Requirements}{19}{section.2.2}}
\@writefile{toc}{\contentsline {section}{\numberline {2.3}Installation Baculum API from rpm binary packages}{20}{section.2.3}}
\@writefile{toc}{\contentsline {subsection}{\numberline {2.3.1}Add the Baculum rpm repository}{20}{subsection.2.3.1}}
\@writefile{toc}{\contentsline {subsection}{\numberline {2.3.2}Installation for the Apache}{21}{subsection.2.3.2}}
\@writefile{toc}{\contentsline {subsection}{\numberline {2.3.3}Installation for Lighttpd}{21}{subsection.2.3.3}}
\@writefile{toc}{\contentsline {subsection}{\numberline {2.3.4}Access to bconsole via sudo for Apache and Lighttpd}{21}{subsection.2.3.4}}
\@writefile{toc}{\contentsline {section}{\numberline {2.4}Installation Baculum API from deb binary packages}{21}{section.2.4}}
\@writefile{toc}{\contentsline {subsection}{\numberline {2.4.1}Add the Baculum deb repository}{22}{subsection.2.4.1}}
\@writefile{toc}{\contentsline {subsection}{\numberline {2.4.2}Installation for Apache}{22}{subsection.2.4.2}}
\@writefile{toc}{\contentsline {subsection}{\numberline {2.4.3}Installation for Lighttpd}{22}{subsection.2.4.3}}
\@writefile{toc}{\contentsline {subsection}{\numberline {2.4.4}Access to bconsole via sudo for Apache and Lighttpd}{23}{subsection.2.4.4}}
\@writefile{toc}{\contentsline {section}{\numberline {2.5}Debugging your First Baculum API Login}{23}{section.2.5}}
\@writefile{toc}{\contentsline {section}{\numberline {2.6}Installation Baculum Web from rpm binary packages}{23}{section.2.6}}
\@writefile{toc}{\contentsline {subsection}{\numberline {2.6.1}Installation for the Apache}{23}{subsection.2.6.1}}
\@writefile{toc}{\contentsline {subsection}{\numberline {2.6.2}Installation for Lighttpd}{23}{subsection.2.6.2}}
\@writefile{toc}{\contentsline {section}{\numberline {2.7}Installation Baculum Web from deb binary packages}{24}{section.2.7}}
\@writefile{toc}{\contentsline {subsection}{\numberline {2.7.1}Installation for Apache}{24}{subsection.2.7.1}}
\@writefile{toc}{\contentsline {subsection}{\numberline {2.7.2}Installation for Lighttpd}{24}{subsection.2.7.2}}
\@writefile{toc}{\contentsline {section}{\numberline {2.8}Running Baculum API and Web for the First Time}{24}{section.2.8}}
\@writefile{toc}{\contentsline {subsection}{\numberline {2.8.1}Running Baculum API}{24}{subsection.2.8.1}}
\@writefile{toc}{\contentsline {subsection}{\numberline {2.8.2}Running Baculum Web}{24}{subsection.2.8.2}}
\@writefile{toc}{\contentsline {section}{\numberline {2.9}Installation wizards}{24}{section.2.9}}
\@writefile{toc}{\contentsline {section}{\numberline {2.10}Current Baculum API documentation}{28}{section.2.10}}
\@writefile{toc}{\contentsline {section}{\numberline {2.11}Baculum API endpoints (obsolete)}{28}{section.2.11}}
\@writefile{toc}{\contentsline {subsection}{\numberline {2.11.1}Clients}{28}{subsection.2.11.1}}
\@writefile{toc}{\contentsline {subsection}{\numberline {2.11.2}Storages}{28}{subsection.2.11.2}}
\@writefile{toc}{\contentsline {subsection}{\numberline {2.11.3}Volumes}{29}{subsection.2.11.3}}
\@writefile{toc}{\contentsline {subsection}{\numberline {2.11.4}Pools}{29}{subsection.2.11.4}}
\@writefile{toc}{\contentsline {subsection}{\numberline {2.11.5}Jobs}{29}{subsection.2.11.5}}
\@writefile{toc}{\contentsline {subsection}{\numberline {2.11.6}Bvfs}{32}{subsection.2.11.6}}
\@writefile{toc}{\contentsline {subsection}{\numberline {2.11.7}Config}{34}{subsection.2.11.7}}
\@writefile{toc}{\contentsline {section}{\numberline {2.12}Installation from the Source Tar File}{35}{section.2.12}}
\@writefile{toc}{\contentsline {section}{\numberline {2.13}OAuth2 authorization}{36}{section.2.13}}
\@writefile{toc}{\contentsline {subsection}{\numberline {2.13.1}Before running OAuth2}{36}{subsection.2.13.1}}
\@writefile{toc}{\contentsline {section}{\numberline {2.14}Multi-user interface}{37}{section.2.14}}
\@writefile{toc}{\contentsline {section}{\numberline {2.15}Screenshots}{42}{section.2.15}}
\@setckpt{baculum}{
\setcounter{page}{47}
\setcounter{equation}{0}
\setcounter{enumi}{3}
\setcounter{enumii}{0}
\setcounter{enumiii}{0}
\setcounter{enumiv}{0}
\setcounter{footnote}{0}
\setcounter{mpfootnote}{0}
\setcounter{part}{0}
\setcounter{chapter}{2}
\setcounter{section}{15}
\setcounter{subsection}{0}
\setcounter{subsubsection}{0}
\setcounter{paragraph}{0}
\setcounter{subparagraph}{0}
\setcounter{figure}{0}
\setcounter{table}{0}
\setcounter{Item}{7}
\setcounter{Hfootnote}{0}
\setcounter{bookmark@seq@number}{48}
\setcounter{lpart}{0}
\setcounter{lchapter}{1}
\setcounter{lsection}{0}
\setcounter{lsubsection}{0}
\setcounter{lsubsubsection}{0}
\setcounter{lparagraph}{0}
\setcounter{lsubparagraph}{0}
\setcounter{lsubsubparagraph}{0}
\setcounter{float@type}{4}
\setcounter{LT@tables}{0}
\setcounter{LT@chunks}{0}
\setcounter{vrcnt}{2}
\setcounter{section@level}{1}
}
