\relax 
\providecommand\hyper@newdestlabel[2]{}
\@writefile{toc}{\contentsline {chapter}{\numberline {1}Bacula Console}{1}{chapter.1}}
\@writefile{lof}{\addvspace {10\p@ }}
\@writefile{lot}{\addvspace {10\p@ }}
\newlabel{TheConsoleChapter}{{1}{1}{Bacula Console}{chapter.1}{}}
\@writefile{general}{\indexentry{Console!Bacula}{1}}
\@writefile{general}{\indexentry{Bacula Console}{1}}
\@writefile{general}{\indexentry{Console!Bacula}{1}}
\@writefile{general}{\indexentry{Bacula Console}{1}}
\@writefile{toc}{\contentsline {section}{\numberline {1.1}Console Configuration}{1}{section.1.1}}
\@writefile{general}{\indexentry{Console Configuration}{1}}
\@writefile{general}{\indexentry{Configuration!Console}{1}}
\@writefile{general}{\indexentry{Console Configuration}{1}}
\@writefile{general}{\indexentry{Configuration!Console}{1}}
\newlabel{1@xvr}{{}{1}{Console Configuration}{section.1.1}{}}
\newlabel{1@vr}{{}{1}{Console Configuration}{section.1.1}{}}
\@writefile{toc}{\contentsline {section}{\numberline {1.2}Running the Console Program}{1}{section.1.2}}
\@writefile{general}{\indexentry{Running the Console Program}{1}}
\@writefile{general}{\indexentry{Program!Running the Console}{1}}
\@writefile{general}{\indexentry{Running the Console Program}{1}}
\@writefile{general}{\indexentry{Program!Running the Console}{1}}
\@writefile{toc}{\contentsline {section}{\numberline {1.3}Stopping the Console Program}{2}{section.1.3}}
\@writefile{general}{\indexentry{Program!Stopping the Console}{2}}
\@writefile{general}{\indexentry{Stopping the Console Program}{2}}
\@writefile{general}{\indexentry{Program!Stopping the Console}{2}}
\@writefile{general}{\indexentry{Stopping the Console Program}{2}}
\newlabel{keywords}{{1.3}{2}{Stopping the Console Program}{section.1.3}{}}
\@writefile{toc}{\contentsline {section}{\numberline {1.4}Alphabetic List of Console Keywords}{2}{section.1.4}}
\@writefile{general}{\indexentry{Keywords!Alphabetic List of Console}{2}}
\@writefile{general}{\indexentry{Alphabetic List of Console Keywords}{2}}
\@writefile{general}{\indexentry{Keywords!Alphabetic List of Console}{2}}
\@writefile{general}{\indexentry{Alphabetic List of Console Keywords}{2}}
\newlabel{list}{{1.4}{3}{Alphabetic List of Console Keywords}{section.1.4}{}}
\@writefile{toc}{\contentsline {section}{\numberline {1.5}Alphabetic List of Console Commands}{4}{section.1.5}}
\@writefile{general}{\indexentry{Commands!Alphabetic List of Console}{4}}
\@writefile{general}{\indexentry{Alphabetic List of Console Commands}{4}}
\@writefile{general}{\indexentry{Commands!Alphabetic List of Console}{4}}
\@writefile{general}{\indexentry{Alphabetic List of Console Commands}{4}}
\@writefile{general}{\indexentry{add}{4}}
\@writefile{general}{\indexentry{autodisplay on/off}{4}}
\@writefile{general}{\indexentry{automount on/off}{4}}
\@writefile{general}{\indexentry{cancel jobid}{4}}
\@writefile{general}{\indexentry{create pool}{4}}
\@writefile{general}{\indexentry{delete}{4}}
\@writefile{general}{\indexentry{disable}{5}}
\@writefile{general}{\indexentry{enable}{5}}
\newlabel{estimate}{{1.5}{5}{Alphabetic List of Console Commands}{section.1.5}{}}
\@writefile{general}{\indexentry{estimate}{5}}
\@writefile{general}{\indexentry{exit}{5}}
\@writefile{general}{\indexentry{gui}{6}}
\@writefile{general}{\indexentry{help}{6}}
\@writefile{general}{\indexentry{label}{6}}
\@writefile{general}{\indexentry{relabel}{6}}
\@writefile{general}{\indexentry{label}{6}}
\@writefile{general}{\indexentry{relabel}{6}}
\@writefile{general}{\indexentry{list}{7}}
\@writefile{general}{\indexentry{llist}{8}}
\@writefile{general}{\indexentry{messages}{8}}
\@writefile{general}{\indexentry{memory}{8}}
\@writefile{general}{\indexentry{mount}{8}}
\newlabel{ManualPruning}{{1.5}{9}{Alphabetic List of Console Commands}{Item.4}{}}
\@writefile{general}{\indexentry{prune}{9}}
\@writefile{general}{\indexentry{purge}{9}}
\@writefile{general}{\indexentry{query}{9}}
\@writefile{general}{\indexentry{quit}{10}}
\@writefile{general}{\indexentry{relabel}{10}}
\@writefile{general}{\indexentry{relabel}{10}}
\@writefile{general}{\indexentry{release}{10}}
\@writefile{general}{\indexentry{reload}{10}}
\newlabel{restore_command}{{1.5}{10}{Alphabetic List of Console Commands}{Item.4}{}}
\@writefile{general}{\indexentry{restore}{10}}
\newlabel{2@xvr}{{}{10}{Alphabetic List of Console Commands}{Item.4}{}}
\newlabel{2@vr}{{}{10}{Alphabetic List of Console Commands}{Item.4}{}}
\@writefile{general}{\indexentry{run}{11}}
\@writefile{general}{\indexentry{setbandwidth}{11}}
\@writefile{general}{\indexentry{setdebug}{11}}
\@writefile{general}{\indexentry{setdebug}{11}}
\@writefile{general}{\indexentry{debugging}{11}}
\@writefile{general}{\indexentry{debugging Win32}{11}}
\@writefile{general}{\indexentry{Windows!debugging}{11}}
\@writefile{general}{\indexentry{setip}{12}}
\@writefile{general}{\indexentry{show}{12}}
\@writefile{general}{\indexentry{show}{12}}
\@writefile{general}{\indexentry{sqlquery}{12}}
\@writefile{general}{\indexentry{status}{12}}
\@writefile{general}{\indexentry{time}{14}}
\@writefile{general}{\indexentry{trace}{14}}
\@writefile{general}{\indexentry{umount}{14}}
\@writefile{general}{\indexentry{unmount}{14}}
\newlabel{UpdateCommand}{{1.5}{14}{Alphabetic List of Console Commands}{Item.4}{}}
\@writefile{general}{\indexentry{update}{14}}
\@writefile{general}{\indexentry{use}{15}}
\newlabel{var}{{1.5}{15}{Alphabetic List of Console Commands}{Item.4}{}}
\@writefile{general}{\indexentry{var name}{15}}
\@writefile{general}{\indexentry{version}{15}}
\@writefile{general}{\indexentry{wait}{15}}
\newlabel{dotcommands}{{1.5}{15}{Alphabetic List of Console Commands}{Item.4}{}}
\@writefile{toc}{\contentsline {section}{\numberline {1.6}Special dot Commands}{15}{section.1.6}}
\@writefile{general}{\indexentry{Commands!Special dot}{15}}
\@writefile{general}{\indexentry{Special dot Commands}{15}}
\newlabel{atcommands}{{1.6}{15}{Special dot Commands}{section.1.6}{}}
\@writefile{toc}{\contentsline {section}{\numberline {1.7}Special At (@) Commands}{16}{section.1.7}}
\@writefile{general}{\indexentry{Commands!Special At @}{16}}
\@writefile{general}{\indexentry{Special At (@) Commands}{16}}
\@writefile{general}{\indexentry{@input \lt{}filename\gt{}}{16}}
\@writefile{general}{\indexentry{@output \lt{}filename\gt{} w/a}{16}}
\@writefile{general}{\indexentry{@tee \lt{}filename\gt{} w/a}{16}}
\@writefile{general}{\indexentry{@sleep \lt{}seconds\gt{}}{16}}
\@writefile{general}{\indexentry{@time}{16}}
\@writefile{general}{\indexentry{@version}{16}}
\@writefile{general}{\indexentry{@quit}{16}}
\@writefile{general}{\indexentry{@exit}{16}}
\@writefile{general}{\indexentry{anything}{16}}
\@writefile{general}{\indexentry{@help}{16}}
\@writefile{general}{\indexentry{@separator}{16}}
\newlabel{scripting}{{1.7}{16}{Special At (@) Commands}{section.1.7}{}}
\@writefile{toc}{\contentsline {section}{\numberline {1.8}Running the Console from a Shell Script}{16}{section.1.8}}
\@writefile{general}{\indexentry{Script!Running the Console Program from a Shell}{16}}
\@writefile{general}{\indexentry{Running the Console Program from a Shell Script}{16}}
\@writefile{toc}{\contentsline {section}{\numberline {1.9}Adding Volumes to a Pool}{17}{section.1.9}}
\@writefile{general}{\indexentry{Adding Volumes to a Pool}{17}}
\@writefile{general}{\indexentry{Pool!Adding Volumes to a}{17}}
\@setckpt{bconsole}{
\setcounter{page}{19}
\setcounter{equation}{0}
\setcounter{enumi}{3}
\setcounter{enumii}{0}
\setcounter{enumiii}{0}
\setcounter{enumiv}{0}
\setcounter{footnote}{0}
\setcounter{mpfootnote}{0}
\setcounter{part}{0}
\setcounter{chapter}{1}
\setcounter{section}{9}
\setcounter{subsection}{0}
\setcounter{subsubsection}{0}
\setcounter{paragraph}{0}
\setcounter{subparagraph}{0}
\setcounter{figure}{0}
\setcounter{table}{0}
\setcounter{Item}{7}
\setcounter{Hfootnote}{0}
\setcounter{bookmark@seq@number}{10}
\setcounter{lpart}{0}
\setcounter{lchapter}{1}
\setcounter{lsection}{0}
\setcounter{lsubsection}{0}
\setcounter{lsubsubsection}{0}
\setcounter{lparagraph}{0}
\setcounter{lsubparagraph}{0}
\setcounter{lsubsubparagraph}{0}
\setcounter{float@type}{4}
\setcounter{LT@tables}{0}
\setcounter{LT@chunks}{0}
\setcounter{vrcnt}{2}
\setcounter{section@level}{1}
}
